<?xml version="1.0" encoding="UTF-8" standalone="no"?>
<!DOCTYPE svg PUBLIC "-//W3C//DTD SVG 1.1//EN"
 "http://www.w3.org/Graphics/SVG/1.1/DTD/svg11.dtd">
<!-- Generated by graphviz version 2.40.1 (20161225.0304)
 -->
<!-- Title: searcher Pages: 1 -->
<svg width="100%" height="100%" xmlns="http://www.w3.org/2000/svg" xmlns:xlink="http://www.w3.org/1999/xlink">
<script type="text/ecmascript"><![CDATA[
/** 
 *  SVGPan library 1.2.1
 * ======================
 *
 * Given an unique existing element with id "viewport" (or when missing, the first g 
 * element), including the the library into any SVG adds the following capabilities:
 *
 *  - Mouse panning
 *  - Mouse zooming (using the wheel)
 *  - Object dragging
 *
 * You can configure the behavior of the pan/zoom/drag with the variables
 * listed in the CONFIGURATION section of this file.
 *
 * Known issues:
 *
 *  - Zooming (while panning) on Safari has still some issues
 *
 * Releases:
 *
 * 1.2.1, Mon Jul  4 00:33:18 CEST 2011, Andrea Leofreddi
 *	- Fixed a regression with mouse wheel (now working on Firefox 5)
 *	- Working with viewBox attribute (#4)
 *	- Added "use strict;" and fixed resulting warnings (#5)
 *	- Added configuration variables, dragging is disabled by default (#3)
 *
 * 1.2, Sat Mar 20 08:42:50 GMT 2010, Zeng Xiaohui
 *	Fixed a bug with browser mouse handler interaction
 *
 * 1.1, Wed Feb  3 17:39:33 GMT 2010, Zeng Xiaohui
 *	Updated the zoom code to support the mouse wheel on Safari/Chrome
 *
 * 1.0, Andrea Leofreddi
 *	First release
 *
 * This code is licensed under the following BSD license:
 *
 * Copyright 2009-2010 Andrea Leofreddi <a.leofreddi@itcharm.com>. All rights reserved.
 * 
 * Redistribution and use in source and binary forms, with or without modification, are
 * permitted provided that the following conditions are met:
 * 
 *    1. Redistributions of source code must retain the above copyright notice, this list of
 *       conditions and the following disclaimer.
 * 
 *    2. Redistributions in binary form must reproduce the above copyright notice, this list
 *       of conditions and the following disclaimer in the documentation and/or other materials
 *       provided with the distribution.
 * 
 * THIS SOFTWARE IS PROVIDED BY Andrea Leofreddi ``AS IS'' AND ANY EXPRESS OR IMPLIED
 * WARRANTIES, INCLUDING, BUT NOT LIMITED TO, THE IMPLIED WARRANTIES OF MERCHANTABILITY AND
 * FITNESS FOR A PARTICULAR PURPOSE ARE DISCLAIMED. IN NO EVENT SHALL Andrea Leofreddi OR
 * CONTRIBUTORS BE LIABLE FOR ANY DIRECT, INDIRECT, INCIDENTAL, SPECIAL, EXEMPLARY, OR
 * CONSEQUENTIAL DAMAGES (INCLUDING, BUT NOT LIMITED TO, PROCUREMENT OF SUBSTITUTE GOODS OR
 * SERVICES; LOSS OF USE, DATA, OR PROFITS; OR BUSINESS INTERRUPTION) HOWEVER CAUSED AND ON
 * ANY THEORY OF LIABILITY, WHETHER IN CONTRACT, STRICT LIABILITY, OR TORT (INCLUDING
 * NEGLIGENCE OR OTHERWISE) ARISING IN ANY WAY OUT OF THE USE OF THIS SOFTWARE, EVEN IF
 * ADVISED OF THE POSSIBILITY OF SUCH DAMAGE.
 * 
 * The views and conclusions contained in the software and documentation are those of the
 * authors and should not be interpreted as representing official policies, either expressed
 * or implied, of Andrea Leofreddi.
 */

"use strict";

/// CONFIGURATION 
/// ====>

var enablePan = 1; // 1 or 0: enable or disable panning (default enabled)
var enableZoom = 1; // 1 or 0: enable or disable zooming (default enabled)
var enableDrag = 0; // 1 or 0: enable or disable dragging (default disabled)

/// <====
/// END OF CONFIGURATION 

var root = document.documentElement;

var state = 'none', svgRoot, stateTarget, stateOrigin, stateTf;

setupHandlers(root);

/**
 * Register handlers
 */
function setupHandlers(root){
	setAttributes(root, {
		"onmouseup" : "handleMouseUp(evt)",
		"onmousedown" : "handleMouseDown(evt)",
		"onmousemove" : "handleMouseMove(evt)",
		//"onmouseout" : "handleMouseUp(evt)", // Decomment this to stop the pan functionality when dragging out of the SVG element
	});

	if(navigator.userAgent.toLowerCase().indexOf('webkit') >= 0)
		window.addEventListener('mousewheel', handleMouseWheel, false); // Chrome/Safari
	else
		window.addEventListener('DOMMouseScroll', handleMouseWheel, false); // Others
}

/**
 * Retrieves the root element for SVG manipulation. The element is then cached into the svgRoot global variable.
 */
function getRoot(root) {
	if(typeof(svgRoot) == "undefined") {
		var g = null;

		g = root.getElementById("viewport");

		if(g == null)
			g = root.getElementsByTagName('g')[0];

		if(g == null)
			alert('Unable to obtain SVG root element');

		setCTM(g, g.getCTM());

		g.removeAttribute("viewBox");

		svgRoot = g;
	}

	return svgRoot;
}

/**
 * Instance an SVGPoint object with given event coordinates.
 */
function getEventPoint(evt) {
	var p = root.createSVGPoint();

	p.x = evt.clientX;
	p.y = evt.clientY;

	return p;
}

/**
 * Sets the current transform matrix of an element.
 */
function setCTM(element, matrix) {
	var s = "matrix(" + matrix.a + "," + matrix.b + "," + matrix.c + "," + matrix.d + "," + matrix.e + "," + matrix.f + ")";

	element.setAttribute("transform", s);
}

/**
 * Dumps a matrix to a string (useful for debug).
 */
function dumpMatrix(matrix) {
	var s = "[ " + matrix.a + ", " + matrix.c + ", " + matrix.e + "\n  " + matrix.b + ", " + matrix.d + ", " + matrix.f + "\n  0, 0, 1 ]";

	return s;
}

/**
 * Sets attributes of an element.
 */
function setAttributes(element, attributes){
	for (var i in attributes)
		element.setAttributeNS(null, i, attributes[i]);
}

/**
 * Handle mouse wheel event.
 */
function handleMouseWheel(evt) {
	if(!enableZoom)
		return;

	if(evt.preventDefault)
		evt.preventDefault();

	evt.returnValue = false;

	var svgDoc = evt.target.ownerDocument;

	var delta;

	if(evt.wheelDelta)
		delta = evt.wheelDelta / 3600; // Chrome/Safari
	else
		delta = evt.detail / -90; // Mozilla

	var z = 1 + delta; // Zoom factor: 0.9/1.1

	var g = getRoot(svgDoc);
	
	var p = getEventPoint(evt);

	p = p.matrixTransform(g.getCTM().inverse());

	// Compute new scale matrix in current mouse position
	var k = root.createSVGMatrix().translate(p.x, p.y).scale(z).translate(-p.x, -p.y);

        setCTM(g, g.getCTM().multiply(k));

	if(typeof(stateTf) == "undefined")
		stateTf = g.getCTM().inverse();

	stateTf = stateTf.multiply(k.inverse());
}

/**
 * Handle mouse move event.
 */
function handleMouseMove(evt) {
	if(evt.preventDefault)
		evt.preventDefault();

	evt.returnValue = false;

	var svgDoc = evt.target.ownerDocument;

	var g = getRoot(svgDoc);

	if(state == 'pan' && enablePan) {
		// Pan mode
		var p = getEventPoint(evt).matrixTransform(stateTf);

		setCTM(g, stateTf.inverse().translate(p.x - stateOrigin.x, p.y - stateOrigin.y));
	} else if(state == 'drag' && enableDrag) {
		// Drag mode
		var p = getEventPoint(evt).matrixTransform(g.getCTM().inverse());

		setCTM(stateTarget, root.createSVGMatrix().translate(p.x - stateOrigin.x, p.y - stateOrigin.y).multiply(g.getCTM().inverse()).multiply(stateTarget.getCTM()));

		stateOrigin = p;
	}
}

/**
 * Handle click event.
 */
function handleMouseDown(evt) {
	if(evt.preventDefault)
		evt.preventDefault();

	evt.returnValue = false;

	var svgDoc = evt.target.ownerDocument;

	var g = getRoot(svgDoc);

	if(
		evt.target.tagName == "svg" 
		|| !enableDrag // Pan anyway when drag is disabled and the user clicked on an element 
	) {
		// Pan mode
		state = 'pan';

		stateTf = g.getCTM().inverse();

		stateOrigin = getEventPoint(evt).matrixTransform(stateTf);
	} else {
		// Drag mode
		state = 'drag';

		stateTarget = evt.target;

		stateTf = g.getCTM().inverse();

		stateOrigin = getEventPoint(evt).matrixTransform(stateTf);
	}
}

/**
 * Handle mouse button release event.
 */
function handleMouseUp(evt) {
	if(evt.preventDefault)
		evt.preventDefault();

	evt.returnValue = false;

	var svgDoc = evt.target.ownerDocument;

	if(state == 'pan' || state == 'drag') {
		// Quit pan mode
		state = '';
	}
}

]]></script><g id="viewport" transform="scale(0.5,0.5) translate(0,0)"><g id="graph0" class="graph" transform="scale(1 1) rotate(0) translate(4 1622)">
<title>searcher</title>
<polygon fill="#ffffff" stroke="transparent" points="-4,4 -4,-1622 2167.5,-1622 2167.5,4 -4,4"/>
<g id="clust1" class="cluster">
<title>cluster_L</title>
<polygon fill="none" stroke="#000000" points="8,-1376 8,-1610 678,-1610 678,-1376 8,-1376"/>
</g>
<!-- L -->
<g id="node1" class="node">
<title>L</title>
<polygon fill="#f8f8f8" stroke="#000000" points="670,-1602 16,-1602 16,-1384 670,-1384 670,-1602"/>
<text text-anchor="start" x="24" y="-1572.4" font-family="Times,serif" font-size="32.00" fill="#000000">File: searcher</text>
<text text-anchor="start" x="24" y="-1537.4" font-family="Times,serif" font-size="32.00" fill="#000000">Type: inuse_objects</text>
<text text-anchor="start" x="24" y="-1502.4" font-family="Times,serif" font-size="32.00" fill="#000000">Time: May 19, 2017 at 10:35pm (MSK)</text>
<text text-anchor="start" x="24" y="-1467.4" font-family="Times,serif" font-size="32.00" fill="#000000">5718985 of 5728348 total (99.84%)</text>
<text text-anchor="start" x="24" y="-1432.4" font-family="Times,serif" font-size="32.00" fill="#000000">Dropped 53 nodes (cum &lt;= 28641)</text>
<text text-anchor="start" x="24" y="-1397.4" font-family="Times,serif" font-size="32.00" fill="#000000">Dropped 4 edges (freq &lt;= 5728)</text>
</g>
<!-- N1 -->
<g id="node2" class="node">
<title>N1</title>
<g id="a_node2"><a xlink:title="runtime.convT2E (2293798)">
<polygon fill="#f8f8f8" stroke="#000000" points="1100,-258 870,-258 870,-198 1100,-198 1100,-258"/>
<text text-anchor="middle" x="985" y="-234.8" font-family="Times,serif" font-size="24.00" fill="#000000">runtime.convT2E</text>
<text text-anchor="middle" x="985" y="-208.8" font-family="Times,serif" font-size="24.00" fill="#000000">2293798(40.04%)</text>
</a>
</g>
</g>
<!-- N2 -->
<g id="node3" class="node">
<title>N2</title>
<g id="a_node3"><a xlink:title="runtime.rawstringtmp (2268434)">
<polygon fill="#f8f8f8" stroke="#000000" points="937.5,-60 652.5,-60 652.5,0 937.5,0 937.5,-60"/>
<text text-anchor="middle" x="795" y="-36.8" font-family="Times,serif" font-size="24.00" fill="#000000">runtime.rawstringtmp</text>
<text text-anchor="middle" x="795" y="-10.8" font-family="Times,serif" font-size="24.00" fill="#000000">2268434(39.60%)</text>
</a>
</g>
</g>
<!-- N3 -->
<g id="node4" class="node">
<title>N3</title>
<g id="a_node4"><a xlink:title="encoding/json.(*decodeState).arrayInterface (2172622)">
<polygon fill="#f8f8f8" stroke="#000000" points="1013,-536 677,-536 677,-483 1013,-483 1013,-536"/>
<text text-anchor="middle" x="845" y="-520.8" font-family="Times,serif" font-size="14.00" fill="#000000">encoding/json.(*decodeState).arrayInterface</text>
<text text-anchor="middle" x="845" y="-505.8" font-family="Times,serif" font-size="14.00" fill="#000000">270352(4.72%)</text>
<text text-anchor="middle" x="845" y="-490.8" font-family="Times,serif" font-size="14.00" fill="#000000">of 2172622(37.93%)</text>
</a>
</g>
</g>
<!-- N25 -->
<g id="node26" class="node">
<title>N25</title>
<g id="a_node26"><a xlink:title="encoding/json.(*decodeState).valueInterface (1902270)">
<polygon fill="#f8f8f8" stroke="#000000" points="936.5,-432 729.5,-432 729.5,-396 936.5,-396 936.5,-432"/>
<text text-anchor="middle" x="833" y="-416.6" font-family="Times,serif" font-size="8.00" fill="#000000">encoding/json.(*decodeState).valueInterface</text>
<text text-anchor="middle" x="833" y="-407.6" font-family="Times,serif" font-size="8.00" fill="#000000">0 of 1902270(33.21%)</text>
</a>
</g>
</g>
<!-- N3&#45;&gt;N25 -->
<g id="edge15" class="edge">
<title>N3&#45;&gt;N25</title>
<g id="a_edge15"><a xlink:title="encoding/json.(*decodeState).arrayInterface &#45;&gt; encoding/json.(*decodeState).valueInterface (1902270)">
<path fill="none" stroke="#000000" stroke-width="2" d="M841.6573,-482.8979C840.0645,-470.2213 838.1585,-455.0527 836.5408,-442.1791"/>
<polygon fill="#000000" stroke="#000000" stroke-width="2" points="839.9826,-441.4957 835.2631,-432.0102 833.0372,-442.3685 839.9826,-441.4957"/>
</a>
</g>
<g id="a_edge15&#45;label"><a xlink:title="encoding/json.(*decodeState).arrayInterface &#45;&gt; encoding/json.(*decodeState).valueInterface (1902270)">
<text text-anchor="middle" x="873" y="-453.8" font-family="Times,serif" font-size="14.00" fill="#000000"> 1902270</text>
</a>
</g>
</g>
<!-- N4 -->
<g id="node5" class="node">
<title>N4</title>
<g id="a_node5"><a xlink:title="runtime.makemap (229386)">
<polygon fill="#f8f8f8" stroke="#000000" points="658,-896 510,-896 510,-858 658,-858 658,-896"/>
<text text-anchor="middle" x="584" y="-880.8" font-family="Times,serif" font-size="14.00" fill="#000000">runtime.makemap</text>
<text text-anchor="middle" x="584" y="-865.8" font-family="Times,serif" font-size="14.00" fill="#000000">229386(4.00%)</text>
</a>
</g>
</g>
<!-- N5 -->
<g id="node6" class="node">
<title>N5</title>
<g id="a_node6"><a xlink:title="runtime.mapassign (222155)">
<polygon fill="#f8f8f8" stroke="#000000" points="539,-345 399,-345 399,-309 539,-309 539,-345"/>
<text text-anchor="middle" x="469" y="-330.6" font-family="Times,serif" font-size="13.00" fill="#000000">runtime.mapassign</text>
<text text-anchor="middle" x="469" y="-316.6" font-family="Times,serif" font-size="13.00" fill="#000000">222155(3.88%)</text>
</a>
</g>
</g>
<!-- N6 -->
<g id="node7" class="node">
<title>N6</title>
<g id="a_node7"><a xlink:title="regexp.progMachine (92849)">
<polygon fill="#f8f8f8" stroke="#000000" points="1534,-432 1392,-432 1392,-396 1534,-396 1534,-432"/>
<text text-anchor="middle" x="1463" y="-417.4" font-family="Times,serif" font-size="12.00" fill="#000000">regexp.progMachine</text>
<text text-anchor="middle" x="1463" y="-404.4" font-family="Times,serif" font-size="12.00" fill="#000000">92849(1.62%)</text>
</a>
</g>
</g>
<!-- N7 -->
<g id="node8" class="node">
<title>N7</title>
<g id="a_node8"><a xlink:title="encoding/json.stateBeginValue (65537)">
<polygon fill="#f8f8f8" stroke="#000000" points="1037,-719 841,-719 841,-683 1037,-683 1037,-719"/>
<text text-anchor="middle" x="939" y="-704.2" font-family="Times,serif" font-size="11.00" fill="#000000">encoding/json.stateBeginValue</text>
<text text-anchor="middle" x="939" y="-692.2" font-family="Times,serif" font-size="11.00" fill="#000000">65537(1.14%)</text>
</a>
</g>
</g>
<!-- N8 -->
<g id="node9" class="node">
<title>N8</title>
<g id="a_node9"><a xlink:title="regexp.(*Regexp).doExecute (170737)">
<polygon fill="#f8f8f8" stroke="#000000" points="1289,-631 1107,-631 1107,-587 1289,-587 1289,-631"/>
<text text-anchor="middle" x="1198" y="-618.2" font-family="Times,serif" font-size="11.00" fill="#000000">regexp.(*Regexp).doExecute</text>
<text text-anchor="middle" x="1198" y="-606.2" font-family="Times,serif" font-size="11.00" fill="#000000">43694(0.76%)</text>
<text text-anchor="middle" x="1198" y="-594.2" font-family="Times,serif" font-size="11.00" fill="#000000">of 170737(2.98%)</text>
</a>
</g>
</g>
<!-- N39 -->
<g id="node40" class="node">
<title>N39</title>
<g id="a_node40"><a xlink:title="regexp.(*Regexp).get (92849)">
<polygon fill="#f8f8f8" stroke="#000000" points="1499.5,-527.5 1392.5,-527.5 1392.5,-491.5 1499.5,-491.5 1499.5,-527.5"/>
<text text-anchor="middle" x="1446" y="-512.1" font-family="Times,serif" font-size="8.00" fill="#000000">regexp.(*Regexp).get</text>
<text text-anchor="middle" x="1446" y="-503.1" font-family="Times,serif" font-size="8.00" fill="#000000">0 of 92849(1.62%)</text>
</a>
</g>
</g>
<!-- N8&#45;&gt;N39 -->
<g id="edge38" class="edge">
<title>N8&#45;&gt;N39</title>
<g id="a_edge38"><a xlink:title="regexp.(*Regexp).doExecute &#45;&gt; regexp.(*Regexp).get (92849)">
<path fill="none" stroke="#000000" d="M1257.5716,-586.9496C1272.7535,-581.2124 1289.0145,-574.9648 1304,-569 1334.2127,-556.9742 1367.7785,-542.9411 1394.6873,-531.5243"/>
<polygon fill="#000000" stroke="#000000" points="1396.0779,-534.7364 1403.9113,-527.6028 1393.3391,-528.2944 1396.0779,-534.7364"/>
</a>
</g>
<g id="a_edge38&#45;label"><a xlink:title="regexp.(*Regexp).doExecute &#45;&gt; regexp.(*Regexp).get (92849)">
<text text-anchor="middle" x="1364" y="-557.8" font-family="Times,serif" font-size="14.00" fill="#000000"> 92849</text>
</a>
</g>
</g>
<!-- N40 -->
<g id="node41" class="node">
<title>N40</title>
<g id="a_node41"><a xlink:title="regexp.(*machine).backtrack (34194)">
<polygon fill="#f8f8f8" stroke="#000000" points="1367,-527.5 1227,-527.5 1227,-491.5 1367,-491.5 1367,-527.5"/>
<text text-anchor="middle" x="1297" y="-512.1" font-family="Times,serif" font-size="8.00" fill="#000000">regexp.(*machine).backtrack</text>
<text text-anchor="middle" x="1297" y="-503.1" font-family="Times,serif" font-size="8.00" fill="#000000">0 of 34194(0.6%)</text>
</a>
</g>
</g>
<!-- N8&#45;&gt;N40 -->
<g id="edge47" class="edge">
<title>N8&#45;&gt;N40</title>
<g id="a_edge47"><a xlink:title="regexp.(*Regexp).doExecute &#45;&gt; regexp.(*machine).backtrack (34194)">
<path fill="none" stroke="#000000" d="M1219.9713,-586.9177C1235.2451,-571.5668 1255.6462,-551.0626 1271.6158,-535.0124"/>
<polygon fill="#000000" stroke="#000000" points="1274.4854,-537.0906 1279.0575,-527.5331 1269.5231,-532.1534 1274.4854,-537.0906"/>
</a>
</g>
<g id="a_edge47&#45;label"><a xlink:title="regexp.(*Regexp).doExecute &#45;&gt; regexp.(*machine).backtrack (34194)">
<text text-anchor="middle" x="1275" y="-557.8" font-family="Times,serif" font-size="14.00" fill="#000000"> 34194</text>
</a>
</g>
</g>
<!-- N9 -->
<g id="node10" class="node">
<title>N9</title>
<g id="a_node10"><a xlink:title="regexp/syntax.(*compiler).rune (42604)">
<polygon fill="#f8f8f8" stroke="#000000" points="1749.5,-432 1552.5,-432 1552.5,-396 1749.5,-396 1749.5,-432"/>
<text text-anchor="middle" x="1651" y="-417.2" font-family="Times,serif" font-size="11.00" fill="#000000">regexp/syntax.(*compiler).rune</text>
<text text-anchor="middle" x="1651" y="-405.2" font-family="Times,serif" font-size="11.00" fill="#000000">42604(0.74%)</text>
</a>
</g>
</g>
<!-- N10 -->
<g id="node11" class="node">
<title>N10</title>
<g id="a_node11"><a xlink:title="regexp/syntax.(*parser).newLiteral (37452)">
<polygon fill="#f8f8f8" stroke="#000000" points="1986.5,-432 1767.5,-432 1767.5,-396 1986.5,-396 1986.5,-432"/>
<text text-anchor="middle" x="1877" y="-417.2" font-family="Times,serif" font-size="11.00" fill="#000000">regexp/syntax.(*parser).newLiteral</text>
<text text-anchor="middle" x="1877" y="-405.2" font-family="Times,serif" font-size="11.00" fill="#000000">37452(0.65%)</text>
</a>
</g>
</g>
<!-- N11 -->
<g id="node12" class="node">
<title>N11</title>
<g id="a_node12"><a xlink:title="regexp.(*bitState).reset (34194)">
<polygon fill="#f8f8f8" stroke="#000000" points="1374,-432 1240,-432 1240,-396 1374,-396 1374,-432"/>
<text text-anchor="middle" x="1307" y="-417" font-family="Times,serif" font-size="10.00" fill="#000000">regexp.(*bitState).reset</text>
<text text-anchor="middle" x="1307" y="-406" font-family="Times,serif" font-size="10.00" fill="#000000">34194(0.6%)</text>
</a>
</g>
</g>
<!-- N12 -->
<g id="node13" class="node">
<title>N12</title>
<g id="a_node13"><a xlink:title="regexp/syntax.(*parser).push (32768)">
<polygon fill="#f8f8f8" stroke="#000000" points="2163.5,-432 2004.5,-432 2004.5,-396 2163.5,-396 2163.5,-432"/>
<text text-anchor="middle" x="2084" y="-417" font-family="Times,serif" font-size="10.00" fill="#000000">regexp/syntax.(*parser).push</text>
<text text-anchor="middle" x="2084" y="-406" font-family="Times,serif" font-size="10.00" fill="#000000">32768(0.57%)</text>
</a>
</g>
</g>
<!-- N13 -->
<g id="node14" class="node">
<title>N13</title>
<g id="a_node14"><a xlink:title="runtime.stringtoslicebyte (32768)">
<polygon fill="#f8f8f8" stroke="#000000" points="1593,-627 1453,-627 1453,-591 1593,-591 1593,-627"/>
<text text-anchor="middle" x="1523" y="-612" font-family="Times,serif" font-size="10.00" fill="#000000">runtime.stringtoslicebyte</text>
<text text-anchor="middle" x="1523" y="-601" font-family="Times,serif" font-size="10.00" fill="#000000">32768(0.57%)</text>
</a>
</g>
</g>
<!-- N14 -->
<g id="node15" class="node">
<title>N14</title>
<g id="a_node15"><a xlink:title="regexp/syntax.Parse (97528)">
<polygon fill="#f8f8f8" stroke="#000000" points="1780,-629.5 1664,-629.5 1664,-588.5 1780,-588.5 1780,-629.5"/>
<text text-anchor="middle" x="1722" y="-617.5" font-family="Times,serif" font-size="10.00" fill="#000000">regexp/syntax.Parse</text>
<text text-anchor="middle" x="1722" y="-606.5" font-family="Times,serif" font-size="10.00" fill="#000000">27308(0.48%)</text>
<text text-anchor="middle" x="1722" y="-595.5" font-family="Times,serif" font-size="10.00" fill="#000000">of 97528(1.70%)</text>
</a>
</g>
</g>
<!-- N44 -->
<g id="node45" class="node">
<title>N44</title>
<g id="a_node45"><a xlink:title="regexp/syntax.(*parser).literal (70220)">
<polygon fill="#f8f8f8" stroke="#000000" points="1903,-527.5 1757,-527.5 1757,-491.5 1903,-491.5 1903,-527.5"/>
<text text-anchor="middle" x="1830" y="-512.1" font-family="Times,serif" font-size="8.00" fill="#000000">regexp/syntax.(*parser).literal</text>
<text text-anchor="middle" x="1830" y="-503.1" font-family="Times,serif" font-size="8.00" fill="#000000">0 of 70220(1.23%)</text>
</a>
</g>
</g>
<!-- N14&#45;&gt;N44 -->
<g id="edge40" class="edge">
<title>N14&#45;&gt;N44</title>
<g id="a_edge40"><a xlink:title="regexp/syntax.Parse &#45;&gt; regexp/syntax.(*parser).literal (70220)">
<path fill="none" stroke="#000000" d="M1744.3777,-588.3835C1761.3531,-572.7442 1784.7657,-551.1741 1802.8187,-534.5421"/>
<polygon fill="#000000" stroke="#000000" points="1805.21,-537.0979 1810.1931,-527.748 1800.467,-531.9497 1805.21,-537.0979"/>
</a>
</g>
<g id="a_edge40&#45;label"><a xlink:title="regexp/syntax.Parse &#45;&gt; regexp/syntax.(*parser).literal (70220)">
<text text-anchor="middle" x="1804" y="-557.8" font-family="Times,serif" font-size="14.00" fill="#000000"> 70220</text>
</a>
</g>
</g>
<!-- N15 -->
<g id="node16" class="node">
<title>N15</title>
<g id="a_node16"><a xlink:title="regexp/syntax.Compile (61724)">
<polygon fill="#f8f8f8" stroke="#000000" points="1435,-629.5 1307,-629.5 1307,-588.5 1435,-588.5 1435,-629.5"/>
<text text-anchor="middle" x="1371" y="-617.5" font-family="Times,serif" font-size="10.00" fill="#000000">regexp/syntax.Compile</text>
<text text-anchor="middle" x="1371" y="-606.5" font-family="Times,serif" font-size="10.00" fill="#000000">19120(0.33%)</text>
<text text-anchor="middle" x="1371" y="-595.5" font-family="Times,serif" font-size="10.00" fill="#000000">of 61724(1.08%)</text>
</a>
</g>
</g>
<!-- N43 -->
<g id="node44" class="node">
<title>N43</title>
<g id="a_node44"><a xlink:title="regexp/syntax.(*compiler).compile (42604)">
<polygon fill="#f8f8f8" stroke="#000000" points="1702,-527.5 1538,-527.5 1538,-491.5 1702,-491.5 1702,-527.5"/>
<text text-anchor="middle" x="1620" y="-512.1" font-family="Times,serif" font-size="8.00" fill="#000000">regexp/syntax.(*compiler).compile</text>
<text text-anchor="middle" x="1620" y="-503.1" font-family="Times,serif" font-size="8.00" fill="#000000">0 of 42604(0.74%)</text>
</a>
</g>
</g>
<!-- N15&#45;&gt;N43 -->
<g id="edge45" class="edge">
<title>N15&#45;&gt;N43</title>
<g id="a_edge45"><a xlink:title="regexp/syntax.Compile &#45;&gt; regexp/syntax.(*compiler).compile (42604)">
<path fill="none" stroke="#000000" d="M1422.593,-588.3835C1464.3092,-571.7138 1522.8871,-548.3062 1565.3899,-531.3221"/>
<polygon fill="#000000" stroke="#000000" points="1566.756,-534.5454 1574.7433,-527.5845 1564.1585,-528.0451 1566.756,-534.5454"/>
</a>
</g>
<g id="a_edge45&#45;label"><a xlink:title="regexp/syntax.Compile &#45;&gt; regexp/syntax.(*compiler).compile (42604)">
<text text-anchor="middle" x="1527" y="-557.8" font-family="Times,serif" font-size="14.00" fill="#000000"> 42604</text>
</a>
</g>
</g>
<!-- N16 -->
<g id="node17" class="node">
<title>N16</title>
<g id="a_node17"><a xlink:title="regexp.compile (207937)">
<polygon fill="#f8f8f8" stroke="#000000" points="1421.5,-720 1320.5,-720 1320.5,-682 1421.5,-682 1421.5,-720"/>
<text text-anchor="middle" x="1371" y="-708.8" font-family="Times,serif" font-size="9.00" fill="#000000">regexp.compile</text>
<text text-anchor="middle" x="1371" y="-698.8" font-family="Times,serif" font-size="9.00" fill="#000000">6554(0.11%)</text>
<text text-anchor="middle" x="1371" y="-688.8" font-family="Times,serif" font-size="9.00" fill="#000000">of 207937(3.63%)</text>
</a>
</g>
</g>
<!-- N16&#45;&gt;N13 -->
<g id="edge49" class="edge">
<title>N16&#45;&gt;N13</title>
<g id="a_edge49"><a xlink:title="regexp.compile &#45;&gt; runtime.stringtoslicebyte (32768)">
<path fill="none" stroke="#000000" d="M1402.4945,-681.9375C1426.2968,-667.5309 1459.0916,-647.6814 1484.4606,-632.3265"/>
<polygon fill="#000000" stroke="#000000" points="1486.3546,-635.2714 1493.0972,-627.099 1482.7299,-629.2829 1486.3546,-635.2714"/>
</a>
</g>
<g id="a_edge49&#45;label"><a xlink:title="regexp.compile &#45;&gt; runtime.stringtoslicebyte (32768)">
<text text-anchor="middle" x="1481" y="-652.8" font-family="Times,serif" font-size="14.00" fill="#000000"> 32768</text>
</a>
</g>
</g>
<!-- N16&#45;&gt;N14 -->
<g id="edge37" class="edge">
<title>N16&#45;&gt;N14</title>
<g id="a_edge37"><a xlink:title="regexp.compile &#45;&gt; regexp/syntax.Parse (97528)">
<path fill="none" stroke="#000000" d="M1421.6636,-687.7207C1482.8246,-671.6899 1585.9245,-644.6665 1653.9723,-626.8306"/>
<polygon fill="#000000" stroke="#000000" points="1654.9629,-630.1893 1663.7487,-624.2681 1653.188,-623.418 1654.9629,-630.1893"/>
</a>
</g>
<g id="a_edge37&#45;label"><a xlink:title="regexp.compile &#45;&gt; regexp/syntax.Parse (97528)">
<text text-anchor="middle" x="1592" y="-652.8" font-family="Times,serif" font-size="14.00" fill="#000000"> 97528</text>
</a>
</g>
</g>
<!-- N16&#45;&gt;N15 -->
<g id="edge43" class="edge">
<title>N16&#45;&gt;N15</title>
<g id="a_edge43"><a xlink:title="regexp.compile &#45;&gt; regexp/syntax.Compile (61724)">
<path fill="none" stroke="#000000" d="M1371,-681.9375C1371,-669.7747 1371,-653.7325 1371,-639.7906"/>
<polygon fill="#000000" stroke="#000000" points="1374.5001,-639.6376 1371,-629.6376 1367.5001,-639.6377 1374.5001,-639.6376"/>
</a>
</g>
<g id="a_edge43&#45;label"><a xlink:title="regexp.compile &#45;&gt; regexp/syntax.Compile (61724)">
<text text-anchor="middle" x="1396" y="-652.8" font-family="Times,serif" font-size="14.00" fill="#000000"> 61724</text>
</a>
</g>
</g>
<!-- N17 -->
<g id="node18" class="node">
<title>N17</title>
<g id="a_node18"><a xlink:title="main.main.func1 (5728348)">
<polygon fill="#f8f8f8" stroke="#000000" points="791,-985 687,-985 687,-947 791,-947 791,-985"/>
<text text-anchor="middle" x="739" y="-973.8" font-family="Times,serif" font-size="9.00" fill="#000000">main.main.func1</text>
<text text-anchor="middle" x="739" y="-963.8" font-family="Times,serif" font-size="9.00" fill="#000000">12(0.00021%)</text>
<text text-anchor="middle" x="739" y="-953.8" font-family="Times,serif" font-size="9.00" fill="#000000">of 5728348(100%)</text>
</a>
</g>
</g>
<!-- N17&#45;&gt;N4 -->
<g id="edge27" class="edge">
<title>N17&#45;&gt;N4</title>
<g id="a_edge27"><a xlink:title="main.main.func1 &#45;&gt; runtime.makemap (229386)">
<path fill="none" stroke="#000000" d="M705.7486,-946.9073C682.4567,-933.5332 651.1458,-915.5547 626.1098,-901.1792"/>
<polygon fill="#000000" stroke="#000000" points="627.6113,-898.0054 617.1964,-896.0612 624.1257,-904.0759 627.6113,-898.0054"/>
</a>
</g>
<g id="a_edge27&#45;label"><a xlink:title="main.main.func1 &#45;&gt; runtime.makemap (229386)">
<text text-anchor="middle" x="700.5" y="-917.8" font-family="Times,serif" font-size="14.00" fill="#000000"> 229386</text>
</a>
</g>
</g>
<!-- N26 -->
<g id="node27" class="node">
<title>N26</title>
<g id="a_node27"><a xlink:title="encoding/json.Unmarshal (5120030)">
<polygon fill="#f8f8f8" stroke="#000000" points="801.5,-895 676.5,-895 676.5,-859 801.5,-859 801.5,-895"/>
<text text-anchor="middle" x="739" y="-879.6" font-family="Times,serif" font-size="8.00" fill="#000000">encoding/json.Unmarshal</text>
<text text-anchor="middle" x="739" y="-870.6" font-family="Times,serif" font-size="8.00" fill="#000000">0 of 5120030(89.38%)</text>
</a>
</g>
</g>
<!-- N17&#45;&gt;N26 -->
<g id="edge6" class="edge">
<title>N17&#45;&gt;N26</title>
<g id="a_edge6"><a xlink:title="main.main.func1 &#45;&gt; encoding/json.Unmarshal (5120030)">
<path fill="none" stroke="#000000" stroke-width="5" d="M739,-946.6883C739,-934.5863 739,-918.7782 739,-905.278"/>
<polygon fill="#000000" stroke="#000000" stroke-width="5" points="743.3751,-905.0607 739,-895.0607 734.6251,-905.0608 743.3751,-905.0607"/>
</a>
</g>
<g id="a_edge6&#45;label"><a xlink:title="main.main.func1 &#45;&gt; encoding/json.Unmarshal (5120030)">
<text text-anchor="middle" x="773" y="-917.8" font-family="Times,serif" font-size="14.00" fill="#000000"> 5120030</text>
</a>
</g>
</g>
<!-- N42 -->
<g id="node43" class="node">
<title>N42</title>
<g id="a_node43"><a xlink:title="regexp.MatchString (378658)">
<polygon fill="#f8f8f8" stroke="#000000" points="936.5,-895 835.5,-895 835.5,-859 936.5,-859 936.5,-895"/>
<text text-anchor="middle" x="886" y="-879.6" font-family="Times,serif" font-size="8.00" fill="#000000">regexp.MatchString</text>
<text text-anchor="middle" x="886" y="-870.6" font-family="Times,serif" font-size="8.00" fill="#000000">0 of 378658(6.61%)</text>
</a>
</g>
</g>
<!-- N17&#45;&gt;N42 -->
<g id="edge23" class="edge">
<title>N17&#45;&gt;N42</title>
<g id="a_edge23"><a xlink:title="main.main.func1 &#45;&gt; regexp.MatchString (378658)">
<path fill="none" stroke="#000000" d="M778.3723,-946.9485C789.1102,-941.4351 800.6363,-935.2189 811,-929 825.2653,-920.4399 840.4457,-910.1539 853.3907,-900.9978"/>
<polygon fill="#000000" stroke="#000000" points="855.4406,-903.8348 861.5426,-895.1736 851.3712,-898.1392 855.4406,-903.8348"/>
</a>
</g>
<g id="a_edge23&#45;label"><a xlink:title="main.main.func1 &#45;&gt; regexp.MatchString (378658)">
<text text-anchor="middle" x="863.5" y="-917.8" font-family="Times,serif" font-size="14.00" fill="#000000"> 378658</text>
</a>
</g>
</g>
<!-- N18 -->
<g id="node19" class="node">
<title>N18</title>
<g id="a_node19"><a xlink:title="encoding/json.(*decodeState).array (2369236)">
<polygon fill="#f8f8f8" stroke="#000000" points="929,-627 761,-627 761,-591 929,-591 929,-627"/>
<text text-anchor="middle" x="845" y="-611.6" font-family="Times,serif" font-size="8.00" fill="#000000">encoding/json.(*decodeState).array</text>
<text text-anchor="middle" x="845" y="-602.6" font-family="Times,serif" font-size="8.00" fill="#000000">0 of 2369236(41.36%)</text>
</a>
</g>
</g>
<!-- N18&#45;&gt;N1 -->
<g id="edge33" class="edge">
<title>N18&#45;&gt;N1</title>
<g id="a_edge33"><a xlink:title="encoding/json.(*decodeState).array &#45;&gt; runtime.convT2E (196614)">
<path fill="none" stroke="#000000" d="M929.4291,-595.3333C964.1734,-585.0965 1001.1083,-567.2152 1022,-536 1035.1017,-516.4242 1029.6898,-505.265 1022,-483 1012.5959,-455.7715 991.4041,-459.2285 982,-432 963.1989,-377.5638 969.4904,-309.9839 976.5844,-267.9154"/>
<polygon fill="#000000" stroke="#000000" points="980.0334,-268.5103 978.3419,-258.0514 973.142,-267.2824 980.0334,-268.5103"/>
</a>
</g>
<g id="a_edge33&#45;label"><a xlink:title="encoding/json.(*decodeState).array &#45;&gt; runtime.convT2E (196614)">
<text text-anchor="middle" x="1011.5" y="-410.3" font-family="Times,serif" font-size="14.00" fill="#000000"> 196614</text>
</a>
</g>
</g>
<!-- N18&#45;&gt;N3 -->
<g id="edge12" class="edge">
<title>N18&#45;&gt;N3</title>
<g id="a_edge12"><a xlink:title="encoding/json.(*decodeState).array &#45;&gt; encoding/json.(*decodeState).arrayInterface (2172622)">
<path fill="none" stroke="#000000" stroke-width="2" d="M845,-590.7502C845,-578.3514 845,-561.5182 845,-546.3889"/>
<polygon fill="#000000" stroke="#000000" stroke-width="2" points="848.5001,-546.2623 845,-536.2623 841.5001,-546.2624 848.5001,-546.2623"/>
</a>
</g>
<g id="a_edge12&#45;label"><a xlink:title="encoding/json.(*decodeState).array &#45;&gt; encoding/json.(*decodeState).arrayInterface (2172622)">
<text text-anchor="middle" x="879" y="-557.8" font-family="Times,serif" font-size="14.00" fill="#000000"> 2172622</text>
</a>
</g>
</g>
<!-- N19 -->
<g id="node20" class="node">
<title>N19</title>
<g id="a_node20"><a xlink:title="encoding/json.(*decodeState).literal (2102649)">
<polygon fill="#f8f8f8" stroke="#000000" points="1222,-432 1050,-432 1050,-396 1222,-396 1222,-432"/>
<text text-anchor="middle" x="1136" y="-416.6" font-family="Times,serif" font-size="8.00" fill="#000000">encoding/json.(*decodeState).literal</text>
<text text-anchor="middle" x="1136" y="-407.6" font-family="Times,serif" font-size="8.00" fill="#000000">0 of 2102649(36.71%)</text>
</a>
</g>
</g>
<!-- N21 -->
<g id="node22" class="node">
<title>N21</title>
<g id="a_node22"><a xlink:title="encoding/json.(*decodeState).literalStore (2102649)">
<polygon fill="#f8f8f8" stroke="#000000" points="1233.5,-345 1038.5,-345 1038.5,-309 1233.5,-309 1233.5,-345"/>
<text text-anchor="middle" x="1136" y="-329.6" font-family="Times,serif" font-size="8.00" fill="#000000">encoding/json.(*decodeState).literalStore</text>
<text text-anchor="middle" x="1136" y="-320.6" font-family="Times,serif" font-size="8.00" fill="#000000">0 of 2102649(36.71%)</text>
</a>
</g>
</g>
<!-- N19&#45;&gt;N21 -->
<g id="edge13" class="edge">
<title>N19&#45;&gt;N21</title>
<g id="a_edge13"><a xlink:title="encoding/json.(*decodeState).literal &#45;&gt; encoding/json.(*decodeState).literalStore (2102649)">
<path fill="none" stroke="#000000" stroke-width="2" d="M1136,-395.9735C1136,-384.1918 1136,-368.5607 1136,-355.1581"/>
<polygon fill="#000000" stroke="#000000" stroke-width="2" points="1139.5001,-355.0033 1136,-345.0034 1132.5001,-355.0034 1139.5001,-355.0033"/>
</a>
</g>
<g id="a_edge13&#45;label"><a xlink:title="encoding/json.(*decodeState).literal &#45;&gt; encoding/json.(*decodeState).literalStore (2102649)">
<text text-anchor="middle" x="1170" y="-366.8" font-family="Times,serif" font-size="14.00" fill="#000000"> 2102649</text>
</a>
</g>
</g>
<!-- N20 -->
<g id="node21" class="node">
<title>N20</title>
<g id="a_node21"><a xlink:title="encoding/json.(*decodeState).literalInterface (1902270)">
<polygon fill="#f8f8f8" stroke="#000000" points="938,-345 728,-345 728,-309 938,-309 938,-345"/>
<text text-anchor="middle" x="833" y="-329.6" font-family="Times,serif" font-size="8.00" fill="#000000">encoding/json.(*decodeState).literalInterface</text>
<text text-anchor="middle" x="833" y="-320.6" font-family="Times,serif" font-size="8.00" fill="#000000">0 of 1902270(33.21%)</text>
</a>
</g>
</g>
<!-- N20&#45;&gt;N1 -->
<g id="edge18" class="edge">
<title>N20&#45;&gt;N1</title>
<g id="a_edge18"><a xlink:title="encoding/json.(*decodeState).literalInterface &#45;&gt; runtime.convT2E (1048592)">
<path fill="none" stroke="#000000" d="M851.0961,-308.9749C862.0762,-298.5935 876.6919,-285.7194 891,-276 897.5012,-271.5838 904.4625,-267.3 911.5473,-263.2282"/>
<polygon fill="#000000" stroke="#000000" points="913.5404,-266.1239 920.5621,-258.1901 910.1254,-260.0135 913.5404,-266.1239"/>
</a>
</g>
<g id="a_edge18&#45;label"><a xlink:title="encoding/json.(*decodeState).literalInterface &#45;&gt; runtime.convT2E (1048592)">
<text text-anchor="middle" x="925" y="-279.8" font-family="Times,serif" font-size="14.00" fill="#000000"> 1048592</text>
</a>
</g>
</g>
<!-- N28 -->
<g id="node29" class="node">
<title>N28</title>
<g id="a_node29"><a xlink:title="encoding/json.unquote (853678)">
<polygon fill="#f8f8f8" stroke="#000000" points="851.5,-246 738.5,-246 738.5,-210 851.5,-210 851.5,-246"/>
<text text-anchor="middle" x="795" y="-230.6" font-family="Times,serif" font-size="8.00" fill="#000000">encoding/json.unquote</text>
<text text-anchor="middle" x="795" y="-221.6" font-family="Times,serif" font-size="8.00" fill="#000000">0 of 853678(14.90%)</text>
</a>
</g>
</g>
<!-- N20&#45;&gt;N28 -->
<g id="edge20" class="edge">
<title>N20&#45;&gt;N28</title>
<g id="a_edge20"><a xlink:title="encoding/json.(*decodeState).literalInterface &#45;&gt; encoding/json.unquote (853678)">
<path fill="none" stroke="#000000" d="M815.9411,-308.7231C811.7584,-303.3597 807.7095,-297.2471 805,-291 800.2915,-280.1439 797.7715,-267.3748 796.4332,-256.1809"/>
<polygon fill="#000000" stroke="#000000" points="799.901,-255.6732 795.4795,-246.0451 792.9318,-256.329 799.901,-255.6732"/>
</a>
</g>
<g id="a_edge20&#45;label"><a xlink:title="encoding/json.(*decodeState).literalInterface &#45;&gt; encoding/json.unquote (853678)">
<text text-anchor="middle" x="834.5" y="-279.8" font-family="Times,serif" font-size="14.00" fill="#000000"> 853678</text>
</a>
</g>
</g>
<!-- N21&#45;&gt;N1 -->
<g id="edge19" class="edge">
<title>N21&#45;&gt;N1</title>
<g id="a_edge19"><a xlink:title="encoding/json.(*decodeState).literalStore &#45;&gt; runtime.convT2E (1048592)">
<path fill="none" stroke="#000000" d="M1087.8017,-308.9682C1076.343,-303.8428 1064.4256,-297.7834 1054,-291 1042.6235,-283.5979 1031.3126,-274.3043 1021.2398,-265.1465"/>
<polygon fill="#000000" stroke="#000000" points="1023.4974,-262.4661 1013.7978,-258.2036 1018.7222,-267.5845 1023.4974,-262.4661"/>
</a>
</g>
<g id="a_edge19&#45;label"><a xlink:title="encoding/json.(*decodeState).literalStore &#45;&gt; runtime.convT2E (1048592)">
<text text-anchor="middle" x="1088" y="-279.8" font-family="Times,serif" font-size="14.00" fill="#000000"> 1048592</text>
</a>
</g>
</g>
<!-- N46 -->
<g id="node47" class="node">
<title>N46</title>
<g id="a_node47"><a xlink:title="runtime.slicebytetostring (2268188)">
<polygon fill="#f8f8f8" stroke="#000000" points="857,-147 733,-147 733,-111 857,-111 857,-147"/>
<text text-anchor="middle" x="795" y="-131.6" font-family="Times,serif" font-size="8.00" fill="#000000">runtime.slicebytetostring</text>
<text text-anchor="middle" x="795" y="-122.6" font-family="Times,serif" font-size="8.00" fill="#000000">0 of 2268188(39.60%)</text>
</a>
</g>
</g>
<!-- N21&#45;&gt;N46 -->
<g id="edge17" class="edge">
<title>N21&#45;&gt;N46</title>
<g id="a_edge17"><a xlink:title="encoding/json.(*decodeState).literalStore &#45;&gt; runtime.slicebytetostring (1054057)">
<path fill="none" stroke="#000000" d="M1137.8522,-308.7724C1139.5985,-280.8893 1138.4601,-227.7557 1109,-198 1075.7324,-164.3986 948.9555,-145.0503 867.0199,-135.8071"/>
<polygon fill="#000000" stroke="#000000" points="867.3351,-132.3208 857.0116,-134.703 866.5674,-139.2786 867.3351,-132.3208"/>
</a>
</g>
<g id="a_edge17&#45;label"><a xlink:title="encoding/json.(*decodeState).literalStore &#45;&gt; runtime.slicebytetostring (1054057)">
<text text-anchor="middle" x="1169" y="-224.3" font-family="Times,serif" font-size="14.00" fill="#000000"> 1054057</text>
</a>
</g>
</g>
<!-- N22 -->
<g id="node23" class="node">
<title>N22</title>
<g id="a_node23"><a xlink:title="encoding/json.(*decodeState).object (5054493)">
<polygon fill="#f8f8f8" stroke="#000000" points="742.5,-627 571.5,-627 571.5,-591 742.5,-591 742.5,-627"/>
<text text-anchor="middle" x="657" y="-611.6" font-family="Times,serif" font-size="8.00" fill="#000000">encoding/json.(*decodeState).object</text>
<text text-anchor="middle" x="657" y="-602.6" font-family="Times,serif" font-size="8.00" fill="#000000">0 of 5054493(88.24%)</text>
</a>
</g>
</g>
<!-- N24 -->
<g id="node25" class="node">
<title>N24</title>
<g id="a_node25"><a xlink:title="encoding/json.(*decodeState).value (5054493)">
<polygon fill="#f8f8f8" stroke="#000000" points="823.5,-719 654.5,-719 654.5,-683 823.5,-683 823.5,-719"/>
<text text-anchor="middle" x="739" y="-703.6" font-family="Times,serif" font-size="8.00" fill="#000000">encoding/json.(*decodeState).value</text>
<text text-anchor="middle" x="739" y="-694.6" font-family="Times,serif" font-size="8.00" fill="#000000">0 of 5054493(88.24%)</text>
</a>
</g>
</g>
<!-- N22&#45;&gt;N24 -->
<g id="edge9" class="edge">
<title>N22&#45;&gt;N24</title>
<g id="a_edge9"><a xlink:title="encoding/json.(*decodeState).object &#45;&gt; encoding/json.(*decodeState).value (4471885)">
<path fill="none" stroke="#000000" stroke-width="4" d="M691.5277,-627.1058C700.6891,-633.1354 709.9744,-640.5139 717,-649 722.8409,-656.0551 727.3488,-664.8875 730.7187,-673.2599"/>
<polygon fill="#000000" stroke="#000000" stroke-width="4" points="727.4595,-674.539 734.1637,-682.743 734.0389,-672.1489 727.4595,-674.539"/>
</a>
</g>
<g id="a_edge9&#45;label"><a xlink:title="encoding/json.(*decodeState).object &#45;&gt; encoding/json.(*decodeState).value (4471885)">
<text text-anchor="middle" x="761" y="-652.8" font-family="Times,serif" font-size="14.00" fill="#000000"> 4471885</text>
</a>
</g>
</g>
<!-- N33 -->
<g id="node34" class="node">
<title>N33</title>
<g id="a_node34"><a xlink:title="reflect.Value.Convert (360453)">
<polygon fill="#f8f8f8" stroke="#000000" points="659.5,-527.5 552.5,-527.5 552.5,-491.5 659.5,-491.5 659.5,-527.5"/>
<text text-anchor="middle" x="606" y="-512.1" font-family="Times,serif" font-size="8.00" fill="#000000">reflect.Value.Convert</text>
<text text-anchor="middle" x="606" y="-503.1" font-family="Times,serif" font-size="8.00" fill="#000000">0 of 360453(6.29%)</text>
</a>
</g>
</g>
<!-- N22&#45;&gt;N33 -->
<g id="edge24" class="edge">
<title>N22&#45;&gt;N33</title>
<g id="a_edge24"><a xlink:title="encoding/json.(*decodeState).object &#45;&gt; reflect.Value.Convert (360453)">
<path fill="none" stroke="#000000" d="M647.6458,-590.7502C639.8816,-575.6023 628.7249,-553.8357 619.9128,-536.6436"/>
<polygon fill="#000000" stroke="#000000" points="622.971,-534.9368 615.2949,-527.6341 616.7416,-538.1297 622.971,-534.9368"/>
</a>
</g>
<g id="a_edge24&#45;label"><a xlink:title="encoding/json.(*decodeState).object &#45;&gt; reflect.Value.Convert (360453)">
<text text-anchor="middle" x="666.5" y="-557.8" font-family="Times,serif" font-size="14.00" fill="#000000"> 360453</text>
</a>
</g>
</g>
<!-- N34 -->
<g id="node35" class="node">
<title>N34</title>
<g id="a_node35"><a xlink:title="reflect.Value.SetMapIndex (222155)">
<polygon fill="#f8f8f8" stroke="#000000" points="534,-527.5 404,-527.5 404,-491.5 534,-491.5 534,-527.5"/>
<text text-anchor="middle" x="469" y="-512.1" font-family="Times,serif" font-size="8.00" fill="#000000">reflect.Value.SetMapIndex</text>
<text text-anchor="middle" x="469" y="-503.1" font-family="Times,serif" font-size="8.00" fill="#000000">0 of 222155(3.88%)</text>
</a>
</g>
</g>
<!-- N22&#45;&gt;N34 -->
<g id="edge28" class="edge">
<title>N22&#45;&gt;N34</title>
<g id="a_edge28"><a xlink:title="encoding/json.(*decodeState).object &#45;&gt; reflect.Value.SetMapIndex (222155)">
<path fill="none" stroke="#000000" d="M613.4372,-590.973C598.5172,-584.4489 581.8481,-576.7667 567,-569 546.0835,-558.059 523.515,-544.4859 505.3138,-533.0674"/>
<polygon fill="#000000" stroke="#000000" points="507.0786,-530.0423 496.7559,-527.656 503.3374,-535.9587 507.0786,-530.0423"/>
</a>
</g>
<g id="a_edge28&#45;label"><a xlink:title="encoding/json.(*decodeState).object &#45;&gt; reflect.Value.SetMapIndex (222155)">
<text text-anchor="middle" x="596.5" y="-557.8" font-family="Times,serif" font-size="14.00" fill="#000000"> 222155</text>
</a>
</g>
</g>
<!-- N23 -->
<g id="node24" class="node">
<title>N23</title>
<g id="a_node24"><a xlink:title="encoding/json.(*decodeState).unmarshal (5054493)">
<polygon fill="#f8f8f8" stroke="#000000" points="834.5,-807 643.5,-807 643.5,-771 834.5,-771 834.5,-807"/>
<text text-anchor="middle" x="739" y="-791.6" font-family="Times,serif" font-size="8.00" fill="#000000">encoding/json.(*decodeState).unmarshal</text>
<text text-anchor="middle" x="739" y="-782.6" font-family="Times,serif" font-size="8.00" fill="#000000">0 of 5054493(88.24%)</text>
</a>
</g>
</g>
<!-- N23&#45;&gt;N24 -->
<g id="edge7" class="edge">
<title>N23&#45;&gt;N24</title>
<g id="a_edge7"><a xlink:title="encoding/json.(*decodeState).unmarshal &#45;&gt; encoding/json.(*decodeState).value (5054493)">
<path fill="none" stroke="#000000" stroke-width="5" d="M739,-770.7663C739,-758.8492 739,-743.0384 739,-729.4817"/>
<polygon fill="#000000" stroke="#000000" stroke-width="5" points="743.3751,-729.2103 739,-719.2103 734.6251,-729.2103 743.3751,-729.2103"/>
</a>
</g>
<g id="a_edge7&#45;label"><a xlink:title="encoding/json.(*decodeState).unmarshal &#45;&gt; encoding/json.(*decodeState).value (5054493)">
<text text-anchor="middle" x="773" y="-741.8" font-family="Times,serif" font-size="14.00" fill="#000000"> 5054493</text>
</a>
</g>
</g>
<!-- N24&#45;&gt;N18 -->
<g id="edge10" class="edge">
<title>N24&#45;&gt;N18</title>
<g id="a_edge10"><a xlink:title="encoding/json.(*decodeState).value &#45;&gt; encoding/json.(*decodeState).array (2369236)">
<path fill="none" stroke="#000000" stroke-width="3" d="M772.7078,-682.8333C781.6596,-677.3233 791.042,-670.8877 799,-664 808.7549,-655.557 818.1508,-644.9358 825.8795,-635.2837"/>
<polygon fill="#000000" stroke="#000000" stroke-width="3" points="828.8416,-637.1756 832.2093,-627.1303 823.3123,-632.883 828.8416,-637.1756"/>
</a>
</g>
<g id="a_edge10&#45;label"><a xlink:title="encoding/json.(*decodeState).value &#45;&gt; encoding/json.(*decodeState).array (2369236)">
<text text-anchor="middle" x="847" y="-652.8" font-family="Times,serif" font-size="14.00" fill="#000000"> 2369236</text>
</a>
</g>
</g>
<!-- N24&#45;&gt;N19 -->
<g id="edge14" class="edge">
<title>N24&#45;&gt;N19</title>
<g id="a_edge14"><a xlink:title="encoding/json.(*decodeState).value &#45;&gt; encoding/json.(*decodeState).literal (2102649)">
<path fill="none" stroke="#000000" stroke-width="2" d="M823.5793,-683.5534C844.0189,-678.2527 865.5649,-671.7378 885,-664 965.4138,-631.9846 994.6622,-631.0541 1055,-569 1091.0623,-531.9119 1115.0008,-475.5364 1126.9799,-441.9735"/>
<polygon fill="#000000" stroke="#000000" stroke-width="2" points="1130.3521,-442.9312 1130.3138,-432.3364 1123.7368,-440.6426 1130.3521,-442.9312"/>
</a>
</g>
<g id="a_edge14&#45;label"><a xlink:title="encoding/json.(*decodeState).value &#45;&gt; encoding/json.(*decodeState).literal (2102649)">
<text text-anchor="middle" x="1102" y="-557.8" font-family="Times,serif" font-size="14.00" fill="#000000"> 2102649</text>
</a>
</g>
</g>
<!-- N24&#45;&gt;N22 -->
<g id="edge22" class="edge">
<title>N24&#45;&gt;N22</title>
<g id="a_edge22"><a xlink:title="encoding/json.(*decodeState).value &#45;&gt; encoding/json.(*decodeState).object (582608)">
<path fill="none" stroke="#000000" d="M674.2946,-682.8487C666.2778,-677.9766 659.1166,-671.8076 654,-664 648.8587,-656.1548 648.0976,-646.2472 649.1149,-637.0093"/>
<polygon fill="#000000" stroke="#000000" points="652.5883,-637.4659 650.8804,-627.0096 645.6949,-636.2488 652.5883,-637.4659"/>
</a>
</g>
<g id="a_edge22&#45;label"><a xlink:title="encoding/json.(*decodeState).value &#45;&gt; encoding/json.(*decodeState).object (582608)">
<text text-anchor="middle" x="683.5" y="-652.8" font-family="Times,serif" font-size="14.00" fill="#000000"> 582608</text>
</a>
</g>
</g>
<!-- N25&#45;&gt;N20 -->
<g id="edge16" class="edge">
<title>N25&#45;&gt;N20</title>
<g id="a_edge16"><a xlink:title="encoding/json.(*decodeState).valueInterface &#45;&gt; encoding/json.(*decodeState).literalInterface (1902270)">
<path fill="none" stroke="#000000" stroke-width="2" d="M833,-395.9735C833,-384.1918 833,-368.5607 833,-355.1581"/>
<polygon fill="#000000" stroke="#000000" stroke-width="2" points="836.5001,-355.0033 833,-345.0034 829.5001,-355.0034 836.5001,-355.0033"/>
</a>
</g>
<g id="a_edge16&#45;label"><a xlink:title="encoding/json.(*decodeState).valueInterface &#45;&gt; encoding/json.(*decodeState).literalInterface (1902270)">
<text text-anchor="middle" x="867" y="-366.8" font-family="Times,serif" font-size="14.00" fill="#000000"> 1902270</text>
</a>
</g>
</g>
<!-- N26&#45;&gt;N23 -->
<g id="edge8" class="edge">
<title>N26&#45;&gt;N23</title>
<g id="a_edge8"><a xlink:title="encoding/json.Unmarshal &#45;&gt; encoding/json.(*decodeState).unmarshal (5054493)">
<path fill="none" stroke="#000000" stroke-width="5" d="M739,-858.7663C739,-846.8492 739,-831.0384 739,-817.4817"/>
<polygon fill="#000000" stroke="#000000" stroke-width="5" points="743.3751,-817.2103 739,-807.2103 734.6251,-817.2103 743.3751,-817.2103"/>
</a>
</g>
<g id="a_edge8&#45;label"><a xlink:title="encoding/json.Unmarshal &#45;&gt; encoding/json.(*decodeState).unmarshal (5054493)">
<text text-anchor="middle" x="773" y="-828.8" font-family="Times,serif" font-size="14.00" fill="#000000"> 5054493</text>
</a>
</g>
</g>
<!-- N27 -->
<g id="node28" class="node">
<title>N27</title>
<g id="a_node28"><a xlink:title="encoding/json.checkValid (65537)">
<polygon fill="#f8f8f8" stroke="#000000" points="989.5,-807 864.5,-807 864.5,-771 989.5,-771 989.5,-807"/>
<text text-anchor="middle" x="927" y="-791.6" font-family="Times,serif" font-size="8.00" fill="#000000">encoding/json.checkValid</text>
<text text-anchor="middle" x="927" y="-782.6" font-family="Times,serif" font-size="8.00" fill="#000000">0 of 65537(1.14%)</text>
</a>
</g>
</g>
<!-- N26&#45;&gt;N27 -->
<g id="edge41" class="edge">
<title>N26&#45;&gt;N27</title>
<g id="a_edge41"><a xlink:title="encoding/json.Unmarshal &#45;&gt; encoding/json.checkValid (65537)">
<path fill="none" stroke="#000000" d="M777.4983,-858.9795C806.8019,-845.2629 847.3171,-826.2984 878.7795,-811.5713"/>
<polygon fill="#000000" stroke="#000000" points="880.6575,-814.5567 888.2306,-807.1474 877.6899,-808.2169 880.6575,-814.5567"/>
</a>
</g>
<g id="a_edge41&#45;label"><a xlink:title="encoding/json.Unmarshal &#45;&gt; encoding/json.checkValid (65537)">
<text text-anchor="middle" x="874" y="-828.8" font-family="Times,serif" font-size="14.00" fill="#000000"> 65537</text>
</a>
</g>
</g>
<!-- N27&#45;&gt;N7 -->
<g id="edge42" class="edge">
<title>N27&#45;&gt;N7</title>
<g id="a_edge42"><a xlink:title="encoding/json.checkValid &#45;&gt; encoding/json.stateBeginValue (65537)">
<path fill="none" stroke="#000000" d="M929.4864,-770.7663C931.1115,-758.8492 933.2675,-743.0384 935.1161,-729.4817"/>
<polygon fill="#000000" stroke="#000000" points="938.6335,-729.5915 936.5168,-719.2103 931.6977,-728.6457 938.6335,-729.5915"/>
</a>
</g>
<g id="a_edge42&#45;label"><a xlink:title="encoding/json.checkValid &#45;&gt; encoding/json.stateBeginValue (65537)">
<text text-anchor="middle" x="958" y="-741.8" font-family="Times,serif" font-size="14.00" fill="#000000"> 65537</text>
</a>
</g>
</g>
<!-- N28&#45;&gt;N46 -->
<g id="edge21" class="edge">
<title>N28&#45;&gt;N46</title>
<g id="a_edge21"><a xlink:title="encoding/json.unquote &#45;&gt; runtime.slicebytetostring (853678)">
<path fill="none" stroke="#000000" d="M795,-209.8419C795,-195.1888 795,-174.311 795,-157.443"/>
<polygon fill="#000000" stroke="#000000" points="798.5001,-157.043 795,-147.043 791.5001,-157.043 798.5001,-157.043"/>
</a>
</g>
<g id="a_edge21&#45;label"><a xlink:title="encoding/json.unquote &#45;&gt; runtime.slicebytetostring (853678)">
<text text-anchor="middle" x="824.5" y="-168.8" font-family="Times,serif" font-size="14.00" fill="#000000"> 853678</text>
</a>
</g>
</g>
<!-- N29 -->
<g id="node30" class="node">
<title>N29</title>
<g id="a_node30"><a xlink:title="net/http.(*ServeMux).ServeHTTP (5728348)">
<polygon fill="#f8f8f8" stroke="#000000" points="817.5,-1159 660.5,-1159 660.5,-1123 817.5,-1123 817.5,-1159"/>
<text text-anchor="middle" x="739" y="-1143.6" font-family="Times,serif" font-size="8.00" fill="#000000">net/http.(*ServeMux).ServeHTTP</text>
<text text-anchor="middle" x="739" y="-1134.6" font-family="Times,serif" font-size="8.00" fill="#000000">0 of 5728348(100%)</text>
</a>
</g>
</g>
<!-- N31 -->
<g id="node32" class="node">
<title>N31</title>
<g id="a_node32"><a xlink:title="net/http.HandlerFunc.ServeHTTP (5728348)">
<polygon fill="#f8f8f8" stroke="#000000" points="819,-1072 659,-1072 659,-1036 819,-1036 819,-1072"/>
<text text-anchor="middle" x="739" y="-1056.6" font-family="Times,serif" font-size="8.00" fill="#000000">net/http.HandlerFunc.ServeHTTP</text>
<text text-anchor="middle" x="739" y="-1047.6" font-family="Times,serif" font-size="8.00" fill="#000000">0 of 5728348(100%)</text>
</a>
</g>
</g>
<!-- N29&#45;&gt;N31 -->
<g id="edge1" class="edge">
<title>N29&#45;&gt;N31</title>
<g id="a_edge1"><a xlink:title="net/http.(*ServeMux).ServeHTTP &#45;&gt; net/http.HandlerFunc.ServeHTTP (5728348)">
<path fill="none" stroke="#000000" stroke-width="6" d="M739,-1122.9735C739,-1111.1918 739,-1095.5607 739,-1082.1581"/>
<polygon fill="#000000" stroke="#000000" stroke-width="6" points="744.2501,-1082.0033 739,-1072.0034 733.7501,-1082.0034 744.2501,-1082.0033"/>
</a>
</g>
<g id="a_edge1&#45;label"><a xlink:title="net/http.(*ServeMux).ServeHTTP &#45;&gt; net/http.HandlerFunc.ServeHTTP (5728348)">
<text text-anchor="middle" x="773" y="-1093.8" font-family="Times,serif" font-size="14.00" fill="#000000"> 5728348</text>
</a>
</g>
</g>
<!-- N30 -->
<g id="node31" class="node">
<title>N30</title>
<g id="a_node31"><a xlink:title="net/http.(*conn).serve (5728348)">
<polygon fill="#f8f8f8" stroke="#000000" points="794,-1333 684,-1333 684,-1297 794,-1297 794,-1333"/>
<text text-anchor="middle" x="739" y="-1317.6" font-family="Times,serif" font-size="8.00" fill="#000000">net/http.(*conn).serve</text>
<text text-anchor="middle" x="739" y="-1308.6" font-family="Times,serif" font-size="8.00" fill="#000000">0 of 5728348(100%)</text>
</a>
</g>
</g>
<!-- N32 -->
<g id="node33" class="node">
<title>N32</title>
<g id="a_node33"><a xlink:title="net/http.serverHandler.ServeHTTP (5728348)">
<polygon fill="#f8f8f8" stroke="#000000" points="821.5,-1246 656.5,-1246 656.5,-1210 821.5,-1210 821.5,-1246"/>
<text text-anchor="middle" x="739" y="-1230.6" font-family="Times,serif" font-size="8.00" fill="#000000">net/http.serverHandler.ServeHTTP</text>
<text text-anchor="middle" x="739" y="-1221.6" font-family="Times,serif" font-size="8.00" fill="#000000">0 of 5728348(100%)</text>
</a>
</g>
</g>
<!-- N30&#45;&gt;N32 -->
<g id="edge2" class="edge">
<title>N30&#45;&gt;N32</title>
<g id="a_edge2"><a xlink:title="net/http.(*conn).serve &#45;&gt; net/http.serverHandler.ServeHTTP (5728348)">
<path fill="none" stroke="#000000" stroke-width="6" d="M739,-1296.9735C739,-1285.1918 739,-1269.5607 739,-1256.1581"/>
<polygon fill="#000000" stroke="#000000" stroke-width="6" points="744.2501,-1256.0033 739,-1246.0034 733.7501,-1256.0034 744.2501,-1256.0033"/>
</a>
</g>
<g id="a_edge2&#45;label"><a xlink:title="net/http.(*conn).serve &#45;&gt; net/http.serverHandler.ServeHTTP (5728348)">
<text text-anchor="middle" x="773" y="-1267.8" font-family="Times,serif" font-size="14.00" fill="#000000"> 5728348</text>
</a>
</g>
</g>
<!-- N31&#45;&gt;N17 -->
<g id="edge3" class="edge">
<title>N31&#45;&gt;N17</title>
<g id="a_edge3"><a xlink:title="net/http.HandlerFunc.ServeHTTP &#45;&gt; main.main.func1 (5728348)">
<path fill="none" stroke="#000000" stroke-width="6" d="M739,-1035.7663C739,-1024.0875 739,-1008.6692 739,-995.2978"/>
<polygon fill="#000000" stroke="#000000" stroke-width="6" points="744.2501,-995.1234 739,-985.1235 733.7501,-995.1236 744.2501,-995.1234"/>
</a>
</g>
<g id="a_edge3&#45;label"><a xlink:title="net/http.HandlerFunc.ServeHTTP &#45;&gt; main.main.func1 (5728348)">
<text text-anchor="middle" x="773" y="-1006.8" font-family="Times,serif" font-size="14.00" fill="#000000"> 5728348</text>
</a>
</g>
</g>
<!-- N32&#45;&gt;N29 -->
<g id="edge4" class="edge">
<title>N32&#45;&gt;N29</title>
<g id="a_edge4"><a xlink:title="net/http.serverHandler.ServeHTTP &#45;&gt; net/http.(*ServeMux).ServeHTTP (5728348)">
<path fill="none" stroke="#000000" stroke-width="6" d="M739,-1209.9735C739,-1198.1918 739,-1182.5607 739,-1169.1581"/>
<polygon fill="#000000" stroke="#000000" stroke-width="6" points="744.2501,-1169.0033 739,-1159.0034 733.7501,-1169.0034 744.2501,-1169.0033"/>
</a>
</g>
<g id="a_edge4&#45;label"><a xlink:title="net/http.serverHandler.ServeHTTP &#45;&gt; net/http.(*ServeMux).ServeHTTP (5728348)">
<text text-anchor="middle" x="773" y="-1180.8" font-family="Times,serif" font-size="14.00" fill="#000000"> 5728348</text>
</a>
</g>
</g>
<!-- N35 -->
<g id="node36" class="node">
<title>N35</title>
<g id="a_node36"><a xlink:title="reflect.cvtBytesString (360453)">
<polygon fill="#f8f8f8" stroke="#000000" points="680,-432 572,-432 572,-396 680,-396 680,-432"/>
<text text-anchor="middle" x="626" y="-416.6" font-family="Times,serif" font-size="8.00" fill="#000000">reflect.cvtBytesString</text>
<text text-anchor="middle" x="626" y="-407.6" font-family="Times,serif" font-size="8.00" fill="#000000">0 of 360453(6.29%)</text>
</a>
</g>
</g>
<!-- N33&#45;&gt;N35 -->
<g id="edge25" class="edge">
<title>N33&#45;&gt;N35</title>
<g id="a_edge25"><a xlink:title="reflect.Value.Convert &#45;&gt; reflect.cvtBytesString (360453)">
<path fill="none" stroke="#000000" d="M609.8562,-491.0866C612.78,-477.1255 616.8478,-457.7016 620.1686,-441.8448"/>
<polygon fill="#000000" stroke="#000000" points="623.5993,-442.5381 622.2235,-432.033 616.7479,-441.1032 623.5993,-442.5381"/>
</a>
</g>
<g id="a_edge25&#45;label"><a xlink:title="reflect.Value.Convert &#45;&gt; reflect.cvtBytesString (360453)">
<text text-anchor="middle" x="648.5" y="-453.8" font-family="Times,serif" font-size="14.00" fill="#000000"> 360453</text>
</a>
</g>
</g>
<!-- N36 -->
<g id="node37" class="node">
<title>N36</title>
<g id="a_node37"><a xlink:title="reflect.mapassign (222155)">
<polygon fill="#f8f8f8" stroke="#000000" points="519,-432 419,-432 419,-396 519,-396 519,-432"/>
<text text-anchor="middle" x="469" y="-416.6" font-family="Times,serif" font-size="8.00" fill="#000000">reflect.mapassign</text>
<text text-anchor="middle" x="469" y="-407.6" font-family="Times,serif" font-size="8.00" fill="#000000">0 of 222155(3.88%)</text>
</a>
</g>
</g>
<!-- N34&#45;&gt;N36 -->
<g id="edge29" class="edge">
<title>N34&#45;&gt;N36</title>
<g id="a_edge29"><a xlink:title="reflect.Value.SetMapIndex &#45;&gt; reflect.mapassign (222155)">
<path fill="none" stroke="#000000" d="M469,-491.0866C469,-477.2585 469,-458.0711 469,-442.2988"/>
<polygon fill="#000000" stroke="#000000" points="472.5001,-442.0329 469,-432.033 465.5001,-442.033 472.5001,-442.0329"/>
</a>
</g>
<g id="a_edge29&#45;label"><a xlink:title="reflect.Value.SetMapIndex &#45;&gt; reflect.mapassign (222155)">
<text text-anchor="middle" x="498.5" y="-453.8" font-family="Times,serif" font-size="14.00" fill="#000000"> 222155</text>
</a>
</g>
</g>
<!-- N35&#45;&gt;N46 -->
<g id="edge26" class="edge">
<title>N35&#45;&gt;N46</title>
<g id="a_edge26"><a xlink:title="reflect.cvtBytesString &#45;&gt; runtime.slicebytetostring (360453)">
<path fill="none" stroke="#000000" d="M632.3765,-395.8962C646.3956,-357.4246 682.3948,-265.5314 729,-198 739.8383,-182.2953 754.2737,-166.7631 766.8802,-154.4236"/>
<polygon fill="#000000" stroke="#000000" points="769.6427,-156.6243 774.4446,-147.1801 764.8013,-151.5684 769.6427,-156.6243"/>
</a>
</g>
<g id="a_edge26&#45;label"><a xlink:title="reflect.cvtBytesString &#45;&gt; runtime.slicebytetostring (360453)">
<text text-anchor="middle" x="713.5" y="-279.8" font-family="Times,serif" font-size="14.00" fill="#000000"> 360453</text>
</a>
</g>
</g>
<!-- N36&#45;&gt;N5 -->
<g id="edge30" class="edge">
<title>N36&#45;&gt;N5</title>
<g id="a_edge30"><a xlink:title="reflect.mapassign &#45;&gt; runtime.mapassign (222155)">
<path fill="none" stroke="#000000" d="M469,-395.9735C469,-384.1918 469,-368.5607 469,-355.1581"/>
<polygon fill="#000000" stroke="#000000" points="472.5001,-355.0033 469,-345.0034 465.5001,-355.0034 472.5001,-355.0033"/>
</a>
</g>
<g id="a_edge30&#45;label"><a xlink:title="reflect.mapassign &#45;&gt; runtime.mapassign (222155)">
<text text-anchor="middle" x="498.5" y="-366.8" font-family="Times,serif" font-size="14.00" fill="#000000"> 222155</text>
</a>
</g>
</g>
<!-- N37 -->
<g id="node38" class="node">
<title>N37</title>
<g id="a_node38"><a xlink:title="regexp.(*Regexp).MatchString (170721)">
<polygon fill="#f8f8f8" stroke="#000000" points="1193,-807 1047,-807 1047,-771 1193,-771 1193,-807"/>
<text text-anchor="middle" x="1120" y="-791.6" font-family="Times,serif" font-size="8.00" fill="#000000">regexp.(*Regexp).MatchString</text>
<text text-anchor="middle" x="1120" y="-782.6" font-family="Times,serif" font-size="8.00" fill="#000000">0 of 170721(2.98%)</text>
</a>
</g>
</g>
<!-- N38 -->
<g id="node39" class="node">
<title>N38</title>
<g id="a_node39"><a xlink:title="regexp.(*Regexp).doMatch (170721)">
<polygon fill="#f8f8f8" stroke="#000000" points="1224.5,-719 1093.5,-719 1093.5,-683 1224.5,-683 1224.5,-719"/>
<text text-anchor="middle" x="1159" y="-703.6" font-family="Times,serif" font-size="8.00" fill="#000000">regexp.(*Regexp).doMatch</text>
<text text-anchor="middle" x="1159" y="-694.6" font-family="Times,serif" font-size="8.00" fill="#000000">0 of 170721(2.98%)</text>
</a>
</g>
</g>
<!-- N37&#45;&gt;N38 -->
<g id="edge34" class="edge">
<title>N37&#45;&gt;N38</title>
<g id="a_edge34"><a xlink:title="regexp.(*Regexp).MatchString &#45;&gt; regexp.(*Regexp).doMatch (170721)">
<path fill="none" stroke="#000000" d="M1128.0808,-770.7663C1133.4669,-758.6132 1140.6475,-742.4107 1146.7331,-728.6791"/>
<polygon fill="#000000" stroke="#000000" points="1150.0776,-729.7708 1150.9295,-719.2103 1143.6779,-726.9346 1150.0776,-729.7708"/>
</a>
</g>
<g id="a_edge34&#45;label"><a xlink:title="regexp.(*Regexp).MatchString &#45;&gt; regexp.(*Regexp).doMatch (170721)">
<text text-anchor="middle" x="1170.5" y="-741.8" font-family="Times,serif" font-size="14.00" fill="#000000"> 170721</text>
</a>
</g>
</g>
<!-- N38&#45;&gt;N8 -->
<g id="edge35" class="edge">
<title>N38&#45;&gt;N8</title>
<g id="a_edge35"><a xlink:title="regexp.(*Regexp).doMatch &#45;&gt; regexp.(*Regexp).doExecute (170721)">
<path fill="none" stroke="#000000" d="M1166.7051,-682.8238C1171.8275,-670.7402 1178.6892,-654.5536 1184.6821,-640.4167"/>
<polygon fill="#000000" stroke="#000000" points="1187.9795,-641.6056 1188.6601,-631.0326 1181.5347,-638.8735 1187.9795,-641.6056"/>
</a>
</g>
<g id="a_edge35&#45;label"><a xlink:title="regexp.(*Regexp).doMatch &#45;&gt; regexp.(*Regexp).doExecute (170721)">
<text text-anchor="middle" x="1209.5" y="-652.8" font-family="Times,serif" font-size="14.00" fill="#000000"> 170721</text>
</a>
</g>
</g>
<!-- N39&#45;&gt;N6 -->
<g id="edge39" class="edge">
<title>N39&#45;&gt;N6</title>
<g id="a_edge39"><a xlink:title="regexp.(*Regexp).get &#45;&gt; regexp.progMachine (92849)">
<path fill="none" stroke="#000000" d="M1449.2778,-491.0866C1451.7393,-477.2585 1455.1549,-458.0711 1457.9625,-442.2988"/>
<polygon fill="#000000" stroke="#000000" points="1461.4831,-442.4916 1459.7899,-432.033 1454.5915,-441.2648 1461.4831,-442.4916"/>
</a>
</g>
<g id="a_edge39&#45;label"><a xlink:title="regexp.(*Regexp).get &#45;&gt; regexp.progMachine (92849)">
<text text-anchor="middle" x="1481" y="-453.8" font-family="Times,serif" font-size="14.00" fill="#000000"> 92849</text>
</a>
</g>
</g>
<!-- N40&#45;&gt;N11 -->
<g id="edge48" class="edge">
<title>N40&#45;&gt;N11</title>
<g id="a_edge48"><a xlink:title="regexp.(*machine).backtrack &#45;&gt; regexp.(*bitState).reset (34194)">
<path fill="none" stroke="#000000" d="M1298.9281,-491.0866C1300.3761,-477.2585 1302.3852,-458.0711 1304.0368,-442.2988"/>
<polygon fill="#000000" stroke="#000000" points="1307.5512,-442.3431 1305.1117,-432.033 1300.5892,-441.6141 1307.5512,-442.3431"/>
</a>
</g>
<g id="a_edge48&#45;label"><a xlink:title="regexp.(*machine).backtrack &#45;&gt; regexp.(*bitState).reset (34194)">
<text text-anchor="middle" x="1328" y="-453.8" font-family="Times,serif" font-size="14.00" fill="#000000"> 34194</text>
</a>
</g>
</g>
<!-- N41 -->
<g id="node42" class="node">
<title>N41</title>
<g id="a_node42"><a xlink:title="regexp.Compile (207937)">
<polygon fill="#f8f8f8" stroke="#000000" points="1366,-807 1266,-807 1266,-771 1366,-771 1366,-807"/>
<text text-anchor="middle" x="1316" y="-791.6" font-family="Times,serif" font-size="8.00" fill="#000000">regexp.Compile</text>
<text text-anchor="middle" x="1316" y="-782.6" font-family="Times,serif" font-size="8.00" fill="#000000">0 of 207937(3.63%)</text>
</a>
</g>
</g>
<!-- N41&#45;&gt;N16 -->
<g id="edge31" class="edge">
<title>N41&#45;&gt;N16</title>
<g id="a_edge31"><a xlink:title="regexp.Compile &#45;&gt; regexp.compile (207937)">
<path fill="none" stroke="#000000" d="M1327.396,-770.7663C1334.9844,-758.625 1345.0987,-742.4421 1353.6756,-728.7191"/>
<polygon fill="#000000" stroke="#000000" points="1356.7158,-730.4585 1359.0478,-720.1235 1350.7798,-726.7485 1356.7158,-730.4585"/>
</a>
</g>
<g id="a_edge31&#45;label"><a xlink:title="regexp.Compile &#45;&gt; regexp.compile (207937)">
<text text-anchor="middle" x="1375.5" y="-741.8" font-family="Times,serif" font-size="14.00" fill="#000000"> 207937</text>
</a>
</g>
</g>
<!-- N42&#45;&gt;N37 -->
<g id="edge36" class="edge">
<title>N42&#45;&gt;N37</title>
<g id="a_edge36"><a xlink:title="regexp.MatchString &#45;&gt; regexp.(*Regexp).MatchString (170721)">
<path fill="none" stroke="#000000" d="M933.9181,-858.9795C971.0206,-845.0264 1022.5633,-825.6429 1061.9963,-810.8134"/>
<polygon fill="#000000" stroke="#000000" points="1063.6165,-813.9434 1071.7445,-807.1474 1061.1525,-807.3914 1063.6165,-813.9434"/>
</a>
</g>
<g id="a_edge36&#45;label"><a xlink:title="regexp.MatchString &#45;&gt; regexp.(*Regexp).MatchString (170721)">
<text text-anchor="middle" x="1052.5" y="-828.8" font-family="Times,serif" font-size="14.00" fill="#000000"> 170721</text>
</a>
</g>
</g>
<!-- N42&#45;&gt;N41 -->
<g id="edge32" class="edge">
<title>N42&#45;&gt;N41</title>
<g id="a_edge32"><a xlink:title="regexp.MatchString &#45;&gt; regexp.Compile (207937)">
<path fill="none" stroke="#000000" d="M936.6468,-868.1396C977.1351,-860.9338 1035.3058,-850.3063 1086,-840 1143.878,-828.2332 1209.6431,-813.5138 1255.9814,-802.9167"/>
<polygon fill="#000000" stroke="#000000" points="1256.8917,-806.2989 1265.8571,-800.6534 1255.328,-799.4758 1256.8917,-806.2989"/>
</a>
</g>
<g id="a_edge32&#45;label"><a xlink:title="regexp.MatchString &#45;&gt; regexp.Compile (207937)">
<text text-anchor="middle" x="1184.5" y="-828.8" font-family="Times,serif" font-size="14.00" fill="#000000"> 207937</text>
</a>
</g>
</g>
<!-- N43&#45;&gt;N9 -->
<g id="edge44" class="edge">
<title>N43&#45;&gt;N9</title>
<g id="a_edge44"><a xlink:title="regexp/syntax.(*compiler).compile &#45;&gt; regexp/syntax.(*compiler).rune (42604)">
<path fill="none" stroke="#000000" d="M1625.9771,-491.0866C1630.509,-477.1255 1636.8141,-457.7016 1641.9614,-441.8448"/>
<polygon fill="#000000" stroke="#000000" points="1645.3878,-442.625 1645.1464,-432.033 1638.7298,-440.4638 1645.3878,-442.625"/>
</a>
</g>
<g id="a_edge44&#45;label"><a xlink:title="regexp/syntax.(*compiler).compile &#45;&gt; regexp/syntax.(*compiler).rune (42604)">
<text text-anchor="middle" x="1664" y="-453.8" font-family="Times,serif" font-size="14.00" fill="#000000"> 42604</text>
</a>
</g>
</g>
<!-- N44&#45;&gt;N10 -->
<g id="edge46" class="edge">
<title>N44&#45;&gt;N10</title>
<g id="a_edge46"><a xlink:title="regexp/syntax.(*parser).literal &#45;&gt; regexp/syntax.(*parser).newLiteral (37452)">
<path fill="none" stroke="#000000" d="M1839.0621,-491.0866C1845.9984,-476.9925 1855.6747,-457.3311 1863.5188,-441.3927"/>
<polygon fill="#000000" stroke="#000000" points="1866.8497,-442.5508 1868.1251,-432.033 1860.5691,-439.4597 1866.8497,-442.5508"/>
</a>
</g>
<g id="a_edge46&#45;label"><a xlink:title="regexp/syntax.(*parser).literal &#45;&gt; regexp/syntax.(*parser).newLiteral (37452)">
<text text-anchor="middle" x="1884" y="-453.8" font-family="Times,serif" font-size="14.00" fill="#000000"> 37452</text>
</a>
</g>
</g>
<!-- N44&#45;&gt;N12 -->
<g id="edge50" class="edge">
<title>N44&#45;&gt;N12</title>
<g id="a_edge50"><a xlink:title="regexp/syntax.(*parser).literal &#45;&gt; regexp/syntax.(*parser).push (32768)">
<path fill="none" stroke="#000000" d="M1878.0741,-491.4249C1920.2813,-475.5557 1981.7574,-452.4416 2026.5469,-435.6014"/>
<polygon fill="#000000" stroke="#000000" points="2027.9941,-438.7966 2036.1226,-432.0012 2025.5305,-432.2444 2027.9941,-438.7966"/>
</a>
</g>
<g id="a_edge50&#45;label"><a xlink:title="regexp/syntax.(*parser).literal &#45;&gt; regexp/syntax.(*parser).push (32768)">
<text text-anchor="middle" x="2012" y="-453.8" font-family="Times,serif" font-size="14.00" fill="#000000"> 32768</text>
</a>
</g>
</g>
<!-- N45 -->
<g id="node46" class="node">
<title>N45</title>
<g id="a_node46"><a xlink:title="runtime.goexit (5728348)">
<polygon fill="#f8f8f8" stroke="#000000" points="790,-1511 688,-1511 688,-1475 790,-1475 790,-1511"/>
<text text-anchor="middle" x="739" y="-1495.6" font-family="Times,serif" font-size="8.00" fill="#000000">runtime.goexit</text>
<text text-anchor="middle" x="739" y="-1486.6" font-family="Times,serif" font-size="8.00" fill="#000000">0 of 5728348(100%)</text>
</a>
</g>
</g>
<!-- N45&#45;&gt;N30 -->
<g id="edge5" class="edge">
<title>N45&#45;&gt;N30</title>
<g id="a_edge5"><a xlink:title="runtime.goexit &#45;&gt; net/http.(*conn).serve (5728348)">
<path fill="none" stroke="#000000" stroke-width="6" d="M739,-1474.9528C739,-1443.9016 739,-1380.1524 739,-1343.198"/>
<polygon fill="#000000" stroke="#000000" stroke-width="6" points="744.2501,-1343.0949 739,-1333.0949 733.7501,-1343.095 744.2501,-1343.0949"/>
</a>
</g>
<g id="a_edge5&#45;label"><a xlink:title="runtime.goexit &#45;&gt; net/http.(*conn).serve (5728348)">
<text text-anchor="middle" x="773" y="-1354.8" font-family="Times,serif" font-size="14.00" fill="#000000"> 5728348</text>
</a>
</g>
</g>
<!-- N46&#45;&gt;N2 -->
<g id="edge11" class="edge">
<title>N46&#45;&gt;N2</title>
<g id="a_edge11"><a xlink:title="runtime.slicebytetostring &#45;&gt; runtime.rawstringtmp (2268188)">
<path fill="none" stroke="#000000" stroke-width="2" d="M795,-110.8419C795,-99.4325 795,-84.2494 795,-70.1236"/>
<polygon fill="#000000" stroke="#000000" stroke-width="2" points="798.5001,-70.0938 795,-60.0939 791.5001,-70.0939 798.5001,-70.0938"/>
</a>
</g>
<g id="a_edge11&#45;label"><a xlink:title="runtime.slicebytetostring &#45;&gt; runtime.rawstringtmp (2268188)">
<text text-anchor="middle" x="829" y="-81.8" font-family="Times,serif" font-size="14.00" fill="#000000"> 2268188</text>
</a>
</g>
</g>
</g>
</g></svg>
