<?xml version="1.0" encoding="UTF-8" standalone="no"?>
<!DOCTYPE svg PUBLIC "-//W3C//DTD SVG 1.1//EN"
 "http://www.w3.org/Graphics/SVG/1.1/DTD/svg11.dtd">
<!-- Generated by graphviz version 2.40.1 (20161225.0304)
 -->
<!-- Title: searcher Pages: 1 -->
<svg width="100%" height="100%" xmlns="http://www.w3.org/2000/svg" xmlns:xlink="http://www.w3.org/1999/xlink">
<script type="text/ecmascript"><![CDATA[
/** 
 *  SVGPan library 1.2.1
 * ======================
 *
 * Given an unique existing element with id "viewport" (or when missing, the first g 
 * element), including the the library into any SVG adds the following capabilities:
 *
 *  - Mouse panning
 *  - Mouse zooming (using the wheel)
 *  - Object dragging
 *
 * You can configure the behavior of the pan/zoom/drag with the variables
 * listed in the CONFIGURATION section of this file.
 *
 * Known issues:
 *
 *  - Zooming (while panning) on Safari has still some issues
 *
 * Releases:
 *
 * 1.2.1, Mon Jul  4 00:33:18 CEST 2011, Andrea Leofreddi
 *	- Fixed a regression with mouse wheel (now working on Firefox 5)
 *	- Working with viewBox attribute (#4)
 *	- Added "use strict;" and fixed resulting warnings (#5)
 *	- Added configuration variables, dragging is disabled by default (#3)
 *
 * 1.2, Sat Mar 20 08:42:50 GMT 2010, Zeng Xiaohui
 *	Fixed a bug with browser mouse handler interaction
 *
 * 1.1, Wed Feb  3 17:39:33 GMT 2010, Zeng Xiaohui
 *	Updated the zoom code to support the mouse wheel on Safari/Chrome
 *
 * 1.0, Andrea Leofreddi
 *	First release
 *
 * This code is licensed under the following BSD license:
 *
 * Copyright 2009-2010 Andrea Leofreddi <a.leofreddi@itcharm.com>. All rights reserved.
 * 
 * Redistribution and use in source and binary forms, with or without modification, are
 * permitted provided that the following conditions are met:
 * 
 *    1. Redistributions of source code must retain the above copyright notice, this list of
 *       conditions and the following disclaimer.
 * 
 *    2. Redistributions in binary form must reproduce the above copyright notice, this list
 *       of conditions and the following disclaimer in the documentation and/or other materials
 *       provided with the distribution.
 * 
 * THIS SOFTWARE IS PROVIDED BY Andrea Leofreddi ``AS IS'' AND ANY EXPRESS OR IMPLIED
 * WARRANTIES, INCLUDING, BUT NOT LIMITED TO, THE IMPLIED WARRANTIES OF MERCHANTABILITY AND
 * FITNESS FOR A PARTICULAR PURPOSE ARE DISCLAIMED. IN NO EVENT SHALL Andrea Leofreddi OR
 * CONTRIBUTORS BE LIABLE FOR ANY DIRECT, INDIRECT, INCIDENTAL, SPECIAL, EXEMPLARY, OR
 * CONSEQUENTIAL DAMAGES (INCLUDING, BUT NOT LIMITED TO, PROCUREMENT OF SUBSTITUTE GOODS OR
 * SERVICES; LOSS OF USE, DATA, OR PROFITS; OR BUSINESS INTERRUPTION) HOWEVER CAUSED AND ON
 * ANY THEORY OF LIABILITY, WHETHER IN CONTRACT, STRICT LIABILITY, OR TORT (INCLUDING
 * NEGLIGENCE OR OTHERWISE) ARISING IN ANY WAY OUT OF THE USE OF THIS SOFTWARE, EVEN IF
 * ADVISED OF THE POSSIBILITY OF SUCH DAMAGE.
 * 
 * The views and conclusions contained in the software and documentation are those of the
 * authors and should not be interpreted as representing official policies, either expressed
 * or implied, of Andrea Leofreddi.
 */

"use strict";

/// CONFIGURATION 
/// ====>

var enablePan = 1; // 1 or 0: enable or disable panning (default enabled)
var enableZoom = 1; // 1 or 0: enable or disable zooming (default enabled)
var enableDrag = 0; // 1 or 0: enable or disable dragging (default disabled)

/// <====
/// END OF CONFIGURATION 

var root = document.documentElement;

var state = 'none', svgRoot, stateTarget, stateOrigin, stateTf;

setupHandlers(root);

/**
 * Register handlers
 */
function setupHandlers(root){
	setAttributes(root, {
		"onmouseup" : "handleMouseUp(evt)",
		"onmousedown" : "handleMouseDown(evt)",
		"onmousemove" : "handleMouseMove(evt)",
		//"onmouseout" : "handleMouseUp(evt)", // Decomment this to stop the pan functionality when dragging out of the SVG element
	});

	if(navigator.userAgent.toLowerCase().indexOf('webkit') >= 0)
		window.addEventListener('mousewheel', handleMouseWheel, false); // Chrome/Safari
	else
		window.addEventListener('DOMMouseScroll', handleMouseWheel, false); // Others
}

/**
 * Retrieves the root element for SVG manipulation. The element is then cached into the svgRoot global variable.
 */
function getRoot(root) {
	if(typeof(svgRoot) == "undefined") {
		var g = null;

		g = root.getElementById("viewport");

		if(g == null)
			g = root.getElementsByTagName('g')[0];

		if(g == null)
			alert('Unable to obtain SVG root element');

		setCTM(g, g.getCTM());

		g.removeAttribute("viewBox");

		svgRoot = g;
	}

	return svgRoot;
}

/**
 * Instance an SVGPoint object with given event coordinates.
 */
function getEventPoint(evt) {
	var p = root.createSVGPoint();

	p.x = evt.clientX;
	p.y = evt.clientY;

	return p;
}

/**
 * Sets the current transform matrix of an element.
 */
function setCTM(element, matrix) {
	var s = "matrix(" + matrix.a + "," + matrix.b + "," + matrix.c + "," + matrix.d + "," + matrix.e + "," + matrix.f + ")";

	element.setAttribute("transform", s);
}

/**
 * Dumps a matrix to a string (useful for debug).
 */
function dumpMatrix(matrix) {
	var s = "[ " + matrix.a + ", " + matrix.c + ", " + matrix.e + "\n  " + matrix.b + ", " + matrix.d + ", " + matrix.f + "\n  0, 0, 1 ]";

	return s;
}

/**
 * Sets attributes of an element.
 */
function setAttributes(element, attributes){
	for (var i in attributes)
		element.setAttributeNS(null, i, attributes[i]);
}

/**
 * Handle mouse wheel event.
 */
function handleMouseWheel(evt) {
	if(!enableZoom)
		return;

	if(evt.preventDefault)
		evt.preventDefault();

	evt.returnValue = false;

	var svgDoc = evt.target.ownerDocument;

	var delta;

	if(evt.wheelDelta)
		delta = evt.wheelDelta / 3600; // Chrome/Safari
	else
		delta = evt.detail / -90; // Mozilla

	var z = 1 + delta; // Zoom factor: 0.9/1.1

	var g = getRoot(svgDoc);
	
	var p = getEventPoint(evt);

	p = p.matrixTransform(g.getCTM().inverse());

	// Compute new scale matrix in current mouse position
	var k = root.createSVGMatrix().translate(p.x, p.y).scale(z).translate(-p.x, -p.y);

        setCTM(g, g.getCTM().multiply(k));

	if(typeof(stateTf) == "undefined")
		stateTf = g.getCTM().inverse();

	stateTf = stateTf.multiply(k.inverse());
}

/**
 * Handle mouse move event.
 */
function handleMouseMove(evt) {
	if(evt.preventDefault)
		evt.preventDefault();

	evt.returnValue = false;

	var svgDoc = evt.target.ownerDocument;

	var g = getRoot(svgDoc);

	if(state == 'pan' && enablePan) {
		// Pan mode
		var p = getEventPoint(evt).matrixTransform(stateTf);

		setCTM(g, stateTf.inverse().translate(p.x - stateOrigin.x, p.y - stateOrigin.y));
	} else if(state == 'drag' && enableDrag) {
		// Drag mode
		var p = getEventPoint(evt).matrixTransform(g.getCTM().inverse());

		setCTM(stateTarget, root.createSVGMatrix().translate(p.x - stateOrigin.x, p.y - stateOrigin.y).multiply(g.getCTM().inverse()).multiply(stateTarget.getCTM()));

		stateOrigin = p;
	}
}

/**
 * Handle click event.
 */
function handleMouseDown(evt) {
	if(evt.preventDefault)
		evt.preventDefault();

	evt.returnValue = false;

	var svgDoc = evt.target.ownerDocument;

	var g = getRoot(svgDoc);

	if(
		evt.target.tagName == "svg" 
		|| !enableDrag // Pan anyway when drag is disabled and the user clicked on an element 
	) {
		// Pan mode
		state = 'pan';

		stateTf = g.getCTM().inverse();

		stateOrigin = getEventPoint(evt).matrixTransform(stateTf);
	} else {
		// Drag mode
		state = 'drag';

		stateTarget = evt.target;

		stateTf = g.getCTM().inverse();

		stateOrigin = getEventPoint(evt).matrixTransform(stateTf);
	}
}

/**
 * Handle mouse button release event.
 */
function handleMouseUp(evt) {
	if(evt.preventDefault)
		evt.preventDefault();

	evt.returnValue = false;

	var svgDoc = evt.target.ownerDocument;

	if(state == 'pan' || state == 'drag') {
		// Quit pan mode
		state = '';
	}
}

]]></script><g id="viewport" transform="scale(0.5,0.5) translate(0,0)"><g id="graph0" class="graph" transform="scale(1 1) rotate(0) translate(4 1588)">
<title>searcher</title>
<polygon fill="#ffffff" stroke="transparent" points="-4,4 -4,-1588 1611,-1588 1611,4 -4,4"/>
<g id="clust1" class="cluster">
<title>cluster_L</title>
<polygon fill="none" stroke="#000000" points="8,-1342 8,-1576 678,-1576 678,-1342 8,-1342"/>
</g>
<!-- L -->
<g id="node1" class="node">
<title>L</title>
<polygon fill="#f8f8f8" stroke="#000000" points="670,-1568 16,-1568 16,-1350 670,-1350 670,-1568"/>
<text text-anchor="start" x="24" y="-1538.4" font-family="Times,serif" font-size="32.00" fill="#000000">File: searcher</text>
<text text-anchor="start" x="24" y="-1503.4" font-family="Times,serif" font-size="32.00" fill="#000000">Type: inuse_space</text>
<text text-anchor="start" x="24" y="-1468.4" font-family="Times,serif" font-size="32.00" fill="#000000">Time: May 19, 2017 at 10:47pm (MSK)</text>
<text text-anchor="start" x="24" y="-1433.4" font-family="Times,serif" font-size="32.00" fill="#000000">264.66MB of 265.66MB total (99.62%)</text>
<text text-anchor="start" x="24" y="-1398.4" font-family="Times,serif" font-size="32.00" fill="#000000">Dropped 31 nodes (cum &lt;= 1.33MB)</text>
<text text-anchor="start" x="24" y="-1363.4" font-family="Times,serif" font-size="32.00" fill="#000000">Dropped 1 edge (freq &lt;= 0.27MB)</text>
</g>
<!-- N1 -->
<g id="node2" class="node">
<title>N1</title>
<g id="a_node2"><a xlink:title="runtime.rawstringtmp (190.42MB)">
<polygon fill="#f8f8f8" stroke="#000000" points="1062.5,-60 777.5,-60 777.5,0 1062.5,0 1062.5,-60"/>
<text text-anchor="middle" x="920" y="-36.8" font-family="Times,serif" font-size="24.00" fill="#000000">runtime.rawstringtmp</text>
<text text-anchor="middle" x="920" y="-10.8" font-family="Times,serif" font-size="24.00" fill="#000000">190.42MB(71.68%)</text>
</a>
</g>
</g>
<!-- N2 -->
<g id="node3" class="node">
<title>N2</title>
<g id="a_node3"><a xlink:title="runtime.mapassign (27.01MB)">
<polygon fill="#f8f8f8" stroke="#000000" points="548.5,-329 385.5,-329 385.5,-287 548.5,-287 548.5,-329"/>
<text text-anchor="middle" x="467" y="-313" font-family="Times,serif" font-size="15.00" fill="#000000">runtime.mapassign</text>
<text text-anchor="middle" x="467" y="-296" font-family="Times,serif" font-size="15.00" fill="#000000">27.01MB(10.17%)</text>
</a>
</g>
</g>
<!-- N3 -->
<g id="node4" class="node">
<title>N3</title>
<g id="a_node4"><a xlink:title="runtime.convT2E (25.50MB)">
<polygon fill="#f8f8f8" stroke="#000000" points="957.5,-236 816.5,-236 816.5,-198 957.5,-198 957.5,-236"/>
<text text-anchor="middle" x="887" y="-220.8" font-family="Times,serif" font-size="14.00" fill="#000000">runtime.convT2E</text>
<text text-anchor="middle" x="887" y="-205.8" font-family="Times,serif" font-size="14.00" fill="#000000">25.50MB(9.60%)</text>
</a>
</g>
</g>
<!-- N4 -->
<g id="node5" class="node">
<title>N4</title>
<g id="a_node5"><a xlink:title="runtime.stringtoslicebyte (4.50MB)">
<polygon fill="#f8f8f8" stroke="#000000" points="1352.5,-861.5 1189.5,-861.5 1189.5,-825.5 1352.5,-825.5 1352.5,-861.5"/>
<text text-anchor="middle" x="1271" y="-846.7" font-family="Times,serif" font-size="11.00" fill="#000000">runtime.stringtoslicebyte</text>
<text text-anchor="middle" x="1271" y="-834.7" font-family="Times,serif" font-size="11.00" fill="#000000">4.50MB(1.69%)</text>
</a>
</g>
</g>
<!-- N5 -->
<g id="node6" class="node">
<title>N5</title>
<g id="a_node6"><a xlink:title="encoding/json.(*decodeState).arrayInterface (55.51MB)">
<polygon fill="#f8f8f8" stroke="#000000" points="879,-511 605,-511 605,-467 879,-467 879,-511"/>
<text text-anchor="middle" x="742" y="-498.2" font-family="Times,serif" font-size="11.00" fill="#000000">encoding/json.(*decodeState).arrayInterface</text>
<text text-anchor="middle" x="742" y="-486.2" font-family="Times,serif" font-size="11.00" fill="#000000">4.50MB(1.69%)</text>
<text text-anchor="middle" x="742" y="-474.2" font-family="Times,serif" font-size="11.00" fill="#000000">of 55.51MB(20.89%)</text>
</a>
</g>
</g>
<!-- N21 -->
<g id="node22" class="node">
<title>N21</title>
<g id="a_node22"><a xlink:title="encoding/json.(*decodeState).valueInterface (51MB)">
<polygon fill="#f8f8f8" stroke="#000000" points="845.5,-416 638.5,-416 638.5,-380 845.5,-380 845.5,-416"/>
<text text-anchor="middle" x="742" y="-400.6" font-family="Times,serif" font-size="8.00" fill="#000000">encoding/json.(*decodeState).valueInterface</text>
<text text-anchor="middle" x="742" y="-391.6" font-family="Times,serif" font-size="8.00" fill="#000000">0 of 51MB(19.20%)</text>
</a>
</g>
</g>
<!-- N5&#45;&gt;N21 -->
<g id="edge14" class="edge">
<title>N5&#45;&gt;N21</title>
<g id="a_edge14"><a xlink:title="encoding/json.(*decodeState).arrayInterface &#45;&gt; encoding/json.(*decodeState).valueInterface (51MB)">
<path fill="none" stroke="#000000" d="M742,-466.9714C742,-454.8075 742,-439.5615 742,-426.499"/>
<polygon fill="#000000" stroke="#000000" points="745.5001,-426.1556 742,-416.1556 738.5001,-426.1556 745.5001,-426.1556"/>
</a>
</g>
<g id="a_edge14&#45;label"><a xlink:title="encoding/json.(*decodeState).arrayInterface &#45;&gt; encoding/json.(*decodeState).valueInterface (51MB)">
<text text-anchor="middle" x="766" y="-437.8" font-family="Times,serif" font-size="14.00" fill="#000000"> 51MB</text>
</a>
</g>
</g>
<!-- N6 -->
<g id="node7" class="node">
<title>N6</title>
<g id="a_node7"><a xlink:title="strings.genSplit (2.69MB)">
<polygon fill="#f8f8f8" stroke="#000000" points="1593,-772 1499,-772 1499,-736 1593,-736 1593,-772"/>
<text text-anchor="middle" x="1546" y="-757" font-family="Times,serif" font-size="10.00" fill="#000000">strings.genSplit</text>
<text text-anchor="middle" x="1546" y="-746" font-family="Times,serif" font-size="10.00" fill="#000000">2.69MB(1.01%)</text>
</a>
</g>
</g>
<!-- N7 -->
<g id="node8" class="node">
<title>N7</title>
<g id="a_node8"><a xlink:title="runtime/pprof/internal/protopprof.TranslateCPUProfile (2.51MB)">
<polygon fill="#f8f8f8" stroke="#000000" points="1252.5,-1212 965.5,-1212 965.5,-1176 1252.5,-1176 1252.5,-1212"/>
<text text-anchor="middle" x="1109" y="-1197" font-family="Times,serif" font-size="10.00" fill="#000000">runtime/pprof/internal/protopprof.TranslateCPUProfile</text>
<text text-anchor="middle" x="1109" y="-1186" font-family="Times,serif" font-size="10.00" fill="#000000">2.51MB(0.95%)</text>
</a>
</g>
</g>
<!-- N8 -->
<g id="node9" class="node">
<title>N8</title>
<g id="a_node9"><a xlink:title="runtime.makemap (2.50MB)">
<polygon fill="#f8f8f8" stroke="#000000" points="1477,-861.5 1371,-861.5 1371,-825.5 1477,-825.5 1477,-861.5"/>
<text text-anchor="middle" x="1424" y="-846.5" font-family="Times,serif" font-size="10.00" fill="#000000">runtime.makemap</text>
<text text-anchor="middle" x="1424" y="-835.5" font-family="Times,serif" font-size="10.00" fill="#000000">2.50MB(0.94%)</text>
</a>
</g>
</g>
<!-- N9 -->
<g id="node10" class="node">
<title>N9</title>
<g id="a_node10"><a xlink:title="bytes.makeSlice (2.03MB)">
<polygon fill="#f8f8f8" stroke="#000000" points="943.5,-1038 846.5,-1038 846.5,-1002 943.5,-1002 943.5,-1038"/>
<text text-anchor="middle" x="895" y="-1023" font-family="Times,serif" font-size="10.00" fill="#000000">bytes.makeSlice</text>
<text text-anchor="middle" x="895" y="-1012" font-family="Times,serif" font-size="10.00" fill="#000000">2.03MB(0.76%)</text>
</a>
</g>
</g>
<!-- N10 -->
<g id="node11" class="node">
<title>N10</title>
<g id="a_node11"><a xlink:title="reflect.unsafe_New (2MB)">
<polygon fill="#f8f8f8" stroke="#000000" points="282.5,-147 169.5,-147 169.5,-111 282.5,-111 282.5,-147"/>
<text text-anchor="middle" x="226" y="-132" font-family="Times,serif" font-size="10.00" fill="#000000">reflect.unsafe_New</text>
<text text-anchor="middle" x="226" y="-121" font-family="Times,serif" font-size="10.00" fill="#000000">2MB(0.75%)</text>
</a>
</g>
</g>
<!-- N11 -->
<g id="node12" class="node">
<title>N11</title>
<g id="a_node12"><a xlink:title="encoding/json.Unmarshal (117.01MB)">
<polygon fill="#f8f8f8" stroke="#000000" points="812.5,-864 671.5,-864 671.5,-823 812.5,-823 812.5,-864"/>
<text text-anchor="middle" x="742" y="-852" font-family="Times,serif" font-size="10.00" fill="#000000">encoding/json.Unmarshal</text>
<text text-anchor="middle" x="742" y="-841" font-family="Times,serif" font-size="10.00" fill="#000000">1MB(0.38%)</text>
<text text-anchor="middle" x="742" y="-830" font-family="Times,serif" font-size="10.00" fill="#000000">of 117.01MB(44.05%)</text>
</a>
</g>
</g>
<!-- N19 -->
<g id="node20" class="node">
<title>N19</title>
<g id="a_node20"><a xlink:title="encoding/json.(*decodeState).unmarshal (115.01MB)">
<polygon fill="#f8f8f8" stroke="#000000" points="837.5,-772 646.5,-772 646.5,-736 837.5,-736 837.5,-772"/>
<text text-anchor="middle" x="742" y="-756.6" font-family="Times,serif" font-size="8.00" fill="#000000">encoding/json.(*decodeState).unmarshal</text>
<text text-anchor="middle" x="742" y="-747.6" font-family="Times,serif" font-size="8.00" fill="#000000">0 of 115.01MB(43.29%)</text>
</a>
</g>
</g>
<!-- N11&#45;&gt;N19 -->
<g id="edge9" class="edge">
<title>N11&#45;&gt;N19</title>
<g id="a_edge9"><a xlink:title="encoding/json.Unmarshal &#45;&gt; encoding/json.(*decodeState).unmarshal (115.01MB)">
<path fill="none" stroke="#000000" stroke-width="3" d="M742,-822.7419C742,-810.8004 742,-795.6228 742,-782.5683"/>
<polygon fill="#000000" stroke="#000000" stroke-width="3" points="745.5001,-782.2195 742,-772.2195 738.5001,-782.2196 745.5001,-782.2195"/>
</a>
</g>
<g id="a_edge9&#45;label"><a xlink:title="encoding/json.Unmarshal &#45;&gt; encoding/json.(*decodeState).unmarshal (115.01MB)">
<text text-anchor="middle" x="781.5" y="-793.8" font-family="Times,serif" font-size="14.00" fill="#000000"> 115.01MB</text>
</a>
</g>
</g>
<!-- N12 -->
<g id="node13" class="node">
<title>N12</title>
<g id="a_node13"><a xlink:title="bytes.(*Buffer).Write (2.03MB)">
<polygon fill="#f8f8f8" stroke="#000000" points="947.5,-1212 842.5,-1212 842.5,-1176 947.5,-1176 947.5,-1212"/>
<text text-anchor="middle" x="895" y="-1196.6" font-family="Times,serif" font-size="8.00" fill="#000000">bytes.(*Buffer).Write</text>
<text text-anchor="middle" x="895" y="-1187.6" font-family="Times,serif" font-size="8.00" fill="#000000">0 of 2.03MB(0.76%)</text>
</a>
</g>
</g>
<!-- N13 -->
<g id="node14" class="node">
<title>N13</title>
<g id="a_node14"><a xlink:title="bytes.(*Buffer).grow (2.03MB)">
<polygon fill="#f8f8f8" stroke="#000000" points="946.5,-1125 843.5,-1125 843.5,-1089 946.5,-1089 946.5,-1125"/>
<text text-anchor="middle" x="895" y="-1109.6" font-family="Times,serif" font-size="8.00" fill="#000000">bytes.(*Buffer).grow</text>
<text text-anchor="middle" x="895" y="-1100.6" font-family="Times,serif" font-size="8.00" fill="#000000">0 of 2.03MB(0.76%)</text>
</a>
</g>
</g>
<!-- N12&#45;&gt;N13 -->
<g id="edge40" class="edge">
<title>N12&#45;&gt;N13</title>
<g id="a_edge40"><a xlink:title="bytes.(*Buffer).Write &#45;&gt; bytes.(*Buffer).grow (2.03MB)">
<path fill="none" stroke="#000000" d="M895,-1175.9735C895,-1164.1918 895,-1148.5607 895,-1135.1581"/>
<polygon fill="#000000" stroke="#000000" points="898.5001,-1135.0033 895,-1125.0034 891.5001,-1135.0034 898.5001,-1135.0033"/>
</a>
</g>
<g id="a_edge40&#45;label"><a xlink:title="bytes.(*Buffer).Write &#45;&gt; bytes.(*Buffer).grow (2.03MB)">
<text text-anchor="middle" x="925.5" y="-1146.8" font-family="Times,serif" font-size="14.00" fill="#000000"> 2.03MB</text>
</a>
</g>
</g>
<!-- N13&#45;&gt;N9 -->
<g id="edge41" class="edge">
<title>N13&#45;&gt;N9</title>
<g id="a_edge41"><a xlink:title="bytes.(*Buffer).grow &#45;&gt; bytes.makeSlice (2.03MB)">
<path fill="none" stroke="#000000" d="M895,-1088.9735C895,-1077.1918 895,-1061.5607 895,-1048.1581"/>
<polygon fill="#000000" stroke="#000000" points="898.5001,-1048.0033 895,-1038.0034 891.5001,-1048.0034 898.5001,-1048.0033"/>
</a>
</g>
<g id="a_edge41&#45;label"><a xlink:title="bytes.(*Buffer).grow &#45;&gt; bytes.makeSlice (2.03MB)">
<text text-anchor="middle" x="925.5" y="-1059.8" font-family="Times,serif" font-size="14.00" fill="#000000"> 2.03MB</text>
</a>
</g>
</g>
<!-- N14 -->
<g id="node15" class="node">
<title>N14</title>
<g id="a_node15"><a xlink:title="encoding/json.(*decodeState).array (62.01MB)">
<polygon fill="#f8f8f8" stroke="#000000" points="826,-598 658,-598 658,-562 826,-562 826,-598"/>
<text text-anchor="middle" x="742" y="-582.6" font-family="Times,serif" font-size="8.00" fill="#000000">encoding/json.(*decodeState).array</text>
<text text-anchor="middle" x="742" y="-573.6" font-family="Times,serif" font-size="8.00" fill="#000000">0 of 62.01MB(23.34%)</text>
</a>
</g>
</g>
<!-- N14&#45;&gt;N3 -->
<g id="edge30" class="edge">
<title>N14&#45;&gt;N3</title>
<g id="a_edge30"><a xlink:title="encoding/json.(*decodeState).array &#45;&gt; runtime.convT2E (6.50MB)">
<path fill="none" stroke="#000000" d="M818.7892,-561.9607C845.3764,-551.6369 872.3975,-535.6309 888,-511 891.4992,-505.476 888.7537,-320.3117 887.5203,-246.7222"/>
<polygon fill="#000000" stroke="#000000" points="891.0129,-246.2497 887.3434,-236.3106 884.0139,-246.3687 891.0129,-246.2497"/>
</a>
</g>
<g id="a_edge30&#45;label"><a xlink:title="encoding/json.(*decodeState).array &#45;&gt; runtime.convT2E (6.50MB)">
<text text-anchor="middle" x="919.5" y="-394.3" font-family="Times,serif" font-size="14.00" fill="#000000"> 6.50MB</text>
</a>
</g>
</g>
<!-- N14&#45;&gt;N5 -->
<g id="edge13" class="edge">
<title>N14&#45;&gt;N5</title>
<g id="a_edge13"><a xlink:title="encoding/json.(*decodeState).array &#45;&gt; encoding/json.(*decodeState).arrayInterface (55.51MB)">
<path fill="none" stroke="#000000" stroke-width="2" d="M742,-561.5848C742,-550.1105 742,-535.0231 742,-521.5774"/>
<polygon fill="#000000" stroke="#000000" stroke-width="2" points="745.5001,-521.2465 742,-511.2465 738.5001,-521.2466 745.5001,-521.2465"/>
</a>
</g>
<g id="a_edge13&#45;label"><a xlink:title="encoding/json.(*decodeState).array &#45;&gt; encoding/json.(*decodeState).arrayInterface (55.51MB)">
<text text-anchor="middle" x="777" y="-532.8" font-family="Times,serif" font-size="14.00" fill="#000000"> 55.51MB</text>
</a>
</g>
</g>
<!-- N15 -->
<g id="node16" class="node">
<title>N15</title>
<g id="a_node16"><a xlink:title="encoding/json.(*decodeState).literal (18MB)">
<polygon fill="#f8f8f8" stroke="#000000" points="1133,-416 961,-416 961,-380 1133,-380 1133,-416"/>
<text text-anchor="middle" x="1047" y="-400.6" font-family="Times,serif" font-size="8.00" fill="#000000">encoding/json.(*decodeState).literal</text>
<text text-anchor="middle" x="1047" y="-391.6" font-family="Times,serif" font-size="8.00" fill="#000000">0 of 18MB(6.78%)</text>
</a>
</g>
</g>
<!-- N17 -->
<g id="node18" class="node">
<title>N17</title>
<g id="a_node18"><a xlink:title="encoding/json.(*decodeState).literalStore (18MB)">
<polygon fill="#f8f8f8" stroke="#000000" points="1104.5,-326 909.5,-326 909.5,-290 1104.5,-290 1104.5,-326"/>
<text text-anchor="middle" x="1007" y="-310.6" font-family="Times,serif" font-size="8.00" fill="#000000">encoding/json.(*decodeState).literalStore</text>
<text text-anchor="middle" x="1007" y="-301.6" font-family="Times,serif" font-size="8.00" fill="#000000">0 of 18MB(6.78%)</text>
</a>
</g>
</g>
<!-- N15&#45;&gt;N17 -->
<g id="edge25" class="edge">
<title>N15&#45;&gt;N17</title>
<g id="a_edge25"><a xlink:title="encoding/json.(*decodeState).literal &#45;&gt; encoding/json.(*decodeState).literalStore (18MB)">
<path fill="none" stroke="#000000" d="M1038.9054,-379.7872C1033.2668,-367.1003 1025.6432,-349.9472 1019.2621,-335.5897"/>
<polygon fill="#000000" stroke="#000000" points="1022.3423,-333.9024 1015.0826,-326.1858 1015.9457,-336.7454 1022.3423,-333.9024"/>
</a>
</g>
<g id="a_edge25&#45;label"><a xlink:title="encoding/json.(*decodeState).literal &#45;&gt; encoding/json.(*decodeState).literalStore (18MB)">
<text text-anchor="middle" x="1054" y="-350.8" font-family="Times,serif" font-size="14.00" fill="#000000"> 18MB</text>
</a>
</g>
</g>
<!-- N16 -->
<g id="node17" class="node">
<title>N16</title>
<g id="a_node17"><a xlink:title="encoding/json.(*decodeState).literalInterface (51MB)">
<polygon fill="#f8f8f8" stroke="#000000" points="847,-326 637,-326 637,-290 847,-290 847,-326"/>
<text text-anchor="middle" x="742" y="-310.6" font-family="Times,serif" font-size="8.00" fill="#000000">encoding/json.(*decodeState).literalInterface</text>
<text text-anchor="middle" x="742" y="-301.6" font-family="Times,serif" font-size="8.00" fill="#000000">0 of 51MB(19.20%)</text>
</a>
</g>
</g>
<!-- N16&#45;&gt;N3 -->
<g id="edge28" class="edge">
<title>N16&#45;&gt;N3</title>
<g id="a_edge28"><a xlink:title="encoding/json.(*decodeState).literalInterface &#45;&gt; runtime.convT2E (9MB)">
<path fill="none" stroke="#000000" d="M770.9944,-289.8035C793.0764,-275.9452 823.7029,-256.7244 847.9426,-241.5119"/>
<polygon fill="#000000" stroke="#000000" points="849.9467,-244.3864 856.5563,-236.106 846.2256,-238.4573 849.9467,-244.3864"/>
</a>
</g>
<g id="a_edge28&#45;label"><a xlink:title="encoding/json.(*decodeState).literalInterface &#45;&gt; runtime.convT2E (9MB)">
<text text-anchor="middle" x="847.5" y="-257.8" font-family="Times,serif" font-size="14.00" fill="#000000"> 9MB</text>
</a>
</g>
</g>
<!-- N22 -->
<g id="node23" class="node">
<title>N22</title>
<g id="a_node23"><a xlink:title="encoding/json.unquote (42MB)">
<polygon fill="#f8f8f8" stroke="#000000" points="798.5,-235 685.5,-235 685.5,-199 798.5,-199 798.5,-235"/>
<text text-anchor="middle" x="742" y="-219.6" font-family="Times,serif" font-size="8.00" fill="#000000">encoding/json.unquote</text>
<text text-anchor="middle" x="742" y="-210.6" font-family="Times,serif" font-size="8.00" fill="#000000">0 of 42MB(15.81%)</text>
</a>
</g>
</g>
<!-- N16&#45;&gt;N22 -->
<g id="edge19" class="edge">
<title>N16&#45;&gt;N22</title>
<g id="a_edge19"><a xlink:title="encoding/json.(*decodeState).literalInterface &#45;&gt; encoding/json.unquote (42MB)">
<path fill="none" stroke="#000000" d="M742,-289.5848C742,-276.9209 742,-259.8558 742,-245.4541"/>
<polygon fill="#000000" stroke="#000000" points="745.5001,-245.0772 742,-235.0773 738.5001,-245.0773 745.5001,-245.0772"/>
</a>
</g>
<g id="a_edge19&#45;label"><a xlink:title="encoding/json.(*decodeState).literalInterface &#45;&gt; encoding/json.unquote (42MB)">
<text text-anchor="middle" x="766" y="-257.8" font-family="Times,serif" font-size="14.00" fill="#000000"> 42MB</text>
</a>
</g>
</g>
<!-- N17&#45;&gt;N3 -->
<g id="edge29" class="edge">
<title>N17&#45;&gt;N3</title>
<g id="a_edge29"><a xlink:title="encoding/json.(*decodeState).literalStore &#45;&gt; runtime.convT2E (8.50MB)">
<path fill="none" stroke="#000000" d="M959.733,-289.9104C948.0401,-284.2176 936.0074,-277.226 926,-269 917.6311,-262.1208 910.0545,-253.0885 903.8529,-244.4853"/>
<polygon fill="#000000" stroke="#000000" points="906.6659,-242.3984 898.1311,-236.1208 900.8883,-246.3506 906.6659,-242.3984"/>
</a>
</g>
<g id="a_edge29&#45;label"><a xlink:title="encoding/json.(*decodeState).literalStore &#45;&gt; runtime.convT2E (8.50MB)">
<text text-anchor="middle" x="956.5" y="-257.8" font-family="Times,serif" font-size="14.00" fill="#000000"> 8.50MB</text>
</a>
</g>
</g>
<!-- N37 -->
<g id="node38" class="node">
<title>N37</title>
<g id="a_node38"><a xlink:title="runtime.slicebytetostring (142.26MB)">
<polygon fill="#f8f8f8" stroke="#000000" points="982,-147 858,-147 858,-111 982,-111 982,-147"/>
<text text-anchor="middle" x="920" y="-131.6" font-family="Times,serif" font-size="8.00" fill="#000000">runtime.slicebytetostring</text>
<text text-anchor="middle" x="920" y="-122.6" font-family="Times,serif" font-size="8.00" fill="#000000">0 of 142.26MB(53.55%)</text>
</a>
</g>
</g>
<!-- N17&#45;&gt;N37 -->
<g id="edge27" class="edge">
<title>N17&#45;&gt;N37</title>
<g id="a_edge27"><a xlink:title="encoding/json.(*decodeState).literalStore &#45;&gt; runtime.slicebytetostring (9.50MB)">
<path fill="none" stroke="#000000" d="M1001.9383,-289.901C995.3669,-267.6177 982.8414,-228.9273 967,-198 959.43,-183.221 949.2229,-167.8512 940.2549,-155.3791"/>
<polygon fill="#000000" stroke="#000000" points="943.0289,-153.2433 934.2918,-147.2504 937.3847,-157.3838 943.0289,-153.2433"/>
</a>
</g>
<g id="a_edge27&#45;label"><a xlink:title="encoding/json.(*decodeState).literalStore &#45;&gt; runtime.slicebytetostring (9.50MB)">
<text text-anchor="middle" x="1013.5" y="-213.3" font-family="Times,serif" font-size="14.00" fill="#000000"> 9.50MB</text>
</a>
</g>
</g>
<!-- N18 -->
<g id="node19" class="node">
<title>N18</title>
<g id="a_node19"><a xlink:title="encoding/json.(*decodeState).object (115.01MB)">
<polygon fill="#f8f8f8" stroke="#000000" points="639.5,-598 468.5,-598 468.5,-562 639.5,-562 639.5,-598"/>
<text text-anchor="middle" x="554" y="-582.6" font-family="Times,serif" font-size="8.00" fill="#000000">encoding/json.(*decodeState).object</text>
<text text-anchor="middle" x="554" y="-573.6" font-family="Times,serif" font-size="8.00" fill="#000000">0 of 115.01MB(43.29%)</text>
</a>
</g>
</g>
<!-- N18&#45;&gt;N3 -->
<g id="edge44" class="edge">
<title>N18&#45;&gt;N3</title>
<g id="a_edge44"><a xlink:title="encoding/json.(*decodeState).object &#45;&gt; runtime.convT2E (1.50MB)">
<path fill="none" stroke="#000000" d="M554.7599,-561.703C556.7498,-515.5703 562.3507,-396.9664 568,-380 583.5398,-333.3302 588.6826,-316.5583 628,-287 668.7982,-256.3285 688.7728,-267.4878 738,-254 760.1686,-247.926 784.31,-241.7455 806.5793,-236.2195"/>
<polygon fill="#000000" stroke="#000000" points="807.4609,-239.6071 816.3302,-233.8118 805.7827,-232.8112 807.4609,-239.6071"/>
</a>
</g>
<g id="a_edge44&#45;label"><a xlink:title="encoding/json.(*decodeState).object &#45;&gt; runtime.convT2E (1.50MB)">
<text text-anchor="middle" x="598.5" y="-394.3" font-family="Times,serif" font-size="14.00" fill="#000000"> 1.50MB</text>
</a>
</g>
</g>
<!-- N20 -->
<g id="node21" class="node">
<title>N20</title>
<g id="a_node21"><a xlink:title="encoding/json.(*decodeState).value (115.01MB)">
<polygon fill="#f8f8f8" stroke="#000000" points="826.5,-685 657.5,-685 657.5,-649 826.5,-649 826.5,-685"/>
<text text-anchor="middle" x="742" y="-669.6" font-family="Times,serif" font-size="8.00" fill="#000000">encoding/json.(*decodeState).value</text>
<text text-anchor="middle" x="742" y="-660.6" font-family="Times,serif" font-size="8.00" fill="#000000">0 of 115.01MB(43.29%)</text>
</a>
</g>
</g>
<!-- N18&#45;&gt;N20 -->
<g id="edge11" class="edge">
<title>N18&#45;&gt;N20</title>
<g id="a_edge11"><a xlink:title="encoding/json.(*decodeState).object &#45;&gt; encoding/json.(*decodeState).value (80.01MB)">
<path fill="none" stroke="#000000" stroke-width="2" d="M592.9038,-598.0034C622.1319,-611.5291 662.3436,-630.1377 693.6414,-644.6213"/>
<polygon fill="#000000" stroke="#000000" stroke-width="2" points="692.501,-647.9501 703.0463,-648.9735 695.4409,-641.5973 692.501,-647.9501"/>
</a>
</g>
<g id="a_edge11&#45;label"><a xlink:title="encoding/json.(*decodeState).object &#45;&gt; encoding/json.(*decodeState).value (80.01MB)">
<text text-anchor="middle" x="695" y="-619.8" font-family="Times,serif" font-size="14.00" fill="#000000"> 80.01MB</text>
</a>
</g>
</g>
<!-- N28 -->
<g id="node29" class="node">
<title>N28</title>
<g id="a_node29"><a xlink:title="reflect.New (2MB)">
<polygon fill="#f8f8f8" stroke="#000000" points="270,-235 182,-235 182,-199 270,-199 270,-235"/>
<text text-anchor="middle" x="226" y="-219.6" font-family="Times,serif" font-size="8.00" fill="#000000">reflect.New</text>
<text text-anchor="middle" x="226" y="-210.6" font-family="Times,serif" font-size="8.00" fill="#000000">0 of 2MB(0.75%)</text>
</a>
</g>
</g>
<!-- N18&#45;&gt;N28 -->
<g id="edge47" class="edge">
<title>N18&#45;&gt;N28</title>
<g id="a_edge47"><a xlink:title="encoding/json.(*decodeState).object &#45;&gt; reflect.New (0.50MB)">
<path fill="none" stroke="#000000" d="M468.4316,-566.0216C398.5496,-553.302 306.5308,-533.1704 276,-511 192.7868,-450.5735 210.4974,-389.5647 218,-287 219.0109,-273.1805 220.6936,-257.8846 222.2557,-245.125"/>
<polygon fill="#000000" stroke="#000000" points="225.7422,-245.4512 223.522,-235.0916 218.7973,-244.5746 225.7422,-245.4512"/>
</a>
</g>
<g id="a_edge47&#45;label"><a xlink:title="encoding/json.(*decodeState).object &#45;&gt; reflect.New (0.50MB)">
<text text-anchor="middle" x="243.5" y="-394.3" font-family="Times,serif" font-size="14.00" fill="#000000"> 0.50MB</text>
</a>
</g>
</g>
<!-- N29 -->
<g id="node30" class="node">
<title>N29</title>
<g id="a_node30"><a xlink:title="reflect.Value.Convert (6MB)">
<polygon fill="#f8f8f8" stroke="#000000" points="392.5,-507 285.5,-507 285.5,-471 392.5,-471 392.5,-507"/>
<text text-anchor="middle" x="339" y="-491.6" font-family="Times,serif" font-size="8.00" fill="#000000">reflect.Value.Convert</text>
<text text-anchor="middle" x="339" y="-482.6" font-family="Times,serif" font-size="8.00" fill="#000000">0 of 6MB(2.26%)</text>
</a>
</g>
</g>
<!-- N18&#45;&gt;N29 -->
<g id="edge31" class="edge">
<title>N18&#45;&gt;N29</title>
<g id="a_edge31"><a xlink:title="encoding/json.(*decodeState).object &#45;&gt; reflect.Value.Convert (6MB)">
<path fill="none" stroke="#000000" d="M485.6898,-561.9443C469.1687,-556.8196 451.742,-550.7665 436,-544 415.4021,-535.1462 393.5889,-523.047 375.8756,-512.4507"/>
<polygon fill="#000000" stroke="#000000" points="377.3791,-509.269 367.0146,-507.0717 373.7466,-515.2528 377.3791,-509.269"/>
</a>
</g>
<g id="a_edge31&#45;label"><a xlink:title="encoding/json.(*decodeState).object &#45;&gt; reflect.Value.Convert (6MB)">
<text text-anchor="middle" x="455.5" y="-532.8" font-family="Times,serif" font-size="14.00" fill="#000000"> 6MB</text>
</a>
</g>
</g>
<!-- N30 -->
<g id="node31" class="node">
<title>N30</title>
<g id="a_node31"><a xlink:title="reflect.Value.SetMapIndex (27.01MB)">
<polygon fill="#f8f8f8" stroke="#000000" points="541,-507 411,-507 411,-471 541,-471 541,-507"/>
<text text-anchor="middle" x="476" y="-491.6" font-family="Times,serif" font-size="8.00" fill="#000000">reflect.Value.SetMapIndex</text>
<text text-anchor="middle" x="476" y="-482.6" font-family="Times,serif" font-size="8.00" fill="#000000">0 of 27.01MB(10.17%)</text>
</a>
</g>
</g>
<!-- N18&#45;&gt;N30 -->
<g id="edge22" class="edge">
<title>N18&#45;&gt;N30</title>
<g id="a_edge22"><a xlink:title="encoding/json.(*decodeState).object &#45;&gt; reflect.Value.SetMapIndex (27.01MB)">
<path fill="none" stroke="#000000" d="M505.0289,-561.8865C497.3426,-557.1195 490.2253,-551.2264 485,-544 479.4391,-536.3095 476.8182,-526.438 475.7009,-517.1859"/>
<polygon fill="#000000" stroke="#000000" points="479.1885,-516.8848 475.0016,-507.1523 472.2054,-517.3715 479.1885,-516.8848"/>
</a>
</g>
<g id="a_edge22&#45;label"><a xlink:title="encoding/json.(*decodeState).object &#45;&gt; reflect.Value.SetMapIndex (27.01MB)">
<text text-anchor="middle" x="520" y="-532.8" font-family="Times,serif" font-size="14.00" fill="#000000"> 27.01MB</text>
</a>
</g>
</g>
<!-- N19&#45;&gt;N20 -->
<g id="edge8" class="edge">
<title>N19&#45;&gt;N20</title>
<g id="a_edge8"><a xlink:title="encoding/json.(*decodeState).unmarshal &#45;&gt; encoding/json.(*decodeState).value (115.01MB)">
<path fill="none" stroke="#000000" stroke-width="3" d="M742,-735.9735C742,-724.1918 742,-708.5607 742,-695.1581"/>
<polygon fill="#000000" stroke="#000000" stroke-width="3" points="745.5001,-695.0033 742,-685.0034 738.5001,-695.0034 745.5001,-695.0033"/>
</a>
</g>
<g id="a_edge8&#45;label"><a xlink:title="encoding/json.(*decodeState).unmarshal &#45;&gt; encoding/json.(*decodeState).value (115.01MB)">
<text text-anchor="middle" x="781.5" y="-706.8" font-family="Times,serif" font-size="14.00" fill="#000000"> 115.01MB</text>
</a>
</g>
</g>
<!-- N20&#45;&gt;N14 -->
<g id="edge12" class="edge">
<title>N20&#45;&gt;N14</title>
<g id="a_edge12"><a xlink:title="encoding/json.(*decodeState).value &#45;&gt; encoding/json.(*decodeState).array (62.01MB)">
<path fill="none" stroke="#000000" stroke-width="2" d="M742,-648.9735C742,-637.1918 742,-621.5607 742,-608.1581"/>
<polygon fill="#000000" stroke="#000000" stroke-width="2" points="745.5001,-608.0033 742,-598.0034 738.5001,-608.0034 745.5001,-608.0033"/>
</a>
</g>
<g id="a_edge12&#45;label"><a xlink:title="encoding/json.(*decodeState).value &#45;&gt; encoding/json.(*decodeState).array (62.01MB)">
<text text-anchor="middle" x="777" y="-619.8" font-family="Times,serif" font-size="14.00" fill="#000000"> 62.01MB</text>
</a>
</g>
</g>
<!-- N20&#45;&gt;N15 -->
<g id="edge26" class="edge">
<title>N20&#45;&gt;N15</title>
<g id="a_edge26"><a xlink:title="encoding/json.(*decodeState).value &#45;&gt; encoding/json.(*decodeState).literal (18MB)">
<path fill="none" stroke="#000000" d="M783.6645,-648.8867C794.4765,-643.6101 805.9116,-637.4998 816,-631 907.2834,-572.1871 990.7115,-471.761 1027.3642,-424.3111"/>
<polygon fill="#000000" stroke="#000000" points="1030.3578,-426.1584 1033.6551,-416.0897 1024.7985,-421.9045 1030.3578,-426.1584"/>
</a>
</g>
<g id="a_edge26&#45;label"><a xlink:title="encoding/json.(*decodeState).value &#45;&gt; encoding/json.(*decodeState).literal (18MB)">
<text text-anchor="middle" x="960" y="-532.8" font-family="Times,serif" font-size="14.00" fill="#000000"> 18MB</text>
</a>
</g>
</g>
<!-- N20&#45;&gt;N18 -->
<g id="edge21" class="edge">
<title>N20&#45;&gt;N18</title>
<g id="a_edge21"><a xlink:title="encoding/json.(*decodeState).value &#45;&gt; encoding/json.(*decodeState).object (35.01MB)">
<path fill="none" stroke="#000000" d="M657.3156,-659.1067C617.7953,-653.659 576.5091,-644.8345 563,-631 557.17,-625.0296 554.3843,-616.6848 553.2019,-608.472"/>
<polygon fill="#000000" stroke="#000000" points="556.6799,-608.0436 552.4531,-598.3284 549.6989,-608.559 556.6799,-608.0436"/>
</a>
</g>
<g id="a_edge21&#45;label"><a xlink:title="encoding/json.(*decodeState).value &#45;&gt; encoding/json.(*decodeState).object (35.01MB)">
<text text-anchor="middle" x="598" y="-619.8" font-family="Times,serif" font-size="14.00" fill="#000000"> 35.01MB</text>
</a>
</g>
</g>
<!-- N21&#45;&gt;N16 -->
<g id="edge15" class="edge">
<title>N21&#45;&gt;N16</title>
<g id="a_edge15"><a xlink:title="encoding/json.(*decodeState).valueInterface &#45;&gt; encoding/json.(*decodeState).literalInterface (51MB)">
<path fill="none" stroke="#000000" d="M742,-379.7872C742,-367.3443 742,-350.6053 742,-336.4211"/>
<polygon fill="#000000" stroke="#000000" points="745.5001,-336.1857 742,-326.1858 738.5001,-336.1858 745.5001,-336.1857"/>
</a>
</g>
<g id="a_edge15&#45;label"><a xlink:title="encoding/json.(*decodeState).valueInterface &#45;&gt; encoding/json.(*decodeState).literalInterface (51MB)">
<text text-anchor="middle" x="766" y="-350.8" font-family="Times,serif" font-size="14.00" fill="#000000"> 51MB</text>
</a>
</g>
</g>
<!-- N22&#45;&gt;N37 -->
<g id="edge20" class="edge">
<title>N22&#45;&gt;N37</title>
<g id="a_edge20"><a xlink:title="encoding/json.unquote &#45;&gt; runtime.slicebytetostring (42MB)">
<path fill="none" stroke="#000000" d="M778.4505,-198.9795C806.0759,-185.322 844.2251,-166.4618 873.9588,-151.762"/>
<polygon fill="#000000" stroke="#000000" points="875.8796,-154.7167 883.2928,-147.1474 872.7773,-148.4417 875.8796,-154.7167"/>
</a>
</g>
<g id="a_edge20&#45;label"><a xlink:title="encoding/json.unquote &#45;&gt; runtime.slicebytetostring (42MB)">
<text text-anchor="middle" x="870" y="-168.8" font-family="Times,serif" font-size="14.00" fill="#000000"> 42MB</text>
</a>
</g>
</g>
<!-- N23 -->
<g id="node24" class="node">
<title>N23</title>
<g id="a_node24"><a xlink:title="main.main.func1 (261.12MB)">
<polygon fill="#f8f8f8" stroke="#000000" points="800.5,-951 683.5,-951 683.5,-915 800.5,-915 800.5,-951"/>
<text text-anchor="middle" x="742" y="-935.6" font-family="Times,serif" font-size="8.00" fill="#000000">main.main.func1</text>
<text text-anchor="middle" x="742" y="-926.6" font-family="Times,serif" font-size="8.00" fill="#000000">0 of 261.12MB(98.29%)</text>
</a>
</g>
</g>
<!-- N23&#45;&gt;N4 -->
<g id="edge34" class="edge">
<title>N23&#45;&gt;N4</title>
<g id="a_edge34"><a xlink:title="main.main.func1 &#45;&gt; runtime.stringtoslicebyte (4.50MB)">
<path fill="none" stroke="#000000" d="M800.6338,-931.1905C902.2181,-927.5463 1106.629,-917.827 1175,-897 1196.7598,-890.3716 1219.0726,-878.3141 1236.7042,-867.3216"/>
<polygon fill="#000000" stroke="#000000" points="1238.9385,-870.0469 1245.4699,-861.7047 1235.1618,-864.153 1238.9385,-870.0469"/>
</a>
</g>
<g id="a_edge34&#45;label"><a xlink:title="main.main.func1 &#45;&gt; runtime.stringtoslicebyte (4.50MB)">
<text text-anchor="middle" x="1238.5" y="-885.8" font-family="Times,serif" font-size="14.00" fill="#000000"> 4.50MB</text>
</a>
</g>
</g>
<!-- N23&#45;&gt;N8 -->
<g id="edge39" class="edge">
<title>N23&#45;&gt;N8</title>
<g id="a_edge39"><a xlink:title="main.main.func1 &#45;&gt; runtime.makemap (2.50MB)">
<path fill="none" stroke="#000000" d="M800.7662,-931.0354C919.4986,-926.7346 1184.2152,-915.3767 1273,-897 1307.3786,-889.8843 1344.5674,-876.7782 1373.4363,-865.3193"/>
<polygon fill="#000000" stroke="#000000" points="1374.9256,-868.4927 1382.8916,-861.5074 1372.3082,-862.0004 1374.9256,-868.4927"/>
</a>
</g>
<g id="a_edge39&#45;label"><a xlink:title="main.main.func1 &#45;&gt; runtime.makemap (2.50MB)">
<text text-anchor="middle" x="1353.5" y="-885.8" font-family="Times,serif" font-size="14.00" fill="#000000"> 2.50MB</text>
</a>
</g>
</g>
<!-- N23&#45;&gt;N11 -->
<g id="edge7" class="edge">
<title>N23&#45;&gt;N11</title>
<g id="a_edge7"><a xlink:title="main.main.func1 &#45;&gt; encoding/json.Unmarshal (117.01MB)">
<path fill="none" stroke="#000000" stroke-width="3" d="M742,-914.8883C742,-903.2808 742,-887.9136 742,-874.411"/>
<polygon fill="#000000" stroke="#000000" stroke-width="3" points="745.5001,-874.0892 742,-864.0893 738.5001,-874.0893 745.5001,-874.0892"/>
</a>
</g>
<g id="a_edge7&#45;label"><a xlink:title="main.main.func1 &#45;&gt; encoding/json.Unmarshal (117.01MB)">
<text text-anchor="middle" x="781.5" y="-885.8" font-family="Times,serif" font-size="14.00" fill="#000000"> 117.01MB</text>
</a>
</g>
</g>
<!-- N34 -->
<g id="node35" class="node">
<title>N34</title>
<g id="a_node35"><a xlink:title="runtime.concatstring2 (48.17MB)">
<polygon fill="#f8f8f8" stroke="#000000" points="529,-861.5 417,-861.5 417,-825.5 529,-825.5 529,-861.5"/>
<text text-anchor="middle" x="473" y="-846.1" font-family="Times,serif" font-size="8.00" fill="#000000">runtime.concatstring2</text>
<text text-anchor="middle" x="473" y="-837.1" font-family="Times,serif" font-size="8.00" fill="#000000">0 of 48.17MB(18.13%)</text>
</a>
</g>
</g>
<!-- N23&#45;&gt;N34 -->
<g id="edge16" class="edge">
<title>N23&#45;&gt;N34</title>
<g id="a_edge16"><a xlink:title="main.main.func1 &#45;&gt; runtime.concatstring2 (48.17MB)">
<path fill="none" stroke="#000000" d="M687.8874,-914.996C644.3442,-900.5086 583.0459,-880.1138 537.0562,-864.8124"/>
<polygon fill="#000000" stroke="#000000" points="538.0804,-861.4645 527.4868,-861.6285 535.8704,-868.1066 538.0804,-861.4645"/>
</a>
</g>
<g id="a_edge16&#45;label"><a xlink:title="main.main.func1 &#45;&gt; runtime.concatstring2 (48.17MB)">
<text text-anchor="middle" x="667" y="-885.8" font-family="Times,serif" font-size="14.00" fill="#000000"> 48.17MB</text>
</a>
</g>
</g>
<!-- N23&#45;&gt;N37 -->
<g id="edge10" class="edge">
<title>N23&#45;&gt;N37</title>
<g id="a_edge10"><a xlink:title="main.main.func1 &#45;&gt; runtime.slicebytetostring (86.25MB)">
<path fill="none" stroke="#000000" stroke-width="2" d="M800.7013,-926.5101C916.016,-912.9639 1161,-879.9017 1161,-843.5 1161,-843.5 1161,-843.5 1161,-217 1161,-180.6271 1062.914,-154.8476 991.8923,-140.9488"/>
<polygon fill="#000000" stroke="#000000" stroke-width="2" points="992.5433,-137.51 982.0635,-139.0666 991.2267,-144.385 992.5433,-137.51"/>
</a>
</g>
<g id="a_edge10&#45;label"><a xlink:title="main.main.func1 &#45;&gt; runtime.slicebytetostring (86.25MB)">
<text text-anchor="middle" x="1196" y="-532.8" font-family="Times,serif" font-size="14.00" fill="#000000"> 86.25MB</text>
</a>
</g>
</g>
<!-- N39 -->
<g id="node40" class="node">
<title>N39</title>
<g id="a_node40"><a xlink:title="strings.Split (2.69MB)">
<polygon fill="#f8f8f8" stroke="#000000" points="1596.5,-861.5 1495.5,-861.5 1495.5,-825.5 1596.5,-825.5 1596.5,-861.5"/>
<text text-anchor="middle" x="1546" y="-846.1" font-family="Times,serif" font-size="8.00" fill="#000000">strings.Split</text>
<text text-anchor="middle" x="1546" y="-837.1" font-family="Times,serif" font-size="8.00" fill="#000000">0 of 2.69MB(1.01%)</text>
</a>
</g>
</g>
<!-- N23&#45;&gt;N39 -->
<g id="edge36" class="edge">
<title>N23&#45;&gt;N39</title>
<g id="a_edge36"><a xlink:title="main.main.func1 &#45;&gt; strings.Split (2.69MB)">
<path fill="none" stroke="#000000" d="M800.7241,-931.746C937.9529,-928.4894 1276.4588,-918.4793 1388,-897 1424.1817,-890.0326 1463.4257,-876.776 1493.7512,-865.2026"/>
<polygon fill="#000000" stroke="#000000" points="1495.209,-868.3914 1503.2685,-861.5143 1492.6794,-861.8644 1495.209,-868.3914"/>
</a>
</g>
<g id="a_edge36&#45;label"><a xlink:title="main.main.func1 &#45;&gt; strings.Split (2.69MB)">
<text text-anchor="middle" x="1475.5" y="-885.8" font-family="Times,serif" font-size="14.00" fill="#000000"> 2.69MB</text>
</a>
</g>
</g>
<!-- N24 -->
<g id="node25" class="node">
<title>N24</title>
<g id="a_node25"><a xlink:title="net/http.(*ServeMux).ServeHTTP (261.12MB)">
<polygon fill="#f8f8f8" stroke="#000000" points="820.5,-1125 663.5,-1125 663.5,-1089 820.5,-1089 820.5,-1125"/>
<text text-anchor="middle" x="742" y="-1109.6" font-family="Times,serif" font-size="8.00" fill="#000000">net/http.(*ServeMux).ServeHTTP</text>
<text text-anchor="middle" x="742" y="-1100.6" font-family="Times,serif" font-size="8.00" fill="#000000">0 of 261.12MB(98.29%)</text>
</a>
</g>
</g>
<!-- N26 -->
<g id="node27" class="node">
<title>N26</title>
<g id="a_node27"><a xlink:title="net/http.HandlerFunc.ServeHTTP (261.12MB)">
<polygon fill="#f8f8f8" stroke="#000000" points="822,-1038 662,-1038 662,-1002 822,-1002 822,-1038"/>
<text text-anchor="middle" x="742" y="-1022.6" font-family="Times,serif" font-size="8.00" fill="#000000">net/http.HandlerFunc.ServeHTTP</text>
<text text-anchor="middle" x="742" y="-1013.6" font-family="Times,serif" font-size="8.00" fill="#000000">0 of 261.12MB(98.29%)</text>
</a>
</g>
</g>
<!-- N24&#45;&gt;N26 -->
<g id="edge1" class="edge">
<title>N24&#45;&gt;N26</title>
<g id="a_edge1"><a xlink:title="net/http.(*ServeMux).ServeHTTP &#45;&gt; net/http.HandlerFunc.ServeHTTP (261.12MB)">
<path fill="none" stroke="#000000" stroke-width="5" d="M742,-1088.9735C742,-1077.1918 742,-1061.5607 742,-1048.1581"/>
<polygon fill="#000000" stroke="#000000" stroke-width="5" points="746.3751,-1048.0033 742,-1038.0034 737.6251,-1048.0034 746.3751,-1048.0033"/>
</a>
</g>
<g id="a_edge1&#45;label"><a xlink:title="net/http.(*ServeMux).ServeHTTP &#45;&gt; net/http.HandlerFunc.ServeHTTP (261.12MB)">
<text text-anchor="middle" x="781.5" y="-1059.8" font-family="Times,serif" font-size="14.00" fill="#000000"> 261.12MB</text>
</a>
</g>
</g>
<!-- N25 -->
<g id="node26" class="node">
<title>N25</title>
<g id="a_node26"><a xlink:title="net/http.(*conn).serve (261.12MB)">
<polygon fill="#f8f8f8" stroke="#000000" points="800.5,-1299 683.5,-1299 683.5,-1263 800.5,-1263 800.5,-1299"/>
<text text-anchor="middle" x="742" y="-1283.6" font-family="Times,serif" font-size="8.00" fill="#000000">net/http.(*conn).serve</text>
<text text-anchor="middle" x="742" y="-1274.6" font-family="Times,serif" font-size="8.00" fill="#000000">0 of 261.12MB(98.29%)</text>
</a>
</g>
</g>
<!-- N27 -->
<g id="node28" class="node">
<title>N27</title>
<g id="a_node28"><a xlink:title="net/http.serverHandler.ServeHTTP (261.12MB)">
<polygon fill="#f8f8f8" stroke="#000000" points="824.5,-1212 659.5,-1212 659.5,-1176 824.5,-1176 824.5,-1212"/>
<text text-anchor="middle" x="742" y="-1196.6" font-family="Times,serif" font-size="8.00" fill="#000000">net/http.serverHandler.ServeHTTP</text>
<text text-anchor="middle" x="742" y="-1187.6" font-family="Times,serif" font-size="8.00" fill="#000000">0 of 261.12MB(98.29%)</text>
</a>
</g>
</g>
<!-- N25&#45;&gt;N27 -->
<g id="edge2" class="edge">
<title>N25&#45;&gt;N27</title>
<g id="a_edge2"><a xlink:title="net/http.(*conn).serve &#45;&gt; net/http.serverHandler.ServeHTTP (261.12MB)">
<path fill="none" stroke="#000000" stroke-width="5" d="M742,-1262.9735C742,-1251.1918 742,-1235.5607 742,-1222.1581"/>
<polygon fill="#000000" stroke="#000000" stroke-width="5" points="746.3751,-1222.0033 742,-1212.0034 737.6251,-1222.0034 746.3751,-1222.0033"/>
</a>
</g>
<g id="a_edge2&#45;label"><a xlink:title="net/http.(*conn).serve &#45;&gt; net/http.serverHandler.ServeHTTP (261.12MB)">
<text text-anchor="middle" x="781.5" y="-1233.8" font-family="Times,serif" font-size="14.00" fill="#000000"> 261.12MB</text>
</a>
</g>
</g>
<!-- N26&#45;&gt;N23 -->
<g id="edge3" class="edge">
<title>N26&#45;&gt;N23</title>
<g id="a_edge3"><a xlink:title="net/http.HandlerFunc.ServeHTTP &#45;&gt; main.main.func1 (261.12MB)">
<path fill="none" stroke="#000000" stroke-width="5" d="M742,-1001.9735C742,-990.1918 742,-974.5607 742,-961.1581"/>
<polygon fill="#000000" stroke="#000000" stroke-width="5" points="746.3751,-961.0033 742,-951.0034 737.6251,-961.0034 746.3751,-961.0033"/>
</a>
</g>
<g id="a_edge3&#45;label"><a xlink:title="net/http.HandlerFunc.ServeHTTP &#45;&gt; main.main.func1 (261.12MB)">
<text text-anchor="middle" x="781.5" y="-972.8" font-family="Times,serif" font-size="14.00" fill="#000000"> 261.12MB</text>
</a>
</g>
</g>
<!-- N27&#45;&gt;N24 -->
<g id="edge4" class="edge">
<title>N27&#45;&gt;N24</title>
<g id="a_edge4"><a xlink:title="net/http.serverHandler.ServeHTTP &#45;&gt; net/http.(*ServeMux).ServeHTTP (261.12MB)">
<path fill="none" stroke="#000000" stroke-width="5" d="M742,-1175.9735C742,-1164.1918 742,-1148.5607 742,-1135.1581"/>
<polygon fill="#000000" stroke="#000000" stroke-width="5" points="746.3751,-1135.0033 742,-1125.0034 737.6251,-1135.0034 746.3751,-1135.0033"/>
</a>
</g>
<g id="a_edge4&#45;label"><a xlink:title="net/http.serverHandler.ServeHTTP &#45;&gt; net/http.(*ServeMux).ServeHTTP (261.12MB)">
<text text-anchor="middle" x="781.5" y="-1146.8" font-family="Times,serif" font-size="14.00" fill="#000000"> 261.12MB</text>
</a>
</g>
</g>
<!-- N28&#45;&gt;N10 -->
<g id="edge43" class="edge">
<title>N28&#45;&gt;N10</title>
<g id="a_edge43"><a xlink:title="reflect.New &#45;&gt; reflect.unsafe_New (2MB)">
<path fill="none" stroke="#000000" d="M226,-198.7663C226,-186.8492 226,-171.0384 226,-157.4817"/>
<polygon fill="#000000" stroke="#000000" points="229.5001,-157.2103 226,-147.2103 222.5001,-157.2103 229.5001,-157.2103"/>
</a>
</g>
<g id="a_edge43&#45;label"><a xlink:title="reflect.New &#45;&gt; reflect.unsafe_New (2MB)">
<text text-anchor="middle" x="245.5" y="-168.8" font-family="Times,serif" font-size="14.00" fill="#000000"> 2MB</text>
</a>
</g>
</g>
<!-- N31 -->
<g id="node32" class="node">
<title>N31</title>
<g id="a_node32"><a xlink:title="reflect.cvtBytesString (6MB)">
<polygon fill="#f8f8f8" stroke="#000000" points="393,-416 285,-416 285,-380 393,-380 393,-416"/>
<text text-anchor="middle" x="339" y="-400.6" font-family="Times,serif" font-size="8.00" fill="#000000">reflect.cvtBytesString</text>
<text text-anchor="middle" x="339" y="-391.6" font-family="Times,serif" font-size="8.00" fill="#000000">0 of 6MB(2.26%)</text>
</a>
</g>
</g>
<!-- N29&#45;&gt;N31 -->
<g id="edge32" class="edge">
<title>N29&#45;&gt;N31</title>
<g id="a_edge32"><a xlink:title="reflect.Value.Convert &#45;&gt; reflect.cvtBytesString (6MB)">
<path fill="none" stroke="#000000" d="M339,-470.5848C339,-457.9209 339,-440.8558 339,-426.4541"/>
<polygon fill="#000000" stroke="#000000" points="342.5001,-426.0772 339,-416.0773 335.5001,-426.0773 342.5001,-426.0772"/>
</a>
</g>
<g id="a_edge32&#45;label"><a xlink:title="reflect.Value.Convert &#45;&gt; reflect.cvtBytesString (6MB)">
<text text-anchor="middle" x="358.5" y="-437.8" font-family="Times,serif" font-size="14.00" fill="#000000"> 6MB</text>
</a>
</g>
</g>
<!-- N33 -->
<g id="node34" class="node">
<title>N33</title>
<g id="a_node34"><a xlink:title="reflect.mapassign (27.01MB)">
<polygon fill="#f8f8f8" stroke="#000000" points="523,-416 411,-416 411,-380 523,-380 523,-416"/>
<text text-anchor="middle" x="467" y="-400.6" font-family="Times,serif" font-size="8.00" fill="#000000">reflect.mapassign</text>
<text text-anchor="middle" x="467" y="-391.6" font-family="Times,serif" font-size="8.00" fill="#000000">0 of 27.01MB(10.17%)</text>
</a>
</g>
</g>
<!-- N30&#45;&gt;N33 -->
<g id="edge23" class="edge">
<title>N30&#45;&gt;N33</title>
<g id="a_edge23"><a xlink:title="reflect.Value.SetMapIndex &#45;&gt; reflect.mapassign (27.01MB)">
<path fill="none" stroke="#000000" d="M474.1787,-470.5848C472.914,-457.7967 471.2053,-440.5207 469.7723,-426.0313"/>
<polygon fill="#000000" stroke="#000000" points="473.2552,-425.6842 468.7879,-416.0773 466.2892,-426.3732 473.2552,-425.6842"/>
</a>
</g>
<g id="a_edge23&#45;label"><a xlink:title="reflect.Value.SetMapIndex &#45;&gt; reflect.mapassign (27.01MB)">
<text text-anchor="middle" x="508" y="-437.8" font-family="Times,serif" font-size="14.00" fill="#000000"> 27.01MB</text>
</a>
</g>
</g>
<!-- N32 -->
<g id="node33" class="node">
<title>N32</title>
<g id="a_node33"><a xlink:title="reflect.makeString (1.50MB)">
<polygon fill="#f8f8f8" stroke="#000000" points="328.5,-326 227.5,-326 227.5,-290 328.5,-290 328.5,-326"/>
<text text-anchor="middle" x="278" y="-310.6" font-family="Times,serif" font-size="8.00" fill="#000000">reflect.makeString</text>
<text text-anchor="middle" x="278" y="-301.6" font-family="Times,serif" font-size="8.00" fill="#000000">0 of 1.50MB(0.56%)</text>
</a>
</g>
</g>
<!-- N31&#45;&gt;N32 -->
<g id="edge45" class="edge">
<title>N31&#45;&gt;N32</title>
<g id="a_edge45"><a xlink:title="reflect.cvtBytesString &#45;&gt; reflect.makeString (1.50MB)">
<path fill="none" stroke="#000000" d="M299.4229,-379.9333C292.5668,-375.0663 286.2775,-369.1246 282,-362 277.4589,-354.4366 275.7097,-345.1618 275.3156,-336.4468"/>
<polygon fill="#000000" stroke="#000000" points="278.8172,-336.2788 275.4105,-326.2467 271.8175,-336.2136 278.8172,-336.2788"/>
</a>
</g>
<g id="a_edge45&#45;label"><a xlink:title="reflect.cvtBytesString &#45;&gt; reflect.makeString (1.50MB)">
<text text-anchor="middle" x="312.5" y="-350.8" font-family="Times,serif" font-size="14.00" fill="#000000"> 1.50MB</text>
</a>
</g>
</g>
<!-- N31&#45;&gt;N37 -->
<g id="edge35" class="edge">
<title>N31&#45;&gt;N37</title>
<g id="a_edge35"><a xlink:title="reflect.cvtBytesString &#45;&gt; runtime.slicebytetostring (4.50MB)">
<path fill="none" stroke="#000000" d="M342.9462,-379.6812C349.3296,-351.651 362.5669,-299.9923 376,-287 443.8637,-221.3629 715.9267,-165.3073 847.7206,-141.3812"/>
<polygon fill="#000000" stroke="#000000" points="848.5089,-144.7955 857.7294,-139.577 847.2671,-137.9066 848.5089,-144.7955"/>
</a>
</g>
<g id="a_edge35&#45;label"><a xlink:title="reflect.cvtBytesString &#45;&gt; runtime.slicebytetostring (4.50MB)">
<text text-anchor="middle" x="455.5" y="-257.8" font-family="Times,serif" font-size="14.00" fill="#000000"> 4.50MB</text>
</a>
</g>
</g>
<!-- N32&#45;&gt;N28 -->
<g id="edge46" class="edge">
<title>N32&#45;&gt;N28</title>
<g id="a_edge46"><a xlink:title="reflect.makeString &#45;&gt; reflect.New (1.50MB)">
<path fill="none" stroke="#000000" d="M267.477,-289.5848C259.9567,-276.4243 249.7203,-258.5106 241.2986,-243.7725"/>
<polygon fill="#000000" stroke="#000000" points="244.3302,-242.0232 236.3299,-235.0773 238.2524,-245.4962 244.3302,-242.0232"/>
</a>
</g>
<g id="a_edge46&#45;label"><a xlink:title="reflect.makeString &#45;&gt; reflect.New (1.50MB)">
<text text-anchor="middle" x="286.5" y="-257.8" font-family="Times,serif" font-size="14.00" fill="#000000"> 1.50MB</text>
</a>
</g>
</g>
<!-- N33&#45;&gt;N2 -->
<g id="edge24" class="edge">
<title>N33&#45;&gt;N2</title>
<g id="a_edge24"><a xlink:title="reflect.mapassign &#45;&gt; runtime.mapassign (27.01MB)">
<path fill="none" stroke="#000000" d="M467,-379.7872C467,-368.1958 467,-352.8762 467,-339.3668"/>
<polygon fill="#000000" stroke="#000000" points="470.5001,-339.0264 467,-329.0264 463.5001,-339.0265 470.5001,-339.0264"/>
</a>
</g>
<g id="a_edge24&#45;label"><a xlink:title="reflect.mapassign &#45;&gt; runtime.mapassign (27.01MB)">
<text text-anchor="middle" x="502" y="-350.8" font-family="Times,serif" font-size="14.00" fill="#000000"> 27.01MB</text>
</a>
</g>
</g>
<!-- N35 -->
<g id="node36" class="node">
<title>N35</title>
<g id="a_node36"><a xlink:title="runtime.concatstrings (48.17MB)">
<polygon fill="#f8f8f8" stroke="#000000" points="392,-772 280,-772 280,-736 392,-736 392,-772"/>
<text text-anchor="middle" x="336" y="-756.6" font-family="Times,serif" font-size="8.00" fill="#000000">runtime.concatstrings</text>
<text text-anchor="middle" x="336" y="-747.6" font-family="Times,serif" font-size="8.00" fill="#000000">0 of 48.17MB(18.13%)</text>
</a>
</g>
</g>
<!-- N34&#45;&gt;N35 -->
<g id="edge17" class="edge">
<title>N34&#45;&gt;N35</title>
<g id="a_edge17"><a xlink:title="runtime.concatstring2 &#45;&gt; runtime.concatstrings (48.17MB)">
<path fill="none" stroke="#000000" d="M445.276,-825.3883C424.1997,-811.6195 395.026,-792.5608 372.1234,-777.5989"/>
<polygon fill="#000000" stroke="#000000" points="373.9689,-774.6238 363.6828,-772.0847 370.1404,-780.4841 373.9689,-774.6238"/>
</a>
</g>
<g id="a_edge17&#45;label"><a xlink:title="runtime.concatstring2 &#45;&gt; runtime.concatstrings (48.17MB)">
<text text-anchor="middle" x="448" y="-793.8" font-family="Times,serif" font-size="14.00" fill="#000000"> 48.17MB</text>
</a>
</g>
</g>
<!-- N35&#45;&gt;N1 -->
<g id="edge18" class="edge">
<title>N35&#45;&gt;N1</title>
<g id="a_edge18"><a xlink:title="runtime.concatstrings &#45;&gt; runtime.rawstringtmp (48.17MB)">
<path fill="none" stroke="#000000" d="M279.772,-744.802C209.968,-731.7583 100,-705.1546 100,-667 100,-667 100,-667 100,-129 100,-62.5587 529.796,-40.4312 767.0639,-33.2779"/>
<polygon fill="#000000" stroke="#000000" points="767.2749,-36.7733 777.1669,-32.9789 767.0677,-29.7764 767.2749,-36.7733"/>
</a>
</g>
<g id="a_edge18&#45;label"><a xlink:title="runtime.concatstrings &#45;&gt; runtime.rawstringtmp (48.17MB)">
<text text-anchor="middle" x="135" y="-394.3" font-family="Times,serif" font-size="14.00" fill="#000000"> 48.17MB</text>
</a>
</g>
</g>
<!-- N36 -->
<g id="node37" class="node">
<title>N36</title>
<g id="a_node37"><a xlink:title="runtime.goexit (265.66MB)">
<polygon fill="#f8f8f8" stroke="#000000" points="796.5,-1477 687.5,-1477 687.5,-1441 796.5,-1441 796.5,-1477"/>
<text text-anchor="middle" x="742" y="-1461.6" font-family="Times,serif" font-size="8.00" fill="#000000">runtime.goexit</text>
<text text-anchor="middle" x="742" y="-1452.6" font-family="Times,serif" font-size="8.00" fill="#000000">0 of 265.66MB(100%)</text>
</a>
</g>
</g>
<!-- N36&#45;&gt;N25 -->
<g id="edge5" class="edge">
<title>N36&#45;&gt;N25</title>
<g id="a_edge5"><a xlink:title="runtime.goexit &#45;&gt; net/http.(*conn).serve (261.12MB)">
<path fill="none" stroke="#000000" stroke-width="5" d="M742,-1440.9528C742,-1409.9016 742,-1346.1524 742,-1309.198"/>
<polygon fill="#000000" stroke="#000000" stroke-width="5" points="746.3751,-1309.0949 742,-1299.0949 737.6251,-1309.095 746.3751,-1309.0949"/>
</a>
</g>
<g id="a_edge5&#45;label"><a xlink:title="runtime.goexit &#45;&gt; net/http.(*conn).serve (261.12MB)">
<text text-anchor="middle" x="781.5" y="-1320.8" font-family="Times,serif" font-size="14.00" fill="#000000"> 261.12MB</text>
</a>
</g>
</g>
<!-- N38 -->
<g id="node39" class="node">
<title>N38</title>
<g id="a_node39"><a xlink:title="runtime/pprof.profileWriter (4.54MB)">
<polygon fill="#f8f8f8" stroke="#000000" points="956.5,-1299 823.5,-1299 823.5,-1263 956.5,-1263 956.5,-1299"/>
<text text-anchor="middle" x="890" y="-1283.6" font-family="Times,serif" font-size="8.00" fill="#000000">runtime/pprof.profileWriter</text>
<text text-anchor="middle" x="890" y="-1274.6" font-family="Times,serif" font-size="8.00" fill="#000000">0 of 4.54MB(1.71%)</text>
</a>
</g>
</g>
<!-- N36&#45;&gt;N38 -->
<g id="edge33" class="edge">
<title>N36&#45;&gt;N38</title>
<g id="a_edge33"><a xlink:title="runtime.goexit &#45;&gt; runtime/pprof.profileWriter (4.54MB)">
<path fill="none" stroke="#000000" d="M757.0055,-1440.9528C783.3774,-1409.2353 838.1158,-1343.4013 868.5013,-1306.8566"/>
<polygon fill="#000000" stroke="#000000" points="871.2527,-1309.0219 874.9548,-1299.0949 865.8701,-1304.5465 871.2527,-1309.0219"/>
</a>
</g>
<g id="a_edge33&#45;label"><a xlink:title="runtime.goexit &#45;&gt; runtime/pprof.profileWriter (4.54MB)">
<text text-anchor="middle" x="888.5" y="-1320.8" font-family="Times,serif" font-size="14.00" fill="#000000"> 4.54MB</text>
</a>
</g>
</g>
<!-- N37&#45;&gt;N1 -->
<g id="edge6" class="edge">
<title>N37&#45;&gt;N1</title>
<g id="a_edge6"><a xlink:title="runtime.slicebytetostring &#45;&gt; runtime.rawstringtmp (142.26MB)">
<path fill="none" stroke="#000000" stroke-width="3" d="M920,-110.8419C920,-99.4325 920,-84.2494 920,-70.1236"/>
<polygon fill="#000000" stroke="#000000" stroke-width="3" points="923.5001,-70.0938 920,-60.0939 916.5001,-70.0939 923.5001,-70.0938"/>
</a>
</g>
<g id="a_edge6&#45;label"><a xlink:title="runtime.slicebytetostring &#45;&gt; runtime.rawstringtmp (142.26MB)">
<text text-anchor="middle" x="959.5" y="-81.8" font-family="Times,serif" font-size="14.00" fill="#000000"> 142.26MB</text>
</a>
</g>
</g>
<!-- N38&#45;&gt;N7 -->
<g id="edge38" class="edge">
<title>N38&#45;&gt;N7</title>
<g id="a_edge38"><a xlink:title="runtime/pprof.profileWriter &#45;&gt; runtime/pprof/internal/protopprof.TranslateCPUProfile (2.51MB)">
<path fill="none" stroke="#000000" d="M935.3769,-1262.9735C969.8795,-1249.267 1017.4965,-1230.3507 1054.1382,-1215.7944"/>
<polygon fill="#000000" stroke="#000000" points="1055.6799,-1218.9481 1063.6812,-1212.0034 1053.0955,-1212.4426 1055.6799,-1218.9481"/>
</a>
</g>
<g id="a_edge38&#45;label"><a xlink:title="runtime/pprof.profileWriter &#45;&gt; runtime/pprof/internal/protopprof.TranslateCPUProfile (2.51MB)">
<text text-anchor="middle" x="1042.5" y="-1233.8" font-family="Times,serif" font-size="14.00" fill="#000000"> 2.51MB</text>
</a>
</g>
</g>
<!-- N38&#45;&gt;N12 -->
<g id="edge42" class="edge">
<title>N38&#45;&gt;N12</title>
<g id="a_edge42"><a xlink:title="runtime/pprof.profileWriter &#45;&gt; bytes.(*Buffer).Write (2.03MB)">
<path fill="none" stroke="#000000" d="M891.036,-1262.9735C891.7131,-1251.1918 892.6115,-1235.5607 893.3817,-1222.1581"/>
<polygon fill="#000000" stroke="#000000" points="896.8857,-1222.1877 893.9653,-1212.0034 889.8972,-1221.786 896.8857,-1222.1877"/>
</a>
</g>
<g id="a_edge42&#45;label"><a xlink:title="runtime/pprof.profileWriter &#45;&gt; bytes.(*Buffer).Write (2.03MB)">
<text text-anchor="middle" x="922.5" y="-1233.8" font-family="Times,serif" font-size="14.00" fill="#000000"> 2.03MB</text>
</a>
</g>
</g>
<!-- N39&#45;&gt;N6 -->
<g id="edge37" class="edge">
<title>N39&#45;&gt;N6</title>
<g id="a_edge37"><a xlink:title="strings.Split &#45;&gt; strings.genSplit (2.69MB)">
<path fill="none" stroke="#000000" d="M1546,-825.3883C1546,-813.0146 1546,-796.3686 1546,-782.2632"/>
<polygon fill="#000000" stroke="#000000" points="1549.5001,-782.0847 1546,-772.0847 1542.5001,-782.0848 1549.5001,-782.0847"/>
</a>
</g>
<g id="a_edge37&#45;label"><a xlink:title="strings.Split &#45;&gt; strings.genSplit (2.69MB)">
<text text-anchor="middle" x="1576.5" y="-793.8" font-family="Times,serif" font-size="14.00" fill="#000000"> 2.69MB</text>
</a>
</g>
</g>
</g>
</g></svg>
