<?xml version="1.0" encoding="UTF-8" standalone="no"?>
<!DOCTYPE svg PUBLIC "-//W3C//DTD SVG 1.1//EN"
 "http://www.w3.org/Graphics/SVG/1.1/DTD/svg11.dtd">
<!-- Generated by graphviz version 2.40.1 (20161225.0304)
 -->
<!-- Title: searcher Pages: 1 -->
<svg width="100%" height="100%" xmlns="http://www.w3.org/2000/svg" xmlns:xlink="http://www.w3.org/1999/xlink">
<script type="text/ecmascript"><![CDATA[
/** 
 *  SVGPan library 1.2.1
 * ======================
 *
 * Given an unique existing element with id "viewport" (or when missing, the first g 
 * element), including the the library into any SVG adds the following capabilities:
 *
 *  - Mouse panning
 *  - Mouse zooming (using the wheel)
 *  - Object dragging
 *
 * You can configure the behavior of the pan/zoom/drag with the variables
 * listed in the CONFIGURATION section of this file.
 *
 * Known issues:
 *
 *  - Zooming (while panning) on Safari has still some issues
 *
 * Releases:
 *
 * 1.2.1, Mon Jul  4 00:33:18 CEST 2011, Andrea Leofreddi
 *	- Fixed a regression with mouse wheel (now working on Firefox 5)
 *	- Working with viewBox attribute (#4)
 *	- Added "use strict;" and fixed resulting warnings (#5)
 *	- Added configuration variables, dragging is disabled by default (#3)
 *
 * 1.2, Sat Mar 20 08:42:50 GMT 2010, Zeng Xiaohui
 *	Fixed a bug with browser mouse handler interaction
 *
 * 1.1, Wed Feb  3 17:39:33 GMT 2010, Zeng Xiaohui
 *	Updated the zoom code to support the mouse wheel on Safari/Chrome
 *
 * 1.0, Andrea Leofreddi
 *	First release
 *
 * This code is licensed under the following BSD license:
 *
 * Copyright 2009-2010 Andrea Leofreddi <a.leofreddi@itcharm.com>. All rights reserved.
 * 
 * Redistribution and use in source and binary forms, with or without modification, are
 * permitted provided that the following conditions are met:
 * 
 *    1. Redistributions of source code must retain the above copyright notice, this list of
 *       conditions and the following disclaimer.
 * 
 *    2. Redistributions in binary form must reproduce the above copyright notice, this list
 *       of conditions and the following disclaimer in the documentation and/or other materials
 *       provided with the distribution.
 * 
 * THIS SOFTWARE IS PROVIDED BY Andrea Leofreddi ``AS IS'' AND ANY EXPRESS OR IMPLIED
 * WARRANTIES, INCLUDING, BUT NOT LIMITED TO, THE IMPLIED WARRANTIES OF MERCHANTABILITY AND
 * FITNESS FOR A PARTICULAR PURPOSE ARE DISCLAIMED. IN NO EVENT SHALL Andrea Leofreddi OR
 * CONTRIBUTORS BE LIABLE FOR ANY DIRECT, INDIRECT, INCIDENTAL, SPECIAL, EXEMPLARY, OR
 * CONSEQUENTIAL DAMAGES (INCLUDING, BUT NOT LIMITED TO, PROCUREMENT OF SUBSTITUTE GOODS OR
 * SERVICES; LOSS OF USE, DATA, OR PROFITS; OR BUSINESS INTERRUPTION) HOWEVER CAUSED AND ON
 * ANY THEORY OF LIABILITY, WHETHER IN CONTRACT, STRICT LIABILITY, OR TORT (INCLUDING
 * NEGLIGENCE OR OTHERWISE) ARISING IN ANY WAY OUT OF THE USE OF THIS SOFTWARE, EVEN IF
 * ADVISED OF THE POSSIBILITY OF SUCH DAMAGE.
 * 
 * The views and conclusions contained in the software and documentation are those of the
 * authors and should not be interpreted as representing official policies, either expressed
 * or implied, of Andrea Leofreddi.
 */

"use strict";

/// CONFIGURATION 
/// ====>

var enablePan = 1; // 1 or 0: enable or disable panning (default enabled)
var enableZoom = 1; // 1 or 0: enable or disable zooming (default enabled)
var enableDrag = 0; // 1 or 0: enable or disable dragging (default disabled)

/// <====
/// END OF CONFIGURATION 

var root = document.documentElement;

var state = 'none', svgRoot, stateTarget, stateOrigin, stateTf;

setupHandlers(root);

/**
 * Register handlers
 */
function setupHandlers(root){
	setAttributes(root, {
		"onmouseup" : "handleMouseUp(evt)",
		"onmousedown" : "handleMouseDown(evt)",
		"onmousemove" : "handleMouseMove(evt)",
		//"onmouseout" : "handleMouseUp(evt)", // Decomment this to stop the pan functionality when dragging out of the SVG element
	});

	if(navigator.userAgent.toLowerCase().indexOf('webkit') >= 0)
		window.addEventListener('mousewheel', handleMouseWheel, false); // Chrome/Safari
	else
		window.addEventListener('DOMMouseScroll', handleMouseWheel, false); // Others
}

/**
 * Retrieves the root element for SVG manipulation. The element is then cached into the svgRoot global variable.
 */
function getRoot(root) {
	if(typeof(svgRoot) == "undefined") {
		var g = null;

		g = root.getElementById("viewport");

		if(g == null)
			g = root.getElementsByTagName('g')[0];

		if(g == null)
			alert('Unable to obtain SVG root element');

		setCTM(g, g.getCTM());

		g.removeAttribute("viewBox");

		svgRoot = g;
	}

	return svgRoot;
}

/**
 * Instance an SVGPoint object with given event coordinates.
 */
function getEventPoint(evt) {
	var p = root.createSVGPoint();

	p.x = evt.clientX;
	p.y = evt.clientY;

	return p;
}

/**
 * Sets the current transform matrix of an element.
 */
function setCTM(element, matrix) {
	var s = "matrix(" + matrix.a + "," + matrix.b + "," + matrix.c + "," + matrix.d + "," + matrix.e + "," + matrix.f + ")";

	element.setAttribute("transform", s);
}

/**
 * Dumps a matrix to a string (useful for debug).
 */
function dumpMatrix(matrix) {
	var s = "[ " + matrix.a + ", " + matrix.c + ", " + matrix.e + "\n  " + matrix.b + ", " + matrix.d + ", " + matrix.f + "\n  0, 0, 1 ]";

	return s;
}

/**
 * Sets attributes of an element.
 */
function setAttributes(element, attributes){
	for (var i in attributes)
		element.setAttributeNS(null, i, attributes[i]);
}

/**
 * Handle mouse wheel event.
 */
function handleMouseWheel(evt) {
	if(!enableZoom)
		return;

	if(evt.preventDefault)
		evt.preventDefault();

	evt.returnValue = false;

	var svgDoc = evt.target.ownerDocument;

	var delta;

	if(evt.wheelDelta)
		delta = evt.wheelDelta / 3600; // Chrome/Safari
	else
		delta = evt.detail / -90; // Mozilla

	var z = 1 + delta; // Zoom factor: 0.9/1.1

	var g = getRoot(svgDoc);
	
	var p = getEventPoint(evt);

	p = p.matrixTransform(g.getCTM().inverse());

	// Compute new scale matrix in current mouse position
	var k = root.createSVGMatrix().translate(p.x, p.y).scale(z).translate(-p.x, -p.y);

        setCTM(g, g.getCTM().multiply(k));

	if(typeof(stateTf) == "undefined")
		stateTf = g.getCTM().inverse();

	stateTf = stateTf.multiply(k.inverse());
}

/**
 * Handle mouse move event.
 */
function handleMouseMove(evt) {
	if(evt.preventDefault)
		evt.preventDefault();

	evt.returnValue = false;

	var svgDoc = evt.target.ownerDocument;

	var g = getRoot(svgDoc);

	if(state == 'pan' && enablePan) {
		// Pan mode
		var p = getEventPoint(evt).matrixTransform(stateTf);

		setCTM(g, stateTf.inverse().translate(p.x - stateOrigin.x, p.y - stateOrigin.y));
	} else if(state == 'drag' && enableDrag) {
		// Drag mode
		var p = getEventPoint(evt).matrixTransform(g.getCTM().inverse());

		setCTM(stateTarget, root.createSVGMatrix().translate(p.x - stateOrigin.x, p.y - stateOrigin.y).multiply(g.getCTM().inverse()).multiply(stateTarget.getCTM()));

		stateOrigin = p;
	}
}

/**
 * Handle click event.
 */
function handleMouseDown(evt) {
	if(evt.preventDefault)
		evt.preventDefault();

	evt.returnValue = false;

	var svgDoc = evt.target.ownerDocument;

	var g = getRoot(svgDoc);

	if(
		evt.target.tagName == "svg" 
		|| !enableDrag // Pan anyway when drag is disabled and the user clicked on an element 
	) {
		// Pan mode
		state = 'pan';

		stateTf = g.getCTM().inverse();

		stateOrigin = getEventPoint(evt).matrixTransform(stateTf);
	} else {
		// Drag mode
		state = 'drag';

		stateTarget = evt.target;

		stateTf = g.getCTM().inverse();

		stateOrigin = getEventPoint(evt).matrixTransform(stateTf);
	}
}

/**
 * Handle mouse button release event.
 */
function handleMouseUp(evt) {
	if(evt.preventDefault)
		evt.preventDefault();

	evt.returnValue = false;

	var svgDoc = evt.target.ownerDocument;

	if(state == 'pan' || state == 'drag') {
		// Quit pan mode
		state = '';
	}
}

]]></script><g id="viewport" transform="scale(0.5,0.5) translate(0,0)"><g id="graph0" class="graph" transform="scale(1 1) rotate(0) translate(4 1107)">
<title>searcher</title>
<polygon fill="#ffffff" stroke="transparent" points="-4,4 -4,-1107 1021,-1107 1021,4 -4,4"/>
<g id="clust1" class="cluster">
<title>cluster_L</title>
<polygon fill="none" stroke="#000000" points="8,-896 8,-1095 678,-1095 678,-896 8,-896"/>
</g>
<!-- L -->
<g id="node1" class="node">
<title>L</title>
<polygon fill="#f8f8f8" stroke="#000000" points="669.5,-1087 16.5,-1087 16.5,-904 669.5,-904 669.5,-1087"/>
<text text-anchor="start" x="24.5" y="-1057.4" font-family="Times,serif" font-size="32.00" fill="#000000">File: searcher</text>
<text text-anchor="start" x="24.5" y="-1022.4" font-family="Times,serif" font-size="32.00" fill="#000000">Type: inuse_space</text>
<text text-anchor="start" x="24.5" y="-987.4" font-family="Times,serif" font-size="32.00" fill="#000000">Time: May 20, 2017 at 12:05am (MSK)</text>
<text text-anchor="start" x="24.5" y="-952.4" font-family="Times,serif" font-size="32.00" fill="#000000">154.69MB of 155.21MB total (99.67%)</text>
<text text-anchor="start" x="24.5" y="-917.4" font-family="Times,serif" font-size="32.00" fill="#000000">Dropped 32 nodes (cum &lt;= 0.78MB)</text>
</g>
<!-- N1 -->
<g id="node2" class="node">
<title>N1</title>
<g id="a_node2"><a xlink:title="runtime.rawstringtmp (118.48MB)">
<polygon fill="#f8f8f8" stroke="#000000" points="884.5,-60 599.5,-60 599.5,0 884.5,0 884.5,-60"/>
<text text-anchor="middle" x="742" y="-36.8" font-family="Times,serif" font-size="24.00" fill="#000000">runtime.rawstringtmp</text>
<text text-anchor="middle" x="742" y="-10.8" font-family="Times,serif" font-size="24.00" fill="#000000">118.48MB(76.34%)</text>
</a>
</g>
</g>
<!-- N2 -->
<g id="node3" class="node">
<title>N2</title>
<g id="a_node3"><a xlink:title="bytes.makeSlice (31.99MB)">
<polygon fill="#f8f8f8" stroke="#000000" points="297,-157 119,-157 119,-111 297,-111 297,-157"/>
<text text-anchor="middle" x="208" y="-139.4" font-family="Times,serif" font-size="17.00" fill="#000000">bytes.makeSlice</text>
<text text-anchor="middle" x="208" y="-120.4" font-family="Times,serif" font-size="17.00" fill="#000000">31.99MB(20.61%)</text>
</a>
</g>
</g>
<!-- N3 -->
<g id="node4" class="node">
<title>N3</title>
<g id="a_node4"><a xlink:title="runtime.stringtoslicebyte (2MB)">
<polygon fill="#f8f8f8" stroke="#000000" points="291.5,-418 128.5,-418 128.5,-382 291.5,-382 291.5,-418"/>
<text text-anchor="middle" x="210" y="-403.2" font-family="Times,serif" font-size="11.00" fill="#000000">runtime.stringtoslicebyte</text>
<text text-anchor="middle" x="210" y="-391.2" font-family="Times,serif" font-size="11.00" fill="#000000">2MB(1.29%)</text>
</a>
</g>
</g>
<!-- N4 -->
<g id="node5" class="node">
<title>N4</title>
<g id="a_node5"><a xlink:title="strings.genSplit (1.34MB)">
<polygon fill="#f8f8f8" stroke="#000000" points="924,-331 830,-331 830,-295 924,-295 924,-331"/>
<text text-anchor="middle" x="877" y="-316" font-family="Times,serif" font-size="10.00" fill="#000000">strings.genSplit</text>
<text text-anchor="middle" x="877" y="-305" font-family="Times,serif" font-size="10.00" fill="#000000">1.34MB(0.87%)</text>
</a>
</g>
</g>
<!-- N5 -->
<g id="node6" class="node">
<title>N5</title>
<g id="a_node6"><a xlink:title="compress/flate.NewWriter (0.88MB)">
<polygon fill="#f8f8f8" stroke="#000000" points="1003,-592 857,-592 857,-556 1003,-556 1003,-592"/>
<text text-anchor="middle" x="930" y="-577" font-family="Times,serif" font-size="10.00" fill="#000000">compress/flate.NewWriter</text>
<text text-anchor="middle" x="930" y="-566" font-family="Times,serif" font-size="10.00" fill="#000000">0.88MB(0.57%)</text>
</a>
</g>
</g>
<!-- N6 -->
<g id="node7" class="node">
<title>N6</title>
<g id="a_node7"><a xlink:title="bytes.(*Buffer).ReadFrom (31.99MB)">
<polygon fill="#f8f8f8" stroke="#000000" points="271,-244 145,-244 145,-208 271,-208 271,-244"/>
<text text-anchor="middle" x="208" y="-228.6" font-family="Times,serif" font-size="8.00" fill="#000000">bytes.(*Buffer).ReadFrom</text>
<text text-anchor="middle" x="208" y="-219.6" font-family="Times,serif" font-size="8.00" fill="#000000">0 of 31.99MB(20.61%)</text>
</a>
</g>
</g>
<!-- N6&#45;&gt;N2 -->
<g id="edge8" class="edge">
<title>N6&#45;&gt;N2</title>
<g id="a_edge8"><a xlink:title="bytes.(*Buffer).ReadFrom &#45;&gt; bytes.makeSlice (31.99MB)">
<path fill="none" stroke="#000000" stroke-width="2" d="M208,-207.8238C208,-196.223 208,-180.8404 208,-167.1205"/>
<polygon fill="#000000" stroke="#000000" stroke-width="2" points="211.5001,-167.043 208,-157.043 204.5001,-167.043 211.5001,-167.043"/>
</a>
</g>
<g id="a_edge8&#45;label"><a xlink:title="bytes.(*Buffer).ReadFrom &#45;&gt; bytes.makeSlice (31.99MB)">
<text text-anchor="middle" x="243" y="-178.8" font-family="Times,serif" font-size="14.00" fill="#000000"> 31.99MB</text>
</a>
</g>
</g>
<!-- N7 -->
<g id="node8" class="node">
<title>N7</title>
<g id="a_node8"><a xlink:title="compress/gzip.(*Writer).Write (0.88MB)">
<polygon fill="#f8f8f8" stroke="#000000" points="1002.5,-679 857.5,-679 857.5,-643 1002.5,-643 1002.5,-679"/>
<text text-anchor="middle" x="930" y="-663.6" font-family="Times,serif" font-size="8.00" fill="#000000">compress/gzip.(*Writer).Write</text>
<text text-anchor="middle" x="930" y="-654.6" font-family="Times,serif" font-size="8.00" fill="#000000">0 of 0.88MB(0.57%)</text>
</a>
</g>
</g>
<!-- N7&#45;&gt;N5 -->
<g id="edge22" class="edge">
<title>N7&#45;&gt;N5</title>
<g id="a_edge22"><a xlink:title="compress/gzip.(*Writer).Write &#45;&gt; compress/flate.NewWriter (0.88MB)">
<path fill="none" stroke="#000000" d="M930,-642.9735C930,-631.1918 930,-615.5607 930,-602.1581"/>
<polygon fill="#000000" stroke="#000000" points="933.5001,-602.0033 930,-592.0034 926.5001,-602.0034 933.5001,-602.0033"/>
</a>
</g>
<g id="a_edge22&#45;label"><a xlink:title="compress/gzip.(*Writer).Write &#45;&gt; compress/flate.NewWriter (0.88MB)">
<text text-anchor="middle" x="960.5" y="-613.8" font-family="Times,serif" font-size="14.00" fill="#000000"> 0.88MB</text>
</a>
</g>
</g>
<!-- N8 -->
<g id="node9" class="node">
<title>N8</title>
<g id="a_node9"><a xlink:title="github.com/mailru/easyjson/jlexer.(*Lexer).String (1.50MB)">
<polygon fill="#f8f8f8" stroke="#000000" points="693.5,-244 466.5,-244 466.5,-208 693.5,-208 693.5,-244"/>
<text text-anchor="middle" x="580" y="-228.6" font-family="Times,serif" font-size="8.00" fill="#000000">github.com/mailru/easyjson/jlexer.(*Lexer).String</text>
<text text-anchor="middle" x="580" y="-219.6" font-family="Times,serif" font-size="8.00" fill="#000000">0 of 1.50MB(0.97%)</text>
</a>
</g>
</g>
<!-- N22 -->
<g id="node23" class="node">
<title>N22</title>
<g id="a_node23"><a xlink:title="runtime.slicebytetostring (98.54MB)">
<polygon fill="#f8f8f8" stroke="#000000" points="804,-152 680,-152 680,-116 804,-116 804,-152"/>
<text text-anchor="middle" x="742" y="-136.6" font-family="Times,serif" font-size="8.00" fill="#000000">runtime.slicebytetostring</text>
<text text-anchor="middle" x="742" y="-127.6" font-family="Times,serif" font-size="8.00" fill="#000000">0 of 98.54MB(63.49%)</text>
</a>
</g>
</g>
<!-- N8&#45;&gt;N22 -->
<g id="edge16" class="edge">
<title>N8&#45;&gt;N22</title>
<g id="a_edge16"><a xlink:title="github.com/mailru/easyjson/jlexer.(*Lexer).String &#45;&gt; runtime.slicebytetostring (1.50MB)">
<path fill="none" stroke="#000000" d="M610.4705,-207.8376C627.1064,-197.9975 648.1086,-185.6976 667,-175 677.3868,-169.1183 688.6508,-162.8849 699.2155,-157.1016"/>
<polygon fill="#000000" stroke="#000000" points="701.1783,-160.0178 708.2798,-152.1553 697.8252,-153.8731 701.1783,-160.0178"/>
</a>
</g>
<g id="a_edge16&#45;label"><a xlink:title="github.com/mailru/easyjson/jlexer.(*Lexer).String &#45;&gt; runtime.slicebytetostring (1.50MB)">
<text text-anchor="middle" x="697.5" y="-178.8" font-family="Times,serif" font-size="14.00" fill="#000000"> 1.50MB</text>
</a>
</g>
</g>
<!-- N9 -->
<g id="node10" class="node">
<title>N9</title>
<g id="a_node10"><a xlink:title="internal/pprof/profile.(*Profile).Write (0.88MB)">
<polygon fill="#f8f8f8" stroke="#000000" points="1017,-766 843,-766 843,-730 1017,-730 1017,-766"/>
<text text-anchor="middle" x="930" y="-750.6" font-family="Times,serif" font-size="8.00" fill="#000000">internal/pprof/profile.(*Profile).Write</text>
<text text-anchor="middle" x="930" y="-741.6" font-family="Times,serif" font-size="8.00" fill="#000000">0 of 0.88MB(0.57%)</text>
</a>
</g>
</g>
<!-- N9&#45;&gt;N7 -->
<g id="edge23" class="edge">
<title>N9&#45;&gt;N7</title>
<g id="a_edge23"><a xlink:title="internal/pprof/profile.(*Profile).Write &#45;&gt; compress/gzip.(*Writer).Write (0.88MB)">
<path fill="none" stroke="#000000" d="M930,-729.9735C930,-718.1918 930,-702.5607 930,-689.1581"/>
<polygon fill="#000000" stroke="#000000" points="933.5001,-689.0033 930,-679.0034 926.5001,-689.0034 933.5001,-689.0033"/>
</a>
</g>
<g id="a_edge23&#45;label"><a xlink:title="internal/pprof/profile.(*Profile).Write &#45;&gt; compress/gzip.(*Writer).Write (0.88MB)">
<text text-anchor="middle" x="960.5" y="-700.8" font-family="Times,serif" font-size="14.00" fill="#000000"> 0.88MB</text>
</a>
</g>
</g>
<!-- N10 -->
<g id="node11" class="node">
<title>N10</title>
<g id="a_node11"><a xlink:title="io/ioutil.ReadAll (31.99MB)">
<polygon fill="#f8f8f8" stroke="#000000" points="422,-418 310,-418 310,-382 422,-382 422,-418"/>
<text text-anchor="middle" x="366" y="-402.6" font-family="Times,serif" font-size="8.00" fill="#000000">io/ioutil.ReadAll</text>
<text text-anchor="middle" x="366" y="-393.6" font-family="Times,serif" font-size="8.00" fill="#000000">0 of 31.99MB(20.61%)</text>
</a>
</g>
</g>
<!-- N11 -->
<g id="node12" class="node">
<title>N11</title>
<g id="a_node12"><a xlink:title="io/ioutil.readAll (31.99MB)">
<polygon fill="#f8f8f8" stroke="#000000" points="264,-331 152,-331 152,-295 264,-295 264,-331"/>
<text text-anchor="middle" x="208" y="-315.6" font-family="Times,serif" font-size="8.00" fill="#000000">io/ioutil.readAll</text>
<text text-anchor="middle" x="208" y="-306.6" font-family="Times,serif" font-size="8.00" fill="#000000">0 of 31.99MB(20.61%)</text>
</a>
</g>
</g>
<!-- N10&#45;&gt;N11 -->
<g id="edge9" class="edge">
<title>N10&#45;&gt;N11</title>
<g id="a_edge9"><a xlink:title="io/ioutil.ReadAll &#45;&gt; io/ioutil.readAll (31.99MB)">
<path fill="none" stroke="#000000" stroke-width="2" d="M333.2623,-381.9735C309.0056,-368.617 275.7643,-350.3133 249.6207,-335.9177"/>
<polygon fill="#000000" stroke="#000000" stroke-width="2" points="251.1438,-332.7609 240.6958,-331.0034 247.7674,-338.8928 251.1438,-332.7609"/>
</a>
</g>
<g id="a_edge9&#45;label"><a xlink:title="io/ioutil.ReadAll &#45;&gt; io/ioutil.readAll (31.99MB)">
<text text-anchor="middle" x="332" y="-352.8" font-family="Times,serif" font-size="14.00" fill="#000000"> 31.99MB</text>
</a>
</g>
</g>
<!-- N11&#45;&gt;N6 -->
<g id="edge10" class="edge">
<title>N11&#45;&gt;N6</title>
<g id="a_edge10"><a xlink:title="io/ioutil.readAll &#45;&gt; bytes.(*Buffer).ReadFrom (31.99MB)">
<path fill="none" stroke="#000000" stroke-width="2" d="M208,-294.9735C208,-283.1918 208,-267.5607 208,-254.1581"/>
<polygon fill="#000000" stroke="#000000" stroke-width="2" points="211.5001,-254.0033 208,-244.0034 204.5001,-254.0034 211.5001,-254.0033"/>
</a>
</g>
<g id="a_edge10&#45;label"><a xlink:title="io/ioutil.readAll &#45;&gt; bytes.(*Buffer).ReadFrom (31.99MB)">
<text text-anchor="middle" x="243" y="-265.8" font-family="Times,serif" font-size="14.00" fill="#000000"> 31.99MB</text>
</a>
</g>
</g>
<!-- N12 -->
<g id="node13" class="node">
<title>N12</title>
<g id="a_node13"><a xlink:title="main.(*User).UnmarshalJSON (1.50MB)">
<polygon fill="#f8f8f8" stroke="#000000" points="714,-418 570,-418 570,-382 714,-382 714,-418"/>
<text text-anchor="middle" x="642" y="-402.6" font-family="Times,serif" font-size="8.00" fill="#000000">main.(*User).UnmarshalJSON</text>
<text text-anchor="middle" x="642" y="-393.6" font-family="Times,serif" font-size="8.00" fill="#000000">0 of 1.50MB(0.97%)</text>
</a>
</g>
</g>
<!-- N13 -->
<g id="node14" class="node">
<title>N13</title>
<g id="a_node14"><a xlink:title="main.easyjson6a975c40DecodeMsuGo11899HomeworkSearcher (1.50MB)">
<polygon fill="#f8f8f8" stroke="#000000" points="705.5,-331 412.5,-331 412.5,-295 705.5,-295 705.5,-331"/>
<text text-anchor="middle" x="559" y="-315.6" font-family="Times,serif" font-size="8.00" fill="#000000">main.easyjson6a975c40DecodeMsuGo11899HomeworkSearcher</text>
<text text-anchor="middle" x="559" y="-306.6" font-family="Times,serif" font-size="8.00" fill="#000000">0 of 1.50MB(0.97%)</text>
</a>
</g>
</g>
<!-- N12&#45;&gt;N13 -->
<g id="edge17" class="edge">
<title>N12&#45;&gt;N13</title>
<g id="a_edge17"><a xlink:title="main.(*User).UnmarshalJSON &#45;&gt; main.easyjson6a975c40DecodeMsuGo11899HomeworkSearcher (1.50MB)">
<path fill="none" stroke="#000000" d="M624.8023,-381.9735C612.7833,-369.3752 596.5651,-352.3755 583.2375,-338.4055"/>
<polygon fill="#000000" stroke="#000000" points="585.6108,-335.8228 576.1756,-331.0034 580.546,-340.6548 585.6108,-335.8228"/>
</a>
</g>
<g id="a_edge17&#45;label"><a xlink:title="main.(*User).UnmarshalJSON &#45;&gt; main.easyjson6a975c40DecodeMsuGo11899HomeworkSearcher (1.50MB)">
<text text-anchor="middle" x="636.5" y="-352.8" font-family="Times,serif" font-size="14.00" fill="#000000"> 1.50MB</text>
</a>
</g>
</g>
<!-- N13&#45;&gt;N8 -->
<g id="edge18" class="edge">
<title>N13&#45;&gt;N8</title>
<g id="a_edge18"><a xlink:title="main.easyjson6a975c40DecodeMsuGo11899HomeworkSearcher &#45;&gt; github.com/mailru/easyjson/jlexer.(*Lexer).String (1.50MB)">
<path fill="none" stroke="#000000" d="M563.3512,-294.9735C566.2232,-283.0751 570.0429,-267.2508 573.2992,-253.7606"/>
<polygon fill="#000000" stroke="#000000" points="576.7102,-254.5455 575.6544,-244.0034 569.9056,-252.9029 576.7102,-254.5455"/>
</a>
</g>
<g id="a_edge18&#45;label"><a xlink:title="main.easyjson6a975c40DecodeMsuGo11899HomeworkSearcher &#45;&gt; github.com/mailru/easyjson/jlexer.(*Lexer).String (1.50MB)">
<text text-anchor="middle" x="601.5" y="-265.8" font-family="Times,serif" font-size="14.00" fill="#000000"> 1.50MB</text>
</a>
</g>
</g>
<!-- N14 -->
<g id="node15" class="node">
<title>N14</title>
<g id="a_node15"><a xlink:title="main.main.func1 (154.33MB)">
<polygon fill="#f8f8f8" stroke="#000000" points="800.5,-505 683.5,-505 683.5,-469 800.5,-469 800.5,-505"/>
<text text-anchor="middle" x="742" y="-489.6" font-family="Times,serif" font-size="8.00" fill="#000000">main.main.func1</text>
<text text-anchor="middle" x="742" y="-480.6" font-family="Times,serif" font-size="8.00" fill="#000000">0 of 154.33MB(99.43%)</text>
</a>
</g>
</g>
<!-- N14&#45;&gt;N3 -->
<g id="edge15" class="edge">
<title>N14&#45;&gt;N3</title>
<g id="a_edge15"><a xlink:title="main.main.func1 &#45;&gt; runtime.stringtoslicebyte (2MB)">
<path fill="none" stroke="#000000" d="M683.4615,-483.7466C614.6748,-479.2624 497.3151,-469.5433 398,-451 357.2813,-443.3973 312.4899,-431.3949 276.8444,-420.9432"/>
<polygon fill="#000000" stroke="#000000" points="277.6262,-417.5246 267.044,-418.0414 275.6388,-424.2365 277.6262,-417.5246"/>
</a>
</g>
<g id="a_edge15&#45;label"><a xlink:title="main.main.func1 &#45;&gt; runtime.stringtoslicebyte (2MB)">
<text text-anchor="middle" x="417.5" y="-439.8" font-family="Times,serif" font-size="14.00" fill="#000000"> 2MB</text>
</a>
</g>
</g>
<!-- N14&#45;&gt;N10 -->
<g id="edge11" class="edge">
<title>N14&#45;&gt;N10</title>
<g id="a_edge11"><a xlink:title="main.main.func1 &#45;&gt; io/ioutil.ReadAll (31.99MB)">
<path fill="none" stroke="#000000" stroke-width="2" d="M683.2864,-483.8093C629.3192,-479.7447 547.5399,-470.7087 479,-451 454.7836,-444.0365 429.0842,-432.7764 408.3226,-422.6056"/>
<polygon fill="#000000" stroke="#000000" stroke-width="2" points="409.6644,-419.3636 399.154,-418.0285 406.5378,-425.6266 409.6644,-419.3636"/>
</a>
</g>
<g id="a_edge11&#45;label"><a xlink:title="main.main.func1 &#45;&gt; io/ioutil.ReadAll (31.99MB)">
<text text-anchor="middle" x="514" y="-439.8" font-family="Times,serif" font-size="14.00" fill="#000000"> 31.99MB</text>
</a>
</g>
</g>
<!-- N14&#45;&gt;N12 -->
<g id="edge19" class="edge">
<title>N14&#45;&gt;N12</title>
<g id="a_edge19"><a xlink:title="main.main.func1 &#45;&gt; main.(*User).UnmarshalJSON (1.50MB)">
<path fill="none" stroke="#000000" d="M692.1245,-468.8778C683.0388,-464.0371 674.1784,-458.1194 667,-451 660.4581,-444.5119 655.3613,-435.9659 651.5261,-427.7285"/>
<polygon fill="#000000" stroke="#000000" points="654.6856,-426.2122 647.5924,-418.3421 648.2296,-428.9178 654.6856,-426.2122"/>
</a>
</g>
<g id="a_edge19&#45;label"><a xlink:title="main.main.func1 &#45;&gt; main.(*User).UnmarshalJSON (1.50MB)">
<text text-anchor="middle" x="697.5" y="-439.8" font-family="Times,serif" font-size="14.00" fill="#000000"> 1.50MB</text>
</a>
</g>
</g>
<!-- N19 -->
<g id="node20" class="node">
<title>N19</title>
<g id="a_node20"><a xlink:title="runtime.concatstring2 (19.94MB)">
<polygon fill="#f8f8f8" stroke="#000000" points="552,-418 440,-418 440,-382 552,-382 552,-418"/>
<text text-anchor="middle" x="496" y="-402.6" font-family="Times,serif" font-size="8.00" fill="#000000">runtime.concatstring2</text>
<text text-anchor="middle" x="496" y="-393.6" font-family="Times,serif" font-size="8.00" fill="#000000">0 of 19.94MB(12.85%)</text>
</a>
</g>
</g>
<!-- N14&#45;&gt;N19 -->
<g id="edge12" class="edge">
<title>N14&#45;&gt;N19</title>
<g id="a_edge12"><a xlink:title="main.main.func1 &#45;&gt; runtime.concatstring2 (19.94MB)">
<path fill="none" stroke="#000000" d="M683.2902,-478.3501C652.4415,-472.6786 614.4124,-463.8819 582,-451 564.0654,-443.8721 545.4879,-433.3162 530.2087,-423.6542"/>
<polygon fill="#000000" stroke="#000000" points="531.921,-420.5935 521.6234,-418.1014 528.1193,-426.4712 531.921,-420.5935"/>
</a>
</g>
<g id="a_edge12&#45;label"><a xlink:title="main.main.func1 &#45;&gt; runtime.concatstring2 (19.94MB)">
<text text-anchor="middle" x="617" y="-439.8" font-family="Times,serif" font-size="14.00" fill="#000000"> 19.94MB</text>
</a>
</g>
</g>
<!-- N14&#45;&gt;N22 -->
<g id="edge7" class="edge">
<title>N14&#45;&gt;N22</title>
<g id="a_edge7"><a xlink:title="main.main.func1 &#45;&gt; runtime.slicebytetostring (97.04MB)">
<path fill="none" stroke="#000000" stroke-width="4" d="M742,-468.6694C742,-451.0629 742,-423.7135 742,-400 742,-400 742,-400 742,-226 742,-204.737 742,-180.7097 742,-162.543"/>
<polygon fill="#000000" stroke="#000000" stroke-width="4" points="745.5001,-162.3281 742,-152.3281 738.5001,-162.3282 745.5001,-162.3281"/>
</a>
</g>
<g id="a_edge7&#45;label"><a xlink:title="main.main.func1 &#45;&gt; runtime.slicebytetostring (97.04MB)">
<text text-anchor="middle" x="777" y="-309.3" font-family="Times,serif" font-size="14.00" fill="#000000"> 97.04MB</text>
</a>
</g>
</g>
<!-- N24 -->
<g id="node25" class="node">
<title>N24</title>
<g id="a_node25"><a xlink:title="strings.Split (1.34MB)">
<polygon fill="#f8f8f8" stroke="#000000" points="902.5,-418 801.5,-418 801.5,-382 902.5,-382 902.5,-418"/>
<text text-anchor="middle" x="852" y="-402.6" font-family="Times,serif" font-size="8.00" fill="#000000">strings.Split</text>
<text text-anchor="middle" x="852" y="-393.6" font-family="Times,serif" font-size="8.00" fill="#000000">0 of 1.34MB(0.87%)</text>
</a>
</g>
</g>
<!-- N14&#45;&gt;N24 -->
<g id="edge20" class="edge">
<title>N14&#45;&gt;N24</title>
<g id="a_edge20"><a xlink:title="main.main.func1 &#45;&gt; strings.Split (1.34MB)">
<path fill="none" stroke="#000000" d="M764.7921,-468.9735C781.1635,-456.0253 803.4133,-438.4276 821.3409,-424.2485"/>
<polygon fill="#000000" stroke="#000000" points="823.565,-426.952 829.2371,-418.0034 819.2226,-421.4616 823.565,-426.952"/>
</a>
</g>
<g id="a_edge20&#45;label"><a xlink:title="main.main.func1 &#45;&gt; strings.Split (1.34MB)">
<text text-anchor="middle" x="834.5" y="-439.8" font-family="Times,serif" font-size="14.00" fill="#000000"> 1.34MB</text>
</a>
</g>
</g>
<!-- N15 -->
<g id="node16" class="node">
<title>N15</title>
<g id="a_node16"><a xlink:title="net/http.(*ServeMux).ServeHTTP (154.33MB)">
<polygon fill="#f8f8f8" stroke="#000000" points="820.5,-679 663.5,-679 663.5,-643 820.5,-643 820.5,-679"/>
<text text-anchor="middle" x="742" y="-663.6" font-family="Times,serif" font-size="8.00" fill="#000000">net/http.(*ServeMux).ServeHTTP</text>
<text text-anchor="middle" x="742" y="-654.6" font-family="Times,serif" font-size="8.00" fill="#000000">0 of 154.33MB(99.43%)</text>
</a>
</g>
</g>
<!-- N17 -->
<g id="node18" class="node">
<title>N17</title>
<g id="a_node18"><a xlink:title="net/http.HandlerFunc.ServeHTTP (154.33MB)">
<polygon fill="#f8f8f8" stroke="#000000" points="822,-592 662,-592 662,-556 822,-556 822,-592"/>
<text text-anchor="middle" x="742" y="-576.6" font-family="Times,serif" font-size="8.00" fill="#000000">net/http.HandlerFunc.ServeHTTP</text>
<text text-anchor="middle" x="742" y="-567.6" font-family="Times,serif" font-size="8.00" fill="#000000">0 of 154.33MB(99.43%)</text>
</a>
</g>
</g>
<!-- N15&#45;&gt;N17 -->
<g id="edge1" class="edge">
<title>N15&#45;&gt;N17</title>
<g id="a_edge1"><a xlink:title="net/http.(*ServeMux).ServeHTTP &#45;&gt; net/http.HandlerFunc.ServeHTTP (154.33MB)">
<path fill="none" stroke="#000000" stroke-width="5" d="M742,-642.9735C742,-631.1918 742,-615.5607 742,-602.1581"/>
<polygon fill="#000000" stroke="#000000" stroke-width="5" points="746.3751,-602.0033 742,-592.0034 737.6251,-602.0034 746.3751,-602.0033"/>
</a>
</g>
<g id="a_edge1&#45;label"><a xlink:title="net/http.(*ServeMux).ServeHTTP &#45;&gt; net/http.HandlerFunc.ServeHTTP (154.33MB)">
<text text-anchor="middle" x="781.5" y="-613.8" font-family="Times,serif" font-size="14.00" fill="#000000"> 154.33MB</text>
</a>
</g>
</g>
<!-- N16 -->
<g id="node17" class="node">
<title>N16</title>
<g id="a_node17"><a xlink:title="net/http.(*conn).serve (154.33MB)">
<polygon fill="#f8f8f8" stroke="#000000" points="800.5,-853 683.5,-853 683.5,-817 800.5,-817 800.5,-853"/>
<text text-anchor="middle" x="742" y="-837.6" font-family="Times,serif" font-size="8.00" fill="#000000">net/http.(*conn).serve</text>
<text text-anchor="middle" x="742" y="-828.6" font-family="Times,serif" font-size="8.00" fill="#000000">0 of 154.33MB(99.43%)</text>
</a>
</g>
</g>
<!-- N18 -->
<g id="node19" class="node">
<title>N18</title>
<g id="a_node19"><a xlink:title="net/http.serverHandler.ServeHTTP (154.33MB)">
<polygon fill="#f8f8f8" stroke="#000000" points="824.5,-766 659.5,-766 659.5,-730 824.5,-730 824.5,-766"/>
<text text-anchor="middle" x="742" y="-750.6" font-family="Times,serif" font-size="8.00" fill="#000000">net/http.serverHandler.ServeHTTP</text>
<text text-anchor="middle" x="742" y="-741.6" font-family="Times,serif" font-size="8.00" fill="#000000">0 of 154.33MB(99.43%)</text>
</a>
</g>
</g>
<!-- N16&#45;&gt;N18 -->
<g id="edge2" class="edge">
<title>N16&#45;&gt;N18</title>
<g id="a_edge2"><a xlink:title="net/http.(*conn).serve &#45;&gt; net/http.serverHandler.ServeHTTP (154.33MB)">
<path fill="none" stroke="#000000" stroke-width="5" d="M742,-816.9735C742,-805.1918 742,-789.5607 742,-776.1581"/>
<polygon fill="#000000" stroke="#000000" stroke-width="5" points="746.3751,-776.0033 742,-766.0034 737.6251,-776.0034 746.3751,-776.0033"/>
</a>
</g>
<g id="a_edge2&#45;label"><a xlink:title="net/http.(*conn).serve &#45;&gt; net/http.serverHandler.ServeHTTP (154.33MB)">
<text text-anchor="middle" x="781.5" y="-787.8" font-family="Times,serif" font-size="14.00" fill="#000000"> 154.33MB</text>
</a>
</g>
</g>
<!-- N17&#45;&gt;N14 -->
<g id="edge3" class="edge">
<title>N17&#45;&gt;N14</title>
<g id="a_edge3"><a xlink:title="net/http.HandlerFunc.ServeHTTP &#45;&gt; main.main.func1 (154.33MB)">
<path fill="none" stroke="#000000" stroke-width="5" d="M742,-555.9735C742,-544.1918 742,-528.5607 742,-515.1581"/>
<polygon fill="#000000" stroke="#000000" stroke-width="5" points="746.3751,-515.0033 742,-505.0034 737.6251,-515.0034 746.3751,-515.0033"/>
</a>
</g>
<g id="a_edge3&#45;label"><a xlink:title="net/http.HandlerFunc.ServeHTTP &#45;&gt; main.main.func1 (154.33MB)">
<text text-anchor="middle" x="781.5" y="-526.8" font-family="Times,serif" font-size="14.00" fill="#000000"> 154.33MB</text>
</a>
</g>
</g>
<!-- N18&#45;&gt;N15 -->
<g id="edge4" class="edge">
<title>N18&#45;&gt;N15</title>
<g id="a_edge4"><a xlink:title="net/http.serverHandler.ServeHTTP &#45;&gt; net/http.(*ServeMux).ServeHTTP (154.33MB)">
<path fill="none" stroke="#000000" stroke-width="5" d="M742,-729.9735C742,-718.1918 742,-702.5607 742,-689.1581"/>
<polygon fill="#000000" stroke="#000000" stroke-width="5" points="746.3751,-689.0033 742,-679.0034 737.6251,-689.0034 746.3751,-689.0033"/>
</a>
</g>
<g id="a_edge4&#45;label"><a xlink:title="net/http.serverHandler.ServeHTTP &#45;&gt; net/http.(*ServeMux).ServeHTTP (154.33MB)">
<text text-anchor="middle" x="781.5" y="-700.8" font-family="Times,serif" font-size="14.00" fill="#000000"> 154.33MB</text>
</a>
</g>
</g>
<!-- N20 -->
<g id="node21" class="node">
<title>N20</title>
<g id="a_node21"><a xlink:title="runtime.concatstrings (19.94MB)">
<polygon fill="#f8f8f8" stroke="#000000" points="394,-331 282,-331 282,-295 394,-295 394,-331"/>
<text text-anchor="middle" x="338" y="-315.6" font-family="Times,serif" font-size="8.00" fill="#000000">runtime.concatstrings</text>
<text text-anchor="middle" x="338" y="-306.6" font-family="Times,serif" font-size="8.00" fill="#000000">0 of 19.94MB(12.85%)</text>
</a>
</g>
</g>
<!-- N19&#45;&gt;N20 -->
<g id="edge13" class="edge">
<title>N19&#45;&gt;N20</title>
<g id="a_edge13"><a xlink:title="runtime.concatstring2 &#45;&gt; runtime.concatstrings (19.94MB)">
<path fill="none" stroke="#000000" d="M463.2623,-381.9735C439.0056,-368.617 405.7643,-350.3133 379.6207,-335.9177"/>
<polygon fill="#000000" stroke="#000000" points="381.1438,-332.7609 370.6958,-331.0034 377.7674,-338.8928 381.1438,-332.7609"/>
</a>
</g>
<g id="a_edge13&#45;label"><a xlink:title="runtime.concatstring2 &#45;&gt; runtime.concatstrings (19.94MB)">
<text text-anchor="middle" x="462" y="-352.8" font-family="Times,serif" font-size="14.00" fill="#000000"> 19.94MB</text>
</a>
</g>
</g>
<!-- N20&#45;&gt;N1 -->
<g id="edge14" class="edge">
<title>N20&#45;&gt;N1</title>
<g id="a_edge14"><a xlink:title="runtime.concatstrings &#45;&gt; runtime.rawstringtmp (19.94MB)">
<path fill="none" stroke="#000000" d="M356.5523,-294.8908C379.2935,-273.1124 419.4484,-235.9957 457,-208 530.0681,-153.5258 620.0968,-99.2467 679.1718,-65.2126"/>
<polygon fill="#000000" stroke="#000000" points="681.0884,-68.1481 688.0184,-60.134 677.6033,-62.0774 681.0884,-68.1481"/>
</a>
</g>
<g id="a_edge14&#45;label"><a xlink:title="runtime.concatstrings &#45;&gt; runtime.rawstringtmp (19.94MB)">
<text text-anchor="middle" x="538" y="-178.8" font-family="Times,serif" font-size="14.00" fill="#000000"> 19.94MB</text>
</a>
</g>
</g>
<!-- N21 -->
<g id="node22" class="node">
<title>N21</title>
<g id="a_node22"><a xlink:title="runtime.goexit (155.21MB)">
<polygon fill="#f8f8f8" stroke="#000000" points="796.5,-1013.5 687.5,-1013.5 687.5,-977.5 796.5,-977.5 796.5,-1013.5"/>
<text text-anchor="middle" x="742" y="-998.1" font-family="Times,serif" font-size="8.00" fill="#000000">runtime.goexit</text>
<text text-anchor="middle" x="742" y="-989.1" font-family="Times,serif" font-size="8.00" fill="#000000">0 of 155.21MB(100%)</text>
</a>
</g>
</g>
<!-- N21&#45;&gt;N16 -->
<g id="edge5" class="edge">
<title>N21&#45;&gt;N16</title>
<g id="a_edge5"><a xlink:title="runtime.goexit &#45;&gt; net/http.(*conn).serve (154.33MB)">
<path fill="none" stroke="#000000" stroke-width="5" d="M742,-977.4006C742,-949.706 742,-896.5664 742,-863.6146"/>
<polygon fill="#000000" stroke="#000000" stroke-width="5" points="746.3751,-863.2795 742,-853.2795 737.6251,-863.2796 746.3751,-863.2795"/>
</a>
</g>
<g id="a_edge5&#45;label"><a xlink:title="runtime.goexit &#45;&gt; net/http.(*conn).serve (154.33MB)">
<text text-anchor="middle" x="781.5" y="-874.8" font-family="Times,serif" font-size="14.00" fill="#000000"> 154.33MB</text>
</a>
</g>
</g>
<!-- N23 -->
<g id="node24" class="node">
<title>N23</title>
<g id="a_node24"><a xlink:title="runtime/pprof.profileWriter (0.88MB)">
<polygon fill="#f8f8f8" stroke="#000000" points="973.5,-853 840.5,-853 840.5,-817 973.5,-817 973.5,-853"/>
<text text-anchor="middle" x="907" y="-837.6" font-family="Times,serif" font-size="8.00" fill="#000000">runtime/pprof.profileWriter</text>
<text text-anchor="middle" x="907" y="-828.6" font-family="Times,serif" font-size="8.00" fill="#000000">0 of 0.88MB(0.57%)</text>
</a>
</g>
</g>
<!-- N21&#45;&gt;N23 -->
<g id="edge24" class="edge">
<title>N21&#45;&gt;N23</title>
<g id="a_edge24"><a xlink:title="runtime.goexit &#45;&gt; runtime/pprof.profileWriter (0.88MB)">
<path fill="none" stroke="#000000" d="M760.6069,-977.4006C789.9444,-948.8631 847.0569,-893.3083 880.6171,-860.6634"/>
<polygon fill="#000000" stroke="#000000" points="883.4803,-862.761 888.208,-853.2795 878.5994,-857.7433 883.4803,-862.761"/>
</a>
</g>
<g id="a_edge24&#45;label"><a xlink:title="runtime.goexit &#45;&gt; runtime/pprof.profileWriter (0.88MB)">
<text text-anchor="middle" x="897.5" y="-874.8" font-family="Times,serif" font-size="14.00" fill="#000000"> 0.88MB</text>
</a>
</g>
</g>
<!-- N22&#45;&gt;N1 -->
<g id="edge6" class="edge">
<title>N22&#45;&gt;N1</title>
<g id="a_edge6"><a xlink:title="runtime.slicebytetostring &#45;&gt; runtime.rawstringtmp (98.54MB)">
<path fill="none" stroke="#000000" stroke-width="4" d="M742,-115.8846C742,-103.2814 742,-85.9745 742,-70.1978"/>
<polygon fill="#000000" stroke="#000000" stroke-width="4" points="745.5001,-70.116 742,-60.116 738.5001,-70.1161 745.5001,-70.116"/>
</a>
</g>
<g id="a_edge6&#45;label"><a xlink:title="runtime.slicebytetostring &#45;&gt; runtime.rawstringtmp (98.54MB)">
<text text-anchor="middle" x="777" y="-81.8" font-family="Times,serif" font-size="14.00" fill="#000000"> 98.54MB</text>
</a>
</g>
</g>
<!-- N23&#45;&gt;N9 -->
<g id="edge25" class="edge">
<title>N23&#45;&gt;N9</title>
<g id="a_edge25"><a xlink:title="runtime/pprof.profileWriter &#45;&gt; internal/pprof/profile.(*Profile).Write (0.88MB)">
<path fill="none" stroke="#000000" d="M911.7656,-816.9735C914.9112,-805.0751 919.0946,-789.2508 922.661,-775.7606"/>
<polygon fill="#000000" stroke="#000000" points="926.0683,-776.5658 925.2405,-766.0034 919.3008,-774.7766 926.0683,-776.5658"/>
</a>
</g>
<g id="a_edge25&#45;label"><a xlink:title="runtime/pprof.profileWriter &#45;&gt; internal/pprof/profile.(*Profile).Write (0.88MB)">
<text text-anchor="middle" x="949.5" y="-787.8" font-family="Times,serif" font-size="14.00" fill="#000000"> 0.88MB</text>
</a>
</g>
</g>
<!-- N24&#45;&gt;N4 -->
<g id="edge21" class="edge">
<title>N24&#45;&gt;N4</title>
<g id="a_edge21"><a xlink:title="strings.Split &#45;&gt; strings.genSplit (1.34MB)">
<path fill="none" stroke="#000000" d="M857.18,-381.9735C860.5991,-370.0751 865.1463,-354.2508 869.0228,-340.7606"/>
<polygon fill="#000000" stroke="#000000" points="872.4286,-341.5811 871.8266,-331.0034 865.7009,-339.6478 872.4286,-341.5811"/>
</a>
</g>
<g id="a_edge21&#45;label"><a xlink:title="strings.Split &#45;&gt; strings.genSplit (1.34MB)">
<text text-anchor="middle" x="895.5" y="-352.8" font-family="Times,serif" font-size="14.00" fill="#000000"> 1.34MB</text>
</a>
</g>
</g>
</g>
</g></svg>
