<?xml version="1.0" encoding="UTF-8" standalone="no"?>
<!DOCTYPE svg PUBLIC "-//W3C//DTD SVG 1.1//EN"
 "http://www.w3.org/Graphics/SVG/1.1/DTD/svg11.dtd">
<!-- Generated by graphviz version 2.40.1 (20161225.0304)
 -->
<!-- Title: searcher Pages: 1 -->
<svg width="100%" height="100%" xmlns="http://www.w3.org/2000/svg" xmlns:xlink="http://www.w3.org/1999/xlink">
<script type="text/ecmascript"><![CDATA[
/** 
 *  SVGPan library 1.2.1
 * ======================
 *
 * Given an unique existing element with id "viewport" (or when missing, the first g 
 * element), including the the library into any SVG adds the following capabilities:
 *
 *  - Mouse panning
 *  - Mouse zooming (using the wheel)
 *  - Object dragging
 *
 * You can configure the behavior of the pan/zoom/drag with the variables
 * listed in the CONFIGURATION section of this file.
 *
 * Known issues:
 *
 *  - Zooming (while panning) on Safari has still some issues
 *
 * Releases:
 *
 * 1.2.1, Mon Jul  4 00:33:18 CEST 2011, Andrea Leofreddi
 *	- Fixed a regression with mouse wheel (now working on Firefox 5)
 *	- Working with viewBox attribute (#4)
 *	- Added "use strict;" and fixed resulting warnings (#5)
 *	- Added configuration variables, dragging is disabled by default (#3)
 *
 * 1.2, Sat Mar 20 08:42:50 GMT 2010, Zeng Xiaohui
 *	Fixed a bug with browser mouse handler interaction
 *
 * 1.1, Wed Feb  3 17:39:33 GMT 2010, Zeng Xiaohui
 *	Updated the zoom code to support the mouse wheel on Safari/Chrome
 *
 * 1.0, Andrea Leofreddi
 *	First release
 *
 * This code is licensed under the following BSD license:
 *
 * Copyright 2009-2010 Andrea Leofreddi <a.leofreddi@itcharm.com>. All rights reserved.
 * 
 * Redistribution and use in source and binary forms, with or without modification, are
 * permitted provided that the following conditions are met:
 * 
 *    1. Redistributions of source code must retain the above copyright notice, this list of
 *       conditions and the following disclaimer.
 * 
 *    2. Redistributions in binary form must reproduce the above copyright notice, this list
 *       of conditions and the following disclaimer in the documentation and/or other materials
 *       provided with the distribution.
 * 
 * THIS SOFTWARE IS PROVIDED BY Andrea Leofreddi ``AS IS'' AND ANY EXPRESS OR IMPLIED
 * WARRANTIES, INCLUDING, BUT NOT LIMITED TO, THE IMPLIED WARRANTIES OF MERCHANTABILITY AND
 * FITNESS FOR A PARTICULAR PURPOSE ARE DISCLAIMED. IN NO EVENT SHALL Andrea Leofreddi OR
 * CONTRIBUTORS BE LIABLE FOR ANY DIRECT, INDIRECT, INCIDENTAL, SPECIAL, EXEMPLARY, OR
 * CONSEQUENTIAL DAMAGES (INCLUDING, BUT NOT LIMITED TO, PROCUREMENT OF SUBSTITUTE GOODS OR
 * SERVICES; LOSS OF USE, DATA, OR PROFITS; OR BUSINESS INTERRUPTION) HOWEVER CAUSED AND ON
 * ANY THEORY OF LIABILITY, WHETHER IN CONTRACT, STRICT LIABILITY, OR TORT (INCLUDING
 * NEGLIGENCE OR OTHERWISE) ARISING IN ANY WAY OUT OF THE USE OF THIS SOFTWARE, EVEN IF
 * ADVISED OF THE POSSIBILITY OF SUCH DAMAGE.
 * 
 * The views and conclusions contained in the software and documentation are those of the
 * authors and should not be interpreted as representing official policies, either expressed
 * or implied, of Andrea Leofreddi.
 */

"use strict";

/// CONFIGURATION 
/// ====>

var enablePan = 1; // 1 or 0: enable or disable panning (default enabled)
var enableZoom = 1; // 1 or 0: enable or disable zooming (default enabled)
var enableDrag = 0; // 1 or 0: enable or disable dragging (default disabled)

/// <====
/// END OF CONFIGURATION 

var root = document.documentElement;

var state = 'none', svgRoot, stateTarget, stateOrigin, stateTf;

setupHandlers(root);

/**
 * Register handlers
 */
function setupHandlers(root){
	setAttributes(root, {
		"onmouseup" : "handleMouseUp(evt)",
		"onmousedown" : "handleMouseDown(evt)",
		"onmousemove" : "handleMouseMove(evt)",
		//"onmouseout" : "handleMouseUp(evt)", // Decomment this to stop the pan functionality when dragging out of the SVG element
	});

	if(navigator.userAgent.toLowerCase().indexOf('webkit') >= 0)
		window.addEventListener('mousewheel', handleMouseWheel, false); // Chrome/Safari
	else
		window.addEventListener('DOMMouseScroll', handleMouseWheel, false); // Others
}

/**
 * Retrieves the root element for SVG manipulation. The element is then cached into the svgRoot global variable.
 */
function getRoot(root) {
	if(typeof(svgRoot) == "undefined") {
		var g = null;

		g = root.getElementById("viewport");

		if(g == null)
			g = root.getElementsByTagName('g')[0];

		if(g == null)
			alert('Unable to obtain SVG root element');

		setCTM(g, g.getCTM());

		g.removeAttribute("viewBox");

		svgRoot = g;
	}

	return svgRoot;
}

/**
 * Instance an SVGPoint object with given event coordinates.
 */
function getEventPoint(evt) {
	var p = root.createSVGPoint();

	p.x = evt.clientX;
	p.y = evt.clientY;

	return p;
}

/**
 * Sets the current transform matrix of an element.
 */
function setCTM(element, matrix) {
	var s = "matrix(" + matrix.a + "," + matrix.b + "," + matrix.c + "," + matrix.d + "," + matrix.e + "," + matrix.f + ")";

	element.setAttribute("transform", s);
}

/**
 * Dumps a matrix to a string (useful for debug).
 */
function dumpMatrix(matrix) {
	var s = "[ " + matrix.a + ", " + matrix.c + ", " + matrix.e + "\n  " + matrix.b + ", " + matrix.d + ", " + matrix.f + "\n  0, 0, 1 ]";

	return s;
}

/**
 * Sets attributes of an element.
 */
function setAttributes(element, attributes){
	for (var i in attributes)
		element.setAttributeNS(null, i, attributes[i]);
}

/**
 * Handle mouse wheel event.
 */
function handleMouseWheel(evt) {
	if(!enableZoom)
		return;

	if(evt.preventDefault)
		evt.preventDefault();

	evt.returnValue = false;

	var svgDoc = evt.target.ownerDocument;

	var delta;

	if(evt.wheelDelta)
		delta = evt.wheelDelta / 3600; // Chrome/Safari
	else
		delta = evt.detail / -90; // Mozilla

	var z = 1 + delta; // Zoom factor: 0.9/1.1

	var g = getRoot(svgDoc);
	
	var p = getEventPoint(evt);

	p = p.matrixTransform(g.getCTM().inverse());

	// Compute new scale matrix in current mouse position
	var k = root.createSVGMatrix().translate(p.x, p.y).scale(z).translate(-p.x, -p.y);

        setCTM(g, g.getCTM().multiply(k));

	if(typeof(stateTf) == "undefined")
		stateTf = g.getCTM().inverse();

	stateTf = stateTf.multiply(k.inverse());
}

/**
 * Handle mouse move event.
 */
function handleMouseMove(evt) {
	if(evt.preventDefault)
		evt.preventDefault();

	evt.returnValue = false;

	var svgDoc = evt.target.ownerDocument;

	var g = getRoot(svgDoc);

	if(state == 'pan' && enablePan) {
		// Pan mode
		var p = getEventPoint(evt).matrixTransform(stateTf);

		setCTM(g, stateTf.inverse().translate(p.x - stateOrigin.x, p.y - stateOrigin.y));
	} else if(state == 'drag' && enableDrag) {
		// Drag mode
		var p = getEventPoint(evt).matrixTransform(g.getCTM().inverse());

		setCTM(stateTarget, root.createSVGMatrix().translate(p.x - stateOrigin.x, p.y - stateOrigin.y).multiply(g.getCTM().inverse()).multiply(stateTarget.getCTM()));

		stateOrigin = p;
	}
}

/**
 * Handle click event.
 */
function handleMouseDown(evt) {
	if(evt.preventDefault)
		evt.preventDefault();

	evt.returnValue = false;

	var svgDoc = evt.target.ownerDocument;

	var g = getRoot(svgDoc);

	if(
		evt.target.tagName == "svg" 
		|| !enableDrag // Pan anyway when drag is disabled and the user clicked on an element 
	) {
		// Pan mode
		state = 'pan';

		stateTf = g.getCTM().inverse();

		stateOrigin = getEventPoint(evt).matrixTransform(stateTf);
	} else {
		// Drag mode
		state = 'drag';

		stateTarget = evt.target;

		stateTf = g.getCTM().inverse();

		stateOrigin = getEventPoint(evt).matrixTransform(stateTf);
	}
}

/**
 * Handle mouse button release event.
 */
function handleMouseUp(evt) {
	if(evt.preventDefault)
		evt.preventDefault();

	evt.returnValue = false;

	var svgDoc = evt.target.ownerDocument;

	if(state == 'pan' || state == 'drag') {
		// Quit pan mode
		state = '';
	}
}

]]></script><g id="viewport" transform="scale(0.5,0.5) translate(0,0)"><g id="graph0" class="graph" transform="scale(1 1) rotate(0) translate(4 1102)">
<title>searcher</title>
<polygon fill="#ffffff" stroke="transparent" points="-4,4 -4,-1102 976,-1102 976,4 -4,4"/>
<g id="clust1" class="cluster">
<title>cluster_L</title>
<polygon fill="none" stroke="#000000" points="8,-891 8,-1090 678,-1090 678,-891 8,-891"/>
</g>
<!-- L -->
<g id="node1" class="node">
<title>L</title>
<polygon fill="#f8f8f8" stroke="#000000" points="669.5,-1082 16.5,-1082 16.5,-899 669.5,-899 669.5,-1082"/>
<text text-anchor="start" x="24.5" y="-1052.4" font-family="Times,serif" font-size="32.00" fill="#000000">File: searcher</text>
<text text-anchor="start" x="24.5" y="-1017.4" font-family="Times,serif" font-size="32.00" fill="#000000">Type: alloc_space</text>
<text text-anchor="start" x="24.5" y="-982.4" font-family="Times,serif" font-size="32.00" fill="#000000">Time: May 20, 2017 at 11:59am (MSK)</text>
<text text-anchor="start" x="24.5" y="-947.4" font-family="Times,serif" font-size="32.00" fill="#000000">16.31GB of 16.41GB total (99.34%)</text>
<text text-anchor="start" x="24.5" y="-912.4" font-family="Times,serif" font-size="32.00" fill="#000000">Dropped 74 nodes (cum &lt;= 0.08GB)</text>
</g>
<!-- N1 -->
<g id="node2" class="node">
<title>N1</title>
<g id="a_node2"><a xlink:title="runtime.rawstringtmp (16.20GB)">
<polygon fill="#f8f8f8" stroke="#000000" points="881.5,-60 596.5,-60 596.5,0 881.5,0 881.5,-60"/>
<text text-anchor="middle" x="739" y="-36.8" font-family="Times,serif" font-size="24.00" fill="#000000">runtime.rawstringtmp</text>
<text text-anchor="middle" x="739" y="-10.8" font-family="Times,serif" font-size="24.00" fill="#000000">16.20GB(98.69%)</text>
</a>
</g>
</g>
<!-- N2 -->
<g id="node3" class="node">
<title>N2</title>
<g id="a_node3"><a xlink:title="strings.Replace (0.20GB)">
<polygon fill="#f8f8f8" stroke="#000000" points="648.5,-413 545.5,-413 545.5,-372 648.5,-372 648.5,-413"/>
<text text-anchor="middle" x="597" y="-401" font-family="Times,serif" font-size="10.00" fill="#000000">strings.Replace</text>
<text text-anchor="middle" x="597" y="-390" font-family="Times,serif" font-size="10.00" fill="#000000">0.11GB(0.65%)</text>
<text text-anchor="middle" x="597" y="-379" font-family="Times,serif" font-size="10.00" fill="#000000">of 0.20GB(1.23%)</text>
</a>
</g>
</g>
<!-- N13 -->
<g id="node14" class="node">
<title>N13</title>
<g id="a_node14"><a xlink:title="runtime.slicebytetostring (16GB)">
<polygon fill="#f8f8f8" stroke="#000000" points="801,-147 677,-147 677,-111 801,-111 801,-147"/>
<text text-anchor="middle" x="739" y="-131.6" font-family="Times,serif" font-size="8.00" fill="#000000">runtime.slicebytetostring</text>
<text text-anchor="middle" x="739" y="-122.6" font-family="Times,serif" font-size="8.00" fill="#000000">0 of 16GB(97.48%)</text>
</a>
</g>
</g>
<!-- N2&#45;&gt;N13 -->
<g id="edge14" class="edge">
<title>N2&#45;&gt;N13</title>
<g id="a_edge14"><a xlink:title="strings.Replace &#45;&gt; runtime.slicebytetostring (0.10GB)">
<path fill="none" stroke="#000000" d="M591.8214,-371.6952C588.5646,-357.5124 584.6727,-338.2481 583,-321 577.5365,-264.6643 579.061,-240.8843 616,-198 633.2748,-177.9449 657.8938,-162.5233 680.5739,-151.3982"/>
<polygon fill="#000000" stroke="#000000" points="682.26,-154.4729 689.8136,-147.0436 679.2757,-148.1408 682.26,-154.4729"/>
</a>
</g>
<g id="a_edge14&#45;label"><a xlink:title="strings.Replace &#45;&gt; runtime.slicebytetostring (0.10GB)">
<text text-anchor="middle" x="614" y="-255.8" font-family="Times,serif" font-size="14.00" fill="#000000"> 0.10GB</text>
</a>
</g>
</g>
<!-- N3 -->
<g id="node4" class="node">
<title>N3</title>
<g id="a_node4"><a xlink:title="github.com/mailru/easyjson/jlexer.(*Lexer).String (15.89GB)">
<polygon fill="#f8f8f8" stroke="#000000" points="852.5,-234 625.5,-234 625.5,-198 852.5,-198 852.5,-234"/>
<text text-anchor="middle" x="739" y="-218.6" font-family="Times,serif" font-size="8.00" fill="#000000">github.com/mailru/easyjson/jlexer.(*Lexer).String</text>
<text text-anchor="middle" x="739" y="-209.6" font-family="Times,serif" font-size="8.00" fill="#000000">0 of 15.89GB(96.83%)</text>
</a>
</g>
</g>
<!-- N3&#45;&gt;N13 -->
<g id="edge7" class="edge">
<title>N3&#45;&gt;N13</title>
<g id="a_edge7"><a xlink:title="github.com/mailru/easyjson/jlexer.(*Lexer).String &#45;&gt; runtime.slicebytetostring (15.89GB)">
<path fill="none" stroke="#000000" stroke-width="5" d="M739,-197.9735C739,-186.1918 739,-170.5607 739,-157.1581"/>
<polygon fill="#000000" stroke="#000000" stroke-width="5" points="743.3751,-157.0033 739,-147.0034 734.6251,-157.0034 743.3751,-157.0033"/>
</a>
</g>
<g id="a_edge7&#45;label"><a xlink:title="github.com/mailru/easyjson/jlexer.(*Lexer).String &#45;&gt; runtime.slicebytetostring (15.89GB)">
<text text-anchor="middle" x="772.5" y="-168.8" font-family="Times,serif" font-size="14.00" fill="#000000"> 15.89GB</text>
</a>
</g>
</g>
<!-- N4 -->
<g id="node5" class="node">
<title>N4</title>
<g id="a_node5"><a xlink:title="main.(*User).UnmarshalJSON (15.89GB)">
<polygon fill="#f8f8f8" stroke="#000000" points="811,-410.5 667,-410.5 667,-374.5 811,-374.5 811,-410.5"/>
<text text-anchor="middle" x="739" y="-395.1" font-family="Times,serif" font-size="8.00" fill="#000000">main.(*User).UnmarshalJSON</text>
<text text-anchor="middle" x="739" y="-386.1" font-family="Times,serif" font-size="8.00" fill="#000000">0 of 15.89GB(96.83%)</text>
</a>
</g>
</g>
<!-- N5 -->
<g id="node6" class="node">
<title>N5</title>
<g id="a_node6"><a xlink:title="main.easyjson6a975c40DecodeMsuGo11899HomeworkSearcher (15.89GB)">
<polygon fill="#f8f8f8" stroke="#000000" points="885.5,-321 592.5,-321 592.5,-285 885.5,-285 885.5,-321"/>
<text text-anchor="middle" x="739" y="-305.6" font-family="Times,serif" font-size="8.00" fill="#000000">main.easyjson6a975c40DecodeMsuGo11899HomeworkSearcher</text>
<text text-anchor="middle" x="739" y="-296.6" font-family="Times,serif" font-size="8.00" fill="#000000">0 of 15.89GB(96.83%)</text>
</a>
</g>
</g>
<!-- N4&#45;&gt;N5 -->
<g id="edge8" class="edge">
<title>N4&#45;&gt;N5</title>
<g id="a_edge8"><a xlink:title="main.(*User).UnmarshalJSON &#45;&gt; main.easyjson6a975c40DecodeMsuGo11899HomeworkSearcher (15.89GB)">
<path fill="none" stroke="#000000" stroke-width="5" d="M739,-374.3883C739,-362.0146 739,-345.3686 739,-331.2632"/>
<polygon fill="#000000" stroke="#000000" stroke-width="5" points="743.3751,-331.0847 739,-321.0847 734.6251,-331.0848 743.3751,-331.0847"/>
</a>
</g>
<g id="a_edge8&#45;label"><a xlink:title="main.(*User).UnmarshalJSON &#45;&gt; main.easyjson6a975c40DecodeMsuGo11899HomeworkSearcher (15.89GB)">
<text text-anchor="middle" x="772.5" y="-342.8" font-family="Times,serif" font-size="14.00" fill="#000000"> 15.89GB</text>
</a>
</g>
</g>
<!-- N5&#45;&gt;N3 -->
<g id="edge9" class="edge">
<title>N5&#45;&gt;N3</title>
<g id="a_edge9"><a xlink:title="main.easyjson6a975c40DecodeMsuGo11899HomeworkSearcher &#45;&gt; github.com/mailru/easyjson/jlexer.(*Lexer).String (15.89GB)">
<path fill="none" stroke="#000000" stroke-width="5" d="M739,-284.9735C739,-273.1918 739,-257.5607 739,-244.1581"/>
<polygon fill="#000000" stroke="#000000" stroke-width="5" points="743.3751,-244.0033 739,-234.0034 734.6251,-244.0034 743.3751,-244.0033"/>
</a>
</g>
<g id="a_edge9&#45;label"><a xlink:title="main.easyjson6a975c40DecodeMsuGo11899HomeworkSearcher &#45;&gt; github.com/mailru/easyjson/jlexer.(*Lexer).String (15.89GB)">
<text text-anchor="middle" x="772.5" y="-255.8" font-family="Times,serif" font-size="14.00" fill="#000000"> 15.89GB</text>
</a>
</g>
</g>
<!-- N6 -->
<g id="node7" class="node">
<title>N6</title>
<g id="a_node7"><a xlink:title="main.main.func1 (16.40GB)">
<polygon fill="#f8f8f8" stroke="#000000" points="794,-500 684,-500 684,-464 794,-464 794,-500"/>
<text text-anchor="middle" x="739" y="-484.6" font-family="Times,serif" font-size="8.00" fill="#000000">main.main.func1</text>
<text text-anchor="middle" x="739" y="-475.6" font-family="Times,serif" font-size="8.00" fill="#000000">0 of 16.40GB(99.94%)</text>
</a>
</g>
</g>
<!-- N6&#45;&gt;N2 -->
<g id="edge11" class="edge">
<title>N6&#45;&gt;N2</title>
<g id="a_edge11"><a xlink:title="main.main.func1 &#45;&gt; strings.Replace (0.20GB)">
<path fill="none" stroke="#000000" d="M706.9096,-463.884C697.2221,-458.2768 686.61,-451.995 677,-446 663.1616,-437.3672 648.2446,-427.5391 635.0838,-418.6824"/>
<polygon fill="#000000" stroke="#000000" points="636.9621,-415.7275 626.7178,-413.0249 633.0408,-421.5261 636.9621,-415.7275"/>
</a>
</g>
<g id="a_edge11&#45;label"><a xlink:title="main.main.func1 &#45;&gt; strings.Replace (0.20GB)">
<text text-anchor="middle" x="706" y="-434.8" font-family="Times,serif" font-size="14.00" fill="#000000"> 0.20GB</text>
</a>
</g>
</g>
<!-- N6&#45;&gt;N4 -->
<g id="edge10" class="edge">
<title>N6&#45;&gt;N4</title>
<g id="a_edge10"><a xlink:title="main.main.func1 &#45;&gt; main.(*User).UnmarshalJSON (15.89GB)">
<path fill="none" stroke="#000000" stroke-width="5" d="M739,-463.8883C739,-451.5146 739,-434.8686 739,-420.7632"/>
<polygon fill="#000000" stroke="#000000" stroke-width="5" points="743.3751,-420.5847 739,-410.5847 734.6251,-420.5848 743.3751,-420.5847"/>
</a>
</g>
<g id="a_edge10&#45;label"><a xlink:title="main.main.func1 &#45;&gt; main.(*User).UnmarshalJSON (15.89GB)">
<text text-anchor="middle" x="772.5" y="-434.8" font-family="Times,serif" font-size="14.00" fill="#000000"> 15.89GB</text>
</a>
</g>
</g>
<!-- N11 -->
<g id="node12" class="node">
<title>N11</title>
<g id="a_node12"><a xlink:title="runtime.concatstrings (0.20GB)">
<polygon fill="#f8f8f8" stroke="#000000" points="954,-410.5 844,-410.5 844,-374.5 954,-374.5 954,-410.5"/>
<text text-anchor="middle" x="899" y="-395.1" font-family="Times,serif" font-size="8.00" fill="#000000">runtime.concatstrings</text>
<text text-anchor="middle" x="899" y="-386.1" font-family="Times,serif" font-size="8.00" fill="#000000">0 of 0.20GB(1.21%)</text>
</a>
</g>
</g>
<!-- N6&#45;&gt;N11 -->
<g id="edge12" class="edge">
<title>N6&#45;&gt;N11</title>
<g id="a_edge12"><a xlink:title="main.main.func1 &#45;&gt; runtime.concatstrings (0.20GB)">
<path fill="none" stroke="#000000" d="M775.7486,-463.9992C786.8423,-458.396 798.9949,-452.0874 810,-446 827.0118,-436.59 845.4836,-425.6147 861.167,-416.0625"/>
<polygon fill="#000000" stroke="#000000" points="863.3462,-418.8322 870.0468,-410.6253 859.6908,-412.8624 863.3462,-418.8322"/>
</a>
</g>
<g id="a_edge12&#45;label"><a xlink:title="main.main.func1 &#45;&gt; runtime.concatstrings (0.20GB)">
<text text-anchor="middle" x="863" y="-434.8" font-family="Times,serif" font-size="14.00" fill="#000000"> 0.20GB</text>
</a>
</g>
</g>
<!-- N7 -->
<g id="node8" class="node">
<title>N7</title>
<g id="a_node8"><a xlink:title="net/http.(*ServeMux).ServeHTTP (16.40GB)">
<polygon fill="#f8f8f8" stroke="#000000" points="817.5,-674 660.5,-674 660.5,-638 817.5,-638 817.5,-674"/>
<text text-anchor="middle" x="739" y="-658.6" font-family="Times,serif" font-size="8.00" fill="#000000">net/http.(*ServeMux).ServeHTTP</text>
<text text-anchor="middle" x="739" y="-649.6" font-family="Times,serif" font-size="8.00" fill="#000000">0 of 16.40GB(99.94%)</text>
</a>
</g>
</g>
<!-- N9 -->
<g id="node10" class="node">
<title>N9</title>
<g id="a_node10"><a xlink:title="net/http.HandlerFunc.ServeHTTP (16.40GB)">
<polygon fill="#f8f8f8" stroke="#000000" points="819,-587 659,-587 659,-551 819,-551 819,-587"/>
<text text-anchor="middle" x="739" y="-571.6" font-family="Times,serif" font-size="8.00" fill="#000000">net/http.HandlerFunc.ServeHTTP</text>
<text text-anchor="middle" x="739" y="-562.6" font-family="Times,serif" font-size="8.00" fill="#000000">0 of 16.40GB(99.94%)</text>
</a>
</g>
</g>
<!-- N7&#45;&gt;N9 -->
<g id="edge2" class="edge">
<title>N7&#45;&gt;N9</title>
<g id="a_edge2"><a xlink:title="net/http.(*ServeMux).ServeHTTP &#45;&gt; net/http.HandlerFunc.ServeHTTP (16.40GB)">
<path fill="none" stroke="#000000" stroke-width="5" d="M739,-637.9735C739,-626.1918 739,-610.5607 739,-597.1581"/>
<polygon fill="#000000" stroke="#000000" stroke-width="5" points="743.3751,-597.0033 739,-587.0034 734.6251,-597.0034 743.3751,-597.0033"/>
</a>
</g>
<g id="a_edge2&#45;label"><a xlink:title="net/http.(*ServeMux).ServeHTTP &#45;&gt; net/http.HandlerFunc.ServeHTTP (16.40GB)">
<text text-anchor="middle" x="772.5" y="-608.8" font-family="Times,serif" font-size="14.00" fill="#000000"> 16.40GB</text>
</a>
</g>
</g>
<!-- N8 -->
<g id="node9" class="node">
<title>N8</title>
<g id="a_node9"><a xlink:title="net/http.(*conn).serve (16.41GB)">
<polygon fill="#f8f8f8" stroke="#000000" points="794,-848 684,-848 684,-812 794,-812 794,-848"/>
<text text-anchor="middle" x="739" y="-832.6" font-family="Times,serif" font-size="8.00" fill="#000000">net/http.(*conn).serve</text>
<text text-anchor="middle" x="739" y="-823.6" font-family="Times,serif" font-size="8.00" fill="#000000">0 of 16.41GB(99.95%)</text>
</a>
</g>
</g>
<!-- N10 -->
<g id="node11" class="node">
<title>N10</title>
<g id="a_node11"><a xlink:title="net/http.serverHandler.ServeHTTP (16.40GB)">
<polygon fill="#f8f8f8" stroke="#000000" points="821.5,-761 656.5,-761 656.5,-725 821.5,-725 821.5,-761"/>
<text text-anchor="middle" x="739" y="-745.6" font-family="Times,serif" font-size="8.00" fill="#000000">net/http.serverHandler.ServeHTTP</text>
<text text-anchor="middle" x="739" y="-736.6" font-family="Times,serif" font-size="8.00" fill="#000000">0 of 16.40GB(99.94%)</text>
</a>
</g>
</g>
<!-- N8&#45;&gt;N10 -->
<g id="edge3" class="edge">
<title>N8&#45;&gt;N10</title>
<g id="a_edge3"><a xlink:title="net/http.(*conn).serve &#45;&gt; net/http.serverHandler.ServeHTTP (16.40GB)">
<path fill="none" stroke="#000000" stroke-width="5" d="M739,-811.9735C739,-800.1918 739,-784.5607 739,-771.1581"/>
<polygon fill="#000000" stroke="#000000" stroke-width="5" points="743.3751,-771.0033 739,-761.0034 734.6251,-771.0034 743.3751,-771.0033"/>
</a>
</g>
<g id="a_edge3&#45;label"><a xlink:title="net/http.(*conn).serve &#45;&gt; net/http.serverHandler.ServeHTTP (16.40GB)">
<text text-anchor="middle" x="772.5" y="-782.8" font-family="Times,serif" font-size="14.00" fill="#000000"> 16.40GB</text>
</a>
</g>
</g>
<!-- N9&#45;&gt;N6 -->
<g id="edge4" class="edge">
<title>N9&#45;&gt;N6</title>
<g id="a_edge4"><a xlink:title="net/http.HandlerFunc.ServeHTTP &#45;&gt; main.main.func1 (16.40GB)">
<path fill="none" stroke="#000000" stroke-width="5" d="M739,-550.9735C739,-539.1918 739,-523.5607 739,-510.1581"/>
<polygon fill="#000000" stroke="#000000" stroke-width="5" points="743.3751,-510.0033 739,-500.0034 734.6251,-510.0034 743.3751,-510.0033"/>
</a>
</g>
<g id="a_edge4&#45;label"><a xlink:title="net/http.HandlerFunc.ServeHTTP &#45;&gt; main.main.func1 (16.40GB)">
<text text-anchor="middle" x="772.5" y="-521.8" font-family="Times,serif" font-size="14.00" fill="#000000"> 16.40GB</text>
</a>
</g>
</g>
<!-- N10&#45;&gt;N7 -->
<g id="edge5" class="edge">
<title>N10&#45;&gt;N7</title>
<g id="a_edge5"><a xlink:title="net/http.serverHandler.ServeHTTP &#45;&gt; net/http.(*ServeMux).ServeHTTP (16.40GB)">
<path fill="none" stroke="#000000" stroke-width="5" d="M739,-724.9735C739,-713.1918 739,-697.5607 739,-684.1581"/>
<polygon fill="#000000" stroke="#000000" stroke-width="5" points="743.3751,-684.0033 739,-674.0034 734.6251,-684.0034 743.3751,-684.0033"/>
</a>
</g>
<g id="a_edge5&#45;label"><a xlink:title="net/http.serverHandler.ServeHTTP &#45;&gt; net/http.(*ServeMux).ServeHTTP (16.40GB)">
<text text-anchor="middle" x="772.5" y="-695.8" font-family="Times,serif" font-size="14.00" fill="#000000"> 16.40GB</text>
</a>
</g>
</g>
<!-- N11&#45;&gt;N1 -->
<g id="edge13" class="edge">
<title>N11&#45;&gt;N1</title>
<g id="a_edge13"><a xlink:title="runtime.concatstrings &#45;&gt; runtime.rawstringtmp (0.20GB)">
<path fill="none" stroke="#000000" d="M903.8287,-374.4784C908.2136,-356.5087 914,-328.0503 914,-303 914,-303 914,-303 914,-129 914,-100.1168 895.7176,-79.5622 870.9713,-64.9698"/>
<polygon fill="#000000" stroke="#000000" points="872.4221,-61.7742 861.968,-60.053 869.067,-67.9178 872.4221,-61.7742"/>
</a>
</g>
<g id="a_edge13&#45;label"><a xlink:title="runtime.concatstrings &#45;&gt; runtime.rawstringtmp (0.20GB)">
<text text-anchor="middle" x="943" y="-212.3" font-family="Times,serif" font-size="14.00" fill="#000000"> 0.20GB</text>
</a>
</g>
</g>
<!-- N12 -->
<g id="node13" class="node">
<title>N12</title>
<g id="a_node13"><a xlink:title="runtime.goexit (16.41GB)">
<polygon fill="#f8f8f8" stroke="#000000" points="790,-1008.5 688,-1008.5 688,-972.5 790,-972.5 790,-1008.5"/>
<text text-anchor="middle" x="739" y="-993.1" font-family="Times,serif" font-size="8.00" fill="#000000">runtime.goexit</text>
<text text-anchor="middle" x="739" y="-984.1" font-family="Times,serif" font-size="8.00" fill="#000000">0 of 16.41GB(100%)</text>
</a>
</g>
</g>
<!-- N12&#45;&gt;N8 -->
<g id="edge1" class="edge">
<title>N12&#45;&gt;N8</title>
<g id="a_edge1"><a xlink:title="runtime.goexit &#45;&gt; net/http.(*conn).serve (16.41GB)">
<path fill="none" stroke="#000000" stroke-width="5" d="M739,-972.4006C739,-944.706 739,-891.5664 739,-858.6146"/>
<polygon fill="#000000" stroke="#000000" stroke-width="5" points="743.3751,-858.2795 739,-848.2795 734.6251,-858.2796 743.3751,-858.2795"/>
</a>
</g>
<g id="a_edge1&#45;label"><a xlink:title="runtime.goexit &#45;&gt; net/http.(*conn).serve (16.41GB)">
<text text-anchor="middle" x="772.5" y="-869.8" font-family="Times,serif" font-size="14.00" fill="#000000"> 16.41GB</text>
</a>
</g>
</g>
<!-- N13&#45;&gt;N1 -->
<g id="edge6" class="edge">
<title>N13&#45;&gt;N1</title>
<g id="a_edge6"><a xlink:title="runtime.slicebytetostring &#45;&gt; runtime.rawstringtmp (16GB)">
<path fill="none" stroke="#000000" stroke-width="5" d="M739,-110.8419C739,-99.4325 739,-84.2494 739,-70.1236"/>
<polygon fill="#000000" stroke="#000000" stroke-width="5" points="743.3751,-70.0938 739,-60.0939 734.6251,-70.0939 743.3751,-70.0938"/>
</a>
</g>
<g id="a_edge6&#45;label"><a xlink:title="runtime.slicebytetostring &#45;&gt; runtime.rawstringtmp (16GB)">
<text text-anchor="middle" x="761.5" y="-81.8" font-family="Times,serif" font-size="14.00" fill="#000000"> 16GB</text>
</a>
</g>
</g>
</g>
</g></svg>
