<?xml version="1.0" encoding="UTF-8" standalone="no"?>
<!DOCTYPE svg PUBLIC "-//W3C//DTD SVG 1.1//EN"
 "http://www.w3.org/Graphics/SVG/1.1/DTD/svg11.dtd">
<!-- Generated by graphviz version 2.40.1 (20161225.0304)
 -->
<!-- Title: searcher Pages: 1 -->
<svg width="100%" height="100%" xmlns="http://www.w3.org/2000/svg" xmlns:xlink="http://www.w3.org/1999/xlink">
<script type="text/ecmascript"><![CDATA[
/** 
 *  SVGPan library 1.2.1
 * ======================
 *
 * Given an unique existing element with id "viewport" (or when missing, the first g 
 * element), including the the library into any SVG adds the following capabilities:
 *
 *  - Mouse panning
 *  - Mouse zooming (using the wheel)
 *  - Object dragging
 *
 * You can configure the behavior of the pan/zoom/drag with the variables
 * listed in the CONFIGURATION section of this file.
 *
 * Known issues:
 *
 *  - Zooming (while panning) on Safari has still some issues
 *
 * Releases:
 *
 * 1.2.1, Mon Jul  4 00:33:18 CEST 2011, Andrea Leofreddi
 *	- Fixed a regression with mouse wheel (now working on Firefox 5)
 *	- Working with viewBox attribute (#4)
 *	- Added "use strict;" and fixed resulting warnings (#5)
 *	- Added configuration variables, dragging is disabled by default (#3)
 *
 * 1.2, Sat Mar 20 08:42:50 GMT 2010, Zeng Xiaohui
 *	Fixed a bug with browser mouse handler interaction
 *
 * 1.1, Wed Feb  3 17:39:33 GMT 2010, Zeng Xiaohui
 *	Updated the zoom code to support the mouse wheel on Safari/Chrome
 *
 * 1.0, Andrea Leofreddi
 *	First release
 *
 * This code is licensed under the following BSD license:
 *
 * Copyright 2009-2010 Andrea Leofreddi <a.leofreddi@itcharm.com>. All rights reserved.
 * 
 * Redistribution and use in source and binary forms, with or without modification, are
 * permitted provided that the following conditions are met:
 * 
 *    1. Redistributions of source code must retain the above copyright notice, this list of
 *       conditions and the following disclaimer.
 * 
 *    2. Redistributions in binary form must reproduce the above copyright notice, this list
 *       of conditions and the following disclaimer in the documentation and/or other materials
 *       provided with the distribution.
 * 
 * THIS SOFTWARE IS PROVIDED BY Andrea Leofreddi ``AS IS'' AND ANY EXPRESS OR IMPLIED
 * WARRANTIES, INCLUDING, BUT NOT LIMITED TO, THE IMPLIED WARRANTIES OF MERCHANTABILITY AND
 * FITNESS FOR A PARTICULAR PURPOSE ARE DISCLAIMED. IN NO EVENT SHALL Andrea Leofreddi OR
 * CONTRIBUTORS BE LIABLE FOR ANY DIRECT, INDIRECT, INCIDENTAL, SPECIAL, EXEMPLARY, OR
 * CONSEQUENTIAL DAMAGES (INCLUDING, BUT NOT LIMITED TO, PROCUREMENT OF SUBSTITUTE GOODS OR
 * SERVICES; LOSS OF USE, DATA, OR PROFITS; OR BUSINESS INTERRUPTION) HOWEVER CAUSED AND ON
 * ANY THEORY OF LIABILITY, WHETHER IN CONTRACT, STRICT LIABILITY, OR TORT (INCLUDING
 * NEGLIGENCE OR OTHERWISE) ARISING IN ANY WAY OUT OF THE USE OF THIS SOFTWARE, EVEN IF
 * ADVISED OF THE POSSIBILITY OF SUCH DAMAGE.
 * 
 * The views and conclusions contained in the software and documentation are those of the
 * authors and should not be interpreted as representing official policies, either expressed
 * or implied, of Andrea Leofreddi.
 */

"use strict";

/// CONFIGURATION 
/// ====>

var enablePan = 1; // 1 or 0: enable or disable panning (default enabled)
var enableZoom = 1; // 1 or 0: enable or disable zooming (default enabled)
var enableDrag = 0; // 1 or 0: enable or disable dragging (default disabled)

/// <====
/// END OF CONFIGURATION 

var root = document.documentElement;

var state = 'none', svgRoot, stateTarget, stateOrigin, stateTf;

setupHandlers(root);

/**
 * Register handlers
 */
function setupHandlers(root){
	setAttributes(root, {
		"onmouseup" : "handleMouseUp(evt)",
		"onmousedown" : "handleMouseDown(evt)",
		"onmousemove" : "handleMouseMove(evt)",
		//"onmouseout" : "handleMouseUp(evt)", // Decomment this to stop the pan functionality when dragging out of the SVG element
	});

	if(navigator.userAgent.toLowerCase().indexOf('webkit') >= 0)
		window.addEventListener('mousewheel', handleMouseWheel, false); // Chrome/Safari
	else
		window.addEventListener('DOMMouseScroll', handleMouseWheel, false); // Others
}

/**
 * Retrieves the root element for SVG manipulation. The element is then cached into the svgRoot global variable.
 */
function getRoot(root) {
	if(typeof(svgRoot) == "undefined") {
		var g = null;

		g = root.getElementById("viewport");

		if(g == null)
			g = root.getElementsByTagName('g')[0];

		if(g == null)
			alert('Unable to obtain SVG root element');

		setCTM(g, g.getCTM());

		g.removeAttribute("viewBox");

		svgRoot = g;
	}

	return svgRoot;
}

/**
 * Instance an SVGPoint object with given event coordinates.
 */
function getEventPoint(evt) {
	var p = root.createSVGPoint();

	p.x = evt.clientX;
	p.y = evt.clientY;

	return p;
}

/**
 * Sets the current transform matrix of an element.
 */
function setCTM(element, matrix) {
	var s = "matrix(" + matrix.a + "," + matrix.b + "," + matrix.c + "," + matrix.d + "," + matrix.e + "," + matrix.f + ")";

	element.setAttribute("transform", s);
}

/**
 * Dumps a matrix to a string (useful for debug).
 */
function dumpMatrix(matrix) {
	var s = "[ " + matrix.a + ", " + matrix.c + ", " + matrix.e + "\n  " + matrix.b + ", " + matrix.d + ", " + matrix.f + "\n  0, 0, 1 ]";

	return s;
}

/**
 * Sets attributes of an element.
 */
function setAttributes(element, attributes){
	for (var i in attributes)
		element.setAttributeNS(null, i, attributes[i]);
}

/**
 * Handle mouse wheel event.
 */
function handleMouseWheel(evt) {
	if(!enableZoom)
		return;

	if(evt.preventDefault)
		evt.preventDefault();

	evt.returnValue = false;

	var svgDoc = evt.target.ownerDocument;

	var delta;

	if(evt.wheelDelta)
		delta = evt.wheelDelta / 3600; // Chrome/Safari
	else
		delta = evt.detail / -90; // Mozilla

	var z = 1 + delta; // Zoom factor: 0.9/1.1

	var g = getRoot(svgDoc);
	
	var p = getEventPoint(evt);

	p = p.matrixTransform(g.getCTM().inverse());

	// Compute new scale matrix in current mouse position
	var k = root.createSVGMatrix().translate(p.x, p.y).scale(z).translate(-p.x, -p.y);

        setCTM(g, g.getCTM().multiply(k));

	if(typeof(stateTf) == "undefined")
		stateTf = g.getCTM().inverse();

	stateTf = stateTf.multiply(k.inverse());
}

/**
 * Handle mouse move event.
 */
function handleMouseMove(evt) {
	if(evt.preventDefault)
		evt.preventDefault();

	evt.returnValue = false;

	var svgDoc = evt.target.ownerDocument;

	var g = getRoot(svgDoc);

	if(state == 'pan' && enablePan) {
		// Pan mode
		var p = getEventPoint(evt).matrixTransform(stateTf);

		setCTM(g, stateTf.inverse().translate(p.x - stateOrigin.x, p.y - stateOrigin.y));
	} else if(state == 'drag' && enableDrag) {
		// Drag mode
		var p = getEventPoint(evt).matrixTransform(g.getCTM().inverse());

		setCTM(stateTarget, root.createSVGMatrix().translate(p.x - stateOrigin.x, p.y - stateOrigin.y).multiply(g.getCTM().inverse()).multiply(stateTarget.getCTM()));

		stateOrigin = p;
	}
}

/**
 * Handle click event.
 */
function handleMouseDown(evt) {
	if(evt.preventDefault)
		evt.preventDefault();

	evt.returnValue = false;

	var svgDoc = evt.target.ownerDocument;

	var g = getRoot(svgDoc);

	if(
		evt.target.tagName == "svg" 
		|| !enableDrag // Pan anyway when drag is disabled and the user clicked on an element 
	) {
		// Pan mode
		state = 'pan';

		stateTf = g.getCTM().inverse();

		stateOrigin = getEventPoint(evt).matrixTransform(stateTf);
	} else {
		// Drag mode
		state = 'drag';

		stateTarget = evt.target;

		stateTf = g.getCTM().inverse();

		stateOrigin = getEventPoint(evt).matrixTransform(stateTf);
	}
}

/**
 * Handle mouse button release event.
 */
function handleMouseUp(evt) {
	if(evt.preventDefault)
		evt.preventDefault();

	evt.returnValue = false;

	var svgDoc = evt.target.ownerDocument;

	if(state == 'pan' || state == 'drag') {
		// Quit pan mode
		state = '';
	}
}

]]></script><g id="viewport" transform="scale(0.5,0.5) translate(0,0)"><g id="graph0" class="graph" transform="scale(1 1) rotate(0) translate(4 1122)">
<title>searcher</title>
<polygon fill="#ffffff" stroke="transparent" points="-4,4 -4,-1122 1052,-1122 1052,4 -4,4"/>
<g id="clust1" class="cluster">
<title>cluster_L</title>
<polygon fill="none" stroke="#000000" points="8,-911 8,-1110 678,-1110 678,-911 8,-911"/>
</g>
<!-- L -->
<g id="node1" class="node">
<title>L</title>
<polygon fill="#f8f8f8" stroke="#000000" points="670,-1102 16,-1102 16,-919 670,-919 670,-1102"/>
<text text-anchor="start" x="24" y="-1072.4" font-family="Times,serif" font-size="32.00" fill="#000000">File: searcher</text>
<text text-anchor="start" x="24" y="-1037.4" font-family="Times,serif" font-size="32.00" fill="#000000">Type: inuse_space</text>
<text text-anchor="start" x="24" y="-1002.4" font-family="Times,serif" font-size="32.00" fill="#000000">Time: May 19, 2017 at 11:19pm (MSK)</text>
<text text-anchor="start" x="24" y="-967.4" font-family="Times,serif" font-size="32.00" fill="#000000">196.24MB of 198.75MB total (98.74%)</text>
<text text-anchor="start" x="24" y="-932.4" font-family="Times,serif" font-size="32.00" fill="#000000">Dropped 71 nodes (cum &lt;= 0.99MB)</text>
</g>
<!-- N1 -->
<g id="node2" class="node">
<title>N1</title>
<g id="a_node2"><a xlink:title="runtime.rawstringtmp (161.09MB)">
<polygon fill="#f8f8f8" stroke="#000000" points="888.5,-60 603.5,-60 603.5,0 888.5,0 888.5,-60"/>
<text text-anchor="middle" x="746" y="-36.8" font-family="Times,serif" font-size="24.00" fill="#000000">runtime.rawstringtmp</text>
<text text-anchor="middle" x="746" y="-10.8" font-family="Times,serif" font-size="24.00" fill="#000000">161.09MB(81.05%)</text>
</a>
</g>
</g>
<!-- N2 -->
<g id="node3" class="node">
<title>N2</title>
<g id="a_node3"><a xlink:title="main.main.func1 (197.24MB)">
<polygon fill="#f8f8f8" stroke="#000000" points="832.5,-520 659.5,-520 659.5,-467 832.5,-467 832.5,-520"/>
<text text-anchor="middle" x="746" y="-504.8" font-family="Times,serif" font-size="14.00" fill="#000000">main.main.func1</text>
<text text-anchor="middle" x="746" y="-489.8" font-family="Times,serif" font-size="14.00" fill="#000000">22.15MB(11.15%)</text>
<text text-anchor="middle" x="746" y="-474.8" font-family="Times,serif" font-size="14.00" fill="#000000">of 197.24MB(99.24%)</text>
</a>
</g>
</g>
<!-- N7 -->
<g id="node8" class="node">
<title>N7</title>
<g id="a_node8"><a xlink:title="io/ioutil.ReadAll (8MB)">
<polygon fill="#f8f8f8" stroke="#000000" points="454,-416 366,-416 366,-380 454,-380 454,-416"/>
<text text-anchor="middle" x="410" y="-400.6" font-family="Times,serif" font-size="8.00" fill="#000000">io/ioutil.ReadAll</text>
<text text-anchor="middle" x="410" y="-391.6" font-family="Times,serif" font-size="8.00" fill="#000000">0 of 8MB(4.03%)</text>
</a>
</g>
</g>
<!-- N2&#45;&gt;N7 -->
<g id="edge18" class="edge">
<title>N2&#45;&gt;N7</title>
<g id="a_edge18"><a xlink:title="main.main.func1 &#45;&gt; io/ioutil.ReadAll (8MB)">
<path fill="none" stroke="#000000" d="M659.4717,-468.9064C597.7294,-451.3576 516.6161,-428.3031 463.907,-413.3218"/>
<polygon fill="#000000" stroke="#000000" points="464.6585,-409.8968 454.0826,-410.5294 462.7447,-416.6301 464.6585,-409.8968"/>
</a>
</g>
<g id="a_edge18&#45;label"><a xlink:title="main.main.func1 &#45;&gt; io/ioutil.ReadAll (8MB)">
<text text-anchor="middle" x="608.5" y="-437.8" font-family="Times,serif" font-size="14.00" fill="#000000"> 8MB</text>
</a>
</g>
</g>
<!-- N9 -->
<g id="node10" class="node">
<title>N9</title>
<g id="a_node10"><a xlink:title="main.(*User).UnmarshalJSON (89.51MB)">
<polygon fill="#f8f8f8" stroke="#000000" points="818,-416 674,-416 674,-380 818,-380 818,-416"/>
<text text-anchor="middle" x="746" y="-400.6" font-family="Times,serif" font-size="8.00" fill="#000000">main.(*User).UnmarshalJSON</text>
<text text-anchor="middle" x="746" y="-391.6" font-family="Times,serif" font-size="8.00" fill="#000000">0 of 89.51MB(45.04%)</text>
</a>
</g>
</g>
<!-- N2&#45;&gt;N9 -->
<g id="edge8" class="edge">
<title>N2&#45;&gt;N9</title>
<g id="a_edge8"><a xlink:title="main.main.func1 &#45;&gt; main.(*User).UnmarshalJSON (89.51MB)">
<path fill="none" stroke="#000000" stroke-width="3" d="M746,-466.8979C746,-454.2213 746,-439.0527 746,-426.1791"/>
<polygon fill="#000000" stroke="#000000" stroke-width="3" points="749.5001,-426.0101 746,-416.0102 742.5001,-426.0102 749.5001,-426.0101"/>
</a>
</g>
<g id="a_edge8&#45;label"><a xlink:title="main.main.func1 &#45;&gt; main.(*User).UnmarshalJSON (89.51MB)">
<text text-anchor="middle" x="781" y="-437.8" font-family="Times,serif" font-size="14.00" fill="#000000"> 89.51MB</text>
</a>
</g>
</g>
<!-- N14 -->
<g id="node15" class="node">
<title>N14</title>
<g id="a_node15"><a xlink:title="runtime.concatstring2 (43.74MB)">
<polygon fill="#f8f8f8" stroke="#000000" points="632,-416 520,-416 520,-380 632,-380 632,-416"/>
<text text-anchor="middle" x="576" y="-400.6" font-family="Times,serif" font-size="8.00" fill="#000000">runtime.concatstring2</text>
<text text-anchor="middle" x="576" y="-391.6" font-family="Times,serif" font-size="8.00" fill="#000000">0 of 43.74MB(22.01%)</text>
</a>
</g>
</g>
<!-- N2&#45;&gt;N14 -->
<g id="edge11" class="edge">
<title>N2&#45;&gt;N14</title>
<g id="a_edge11"><a xlink:title="main.main.func1 &#45;&gt; runtime.concatstring2 (43.74MB)">
<path fill="none" stroke="#000000" stroke-width="2" d="M698.6455,-466.8979C672.9206,-452.4466 641.4306,-434.7566 616.8005,-420.9203"/>
<polygon fill="#000000" stroke="#000000" stroke-width="2" points="618.4927,-417.8565 608.06,-416.0102 615.0642,-423.9594 618.4927,-417.8565"/>
</a>
</g>
<g id="a_edge11&#45;label"><a xlink:title="main.main.func1 &#45;&gt; runtime.concatstring2 (43.74MB)">
<text text-anchor="middle" x="702" y="-437.8" font-family="Times,serif" font-size="14.00" fill="#000000"> 43.74MB</text>
</a>
</g>
</g>
<!-- N17 -->
<g id="node18" class="node">
<title>N17</title>
<g id="a_node18"><a xlink:title="runtime.slicebytetostring (117.35MB)">
<polygon fill="#f8f8f8" stroke="#000000" points="808,-147 684,-147 684,-111 808,-111 808,-147"/>
<text text-anchor="middle" x="746" y="-131.6" font-family="Times,serif" font-size="8.00" fill="#000000">runtime.slicebytetostring</text>
<text text-anchor="middle" x="746" y="-122.6" font-family="Times,serif" font-size="8.00" fill="#000000">0 of 117.35MB(59.05%)</text>
</a>
</g>
</g>
<!-- N2&#45;&gt;N17 -->
<g id="edge14" class="edge">
<title>N2&#45;&gt;N17</title>
<g id="a_edge14"><a xlink:title="main.main.func1 &#45;&gt; runtime.slicebytetostring (32.34MB)">
<path fill="none" stroke="#000000" d="M832.7182,-474.6571C898.6144,-457.7496 978,-430.6131 978,-398 978,-398 978,-398 978,-216 978,-181.3548 886.1496,-155.864 818.0354,-141.7238"/>
<polygon fill="#000000" stroke="#000000" points="818.6684,-138.2809 808.1717,-139.7201 817.2748,-145.1408 818.6684,-138.2809"/>
</a>
</g>
<g id="a_edge14&#45;label"><a xlink:title="main.main.func1 &#45;&gt; runtime.slicebytetostring (32.34MB)">
<text text-anchor="middle" x="1013" y="-303.3" font-family="Times,serif" font-size="14.00" fill="#000000"> 32.34MB</text>
</a>
</g>
</g>
<!-- N3 -->
<g id="node4" class="node">
<title>N3</title>
<g id="a_node4"><a xlink:title="bytes.makeSlice (8MB)">
<polygon fill="#f8f8f8" stroke="#000000" points="415,-147 301,-147 301,-111 415,-111 415,-147"/>
<text text-anchor="middle" x="358" y="-132.4" font-family="Times,serif" font-size="12.00" fill="#000000">bytes.makeSlice</text>
<text text-anchor="middle" x="358" y="-119.4" font-family="Times,serif" font-size="12.00" fill="#000000">8MB(4.03%)</text>
</a>
</g>
</g>
<!-- N4 -->
<g id="node5" class="node">
<title>N4</title>
<g id="a_node5"><a xlink:title="main.easyjson6a975c40DecodeMsuGo11899HomeworkSearcher (89.51MB)">
<polygon fill="#f8f8f8" stroke="#000000" points="941.5,-329 550.5,-329 550.5,-285 941.5,-285 941.5,-329"/>
<text text-anchor="middle" x="746" y="-316.2" font-family="Times,serif" font-size="11.00" fill="#000000">main.easyjson6a975c40DecodeMsuGo11899HomeworkSearcher</text>
<text text-anchor="middle" x="746" y="-304.2" font-family="Times,serif" font-size="11.00" fill="#000000">5MB(2.52%)</text>
<text text-anchor="middle" x="746" y="-292.2" font-family="Times,serif" font-size="11.00" fill="#000000">of 89.51MB(45.04%)</text>
</a>
</g>
</g>
<!-- N6 -->
<g id="node7" class="node">
<title>N6</title>
<g id="a_node7"><a xlink:title="github.com/mailru/easyjson/jlexer.(*Lexer).String (84.51MB)">
<polygon fill="#f8f8f8" stroke="#000000" points="859.5,-234 632.5,-234 632.5,-198 859.5,-198 859.5,-234"/>
<text text-anchor="middle" x="746" y="-218.6" font-family="Times,serif" font-size="8.00" fill="#000000">github.com/mailru/easyjson/jlexer.(*Lexer).String</text>
<text text-anchor="middle" x="746" y="-209.6" font-family="Times,serif" font-size="8.00" fill="#000000">0 of 84.51MB(42.52%)</text>
</a>
</g>
</g>
<!-- N4&#45;&gt;N6 -->
<g id="edge10" class="edge">
<title>N4&#45;&gt;N6</title>
<g id="a_edge10"><a xlink:title="main.easyjson6a975c40DecodeMsuGo11899HomeworkSearcher &#45;&gt; github.com/mailru/easyjson/jlexer.(*Lexer).String (84.51MB)">
<path fill="none" stroke="#000000" stroke-width="3" d="M746,-284.9714C746,-272.8075 746,-257.5615 746,-244.499"/>
<polygon fill="#000000" stroke="#000000" stroke-width="3" points="749.5001,-244.1556 746,-234.1556 742.5001,-244.1556 749.5001,-244.1556"/>
</a>
</g>
<g id="a_edge10&#45;label"><a xlink:title="main.easyjson6a975c40DecodeMsuGo11899HomeworkSearcher &#45;&gt; github.com/mailru/easyjson/jlexer.(*Lexer).String (84.51MB)">
<text text-anchor="middle" x="781" y="-255.8" font-family="Times,serif" font-size="14.00" fill="#000000"> 84.51MB</text>
</a>
</g>
</g>
<!-- N5 -->
<g id="node6" class="node">
<title>N5</title>
<g id="a_node6"><a xlink:title="bytes.(*Buffer).ReadFrom (8MB)">
<polygon fill="#f8f8f8" stroke="#000000" points="421,-234 295,-234 295,-198 421,-198 421,-234"/>
<text text-anchor="middle" x="358" y="-218.6" font-family="Times,serif" font-size="8.00" fill="#000000">bytes.(*Buffer).ReadFrom</text>
<text text-anchor="middle" x="358" y="-209.6" font-family="Times,serif" font-size="8.00" fill="#000000">0 of 8MB(4.03%)</text>
</a>
</g>
</g>
<!-- N5&#45;&gt;N3 -->
<g id="edge15" class="edge">
<title>N5&#45;&gt;N3</title>
<g id="a_edge15"><a xlink:title="bytes.(*Buffer).ReadFrom &#45;&gt; bytes.makeSlice (8MB)">
<path fill="none" stroke="#000000" d="M358,-197.9735C358,-186.1918 358,-170.5607 358,-157.1581"/>
<polygon fill="#000000" stroke="#000000" points="361.5001,-157.0033 358,-147.0034 354.5001,-157.0034 361.5001,-157.0033"/>
</a>
</g>
<g id="a_edge15&#45;label"><a xlink:title="bytes.(*Buffer).ReadFrom &#45;&gt; bytes.makeSlice (8MB)">
<text text-anchor="middle" x="377.5" y="-168.8" font-family="Times,serif" font-size="14.00" fill="#000000"> 8MB</text>
</a>
</g>
</g>
<!-- N6&#45;&gt;N17 -->
<g id="edge9" class="edge">
<title>N6&#45;&gt;N17</title>
<g id="a_edge9"><a xlink:title="github.com/mailru/easyjson/jlexer.(*Lexer).String &#45;&gt; runtime.slicebytetostring (84.51MB)">
<path fill="none" stroke="#000000" stroke-width="3" d="M746,-197.9735C746,-186.1918 746,-170.5607 746,-157.1581"/>
<polygon fill="#000000" stroke="#000000" stroke-width="3" points="749.5001,-157.0033 746,-147.0034 742.5001,-157.0034 749.5001,-157.0033"/>
</a>
</g>
<g id="a_edge9&#45;label"><a xlink:title="github.com/mailru/easyjson/jlexer.(*Lexer).String &#45;&gt; runtime.slicebytetostring (84.51MB)">
<text text-anchor="middle" x="781" y="-168.8" font-family="Times,serif" font-size="14.00" fill="#000000"> 84.51MB</text>
</a>
</g>
</g>
<!-- N8 -->
<g id="node9" class="node">
<title>N8</title>
<g id="a_node9"><a xlink:title="io/ioutil.readAll (8MB)">
<polygon fill="#f8f8f8" stroke="#000000" points="402,-325 314,-325 314,-289 402,-289 402,-325"/>
<text text-anchor="middle" x="358" y="-309.6" font-family="Times,serif" font-size="8.00" fill="#000000">io/ioutil.readAll</text>
<text text-anchor="middle" x="358" y="-300.6" font-family="Times,serif" font-size="8.00" fill="#000000">0 of 8MB(4.03%)</text>
</a>
</g>
</g>
<!-- N7&#45;&gt;N8 -->
<g id="edge16" class="edge">
<title>N7&#45;&gt;N8</title>
<g id="a_edge16"><a xlink:title="io/ioutil.ReadAll &#45;&gt; io/ioutil.readAll (8MB)">
<path fill="none" stroke="#000000" d="M399.477,-379.5848C391.9567,-366.4243 381.7203,-348.5106 373.2986,-333.7725"/>
<polygon fill="#000000" stroke="#000000" points="376.3302,-332.0232 368.3299,-325.0773 370.2524,-335.4962 376.3302,-332.0232"/>
</a>
</g>
<g id="a_edge16&#45;label"><a xlink:title="io/ioutil.ReadAll &#45;&gt; io/ioutil.readAll (8MB)">
<text text-anchor="middle" x="408.5" y="-350.8" font-family="Times,serif" font-size="14.00" fill="#000000"> 8MB</text>
</a>
</g>
</g>
<!-- N8&#45;&gt;N5 -->
<g id="edge17" class="edge">
<title>N8&#45;&gt;N5</title>
<g id="a_edge17"><a xlink:title="io/ioutil.readAll &#45;&gt; bytes.(*Buffer).ReadFrom (8MB)">
<path fill="none" stroke="#000000" d="M358,-288.5848C358,-275.9209 358,-258.8558 358,-244.4541"/>
<polygon fill="#000000" stroke="#000000" points="361.5001,-244.0772 358,-234.0773 354.5001,-244.0773 361.5001,-244.0772"/>
</a>
</g>
<g id="a_edge17&#45;label"><a xlink:title="io/ioutil.readAll &#45;&gt; bytes.(*Buffer).ReadFrom (8MB)">
<text text-anchor="middle" x="377.5" y="-255.8" font-family="Times,serif" font-size="14.00" fill="#000000"> 8MB</text>
</a>
</g>
</g>
<!-- N9&#45;&gt;N4 -->
<g id="edge7" class="edge">
<title>N9&#45;&gt;N4</title>
<g id="a_edge7"><a xlink:title="main.(*User).UnmarshalJSON &#45;&gt; main.easyjson6a975c40DecodeMsuGo11899HomeworkSearcher (89.51MB)">
<path fill="none" stroke="#000000" stroke-width="3" d="M746,-379.5848C746,-368.1105 746,-353.0231 746,-339.5774"/>
<polygon fill="#000000" stroke="#000000" stroke-width="3" points="749.5001,-339.2465 746,-329.2465 742.5001,-339.2466 749.5001,-339.2465"/>
</a>
</g>
<g id="a_edge7&#45;label"><a xlink:title="main.(*User).UnmarshalJSON &#45;&gt; main.easyjson6a975c40DecodeMsuGo11899HomeworkSearcher (89.51MB)">
<text text-anchor="middle" x="781" y="-350.8" font-family="Times,serif" font-size="14.00" fill="#000000"> 89.51MB</text>
</a>
</g>
</g>
<!-- N10 -->
<g id="node11" class="node">
<title>N10</title>
<g id="a_node11"><a xlink:title="net/http.(*ServeMux).ServeHTTP (197.24MB)">
<polygon fill="#f8f8f8" stroke="#000000" points="824.5,-694 667.5,-694 667.5,-658 824.5,-658 824.5,-694"/>
<text text-anchor="middle" x="746" y="-678.6" font-family="Times,serif" font-size="8.00" fill="#000000">net/http.(*ServeMux).ServeHTTP</text>
<text text-anchor="middle" x="746" y="-669.6" font-family="Times,serif" font-size="8.00" fill="#000000">0 of 197.24MB(99.24%)</text>
</a>
</g>
</g>
<!-- N12 -->
<g id="node13" class="node">
<title>N12</title>
<g id="a_node13"><a xlink:title="net/http.HandlerFunc.ServeHTTP (197.24MB)">
<polygon fill="#f8f8f8" stroke="#000000" points="826,-607 666,-607 666,-571 826,-571 826,-607"/>
<text text-anchor="middle" x="746" y="-591.6" font-family="Times,serif" font-size="8.00" fill="#000000">net/http.HandlerFunc.ServeHTTP</text>
<text text-anchor="middle" x="746" y="-582.6" font-family="Times,serif" font-size="8.00" fill="#000000">0 of 197.24MB(99.24%)</text>
</a>
</g>
</g>
<!-- N10&#45;&gt;N12 -->
<g id="edge2" class="edge">
<title>N10&#45;&gt;N12</title>
<g id="a_edge2"><a xlink:title="net/http.(*ServeMux).ServeHTTP &#45;&gt; net/http.HandlerFunc.ServeHTTP (197.24MB)">
<path fill="none" stroke="#000000" stroke-width="5" d="M746,-657.9735C746,-646.1918 746,-630.5607 746,-617.1581"/>
<polygon fill="#000000" stroke="#000000" stroke-width="5" points="750.3751,-617.0033 746,-607.0034 741.6251,-617.0034 750.3751,-617.0033"/>
</a>
</g>
<g id="a_edge2&#45;label"><a xlink:title="net/http.(*ServeMux).ServeHTTP &#45;&gt; net/http.HandlerFunc.ServeHTTP (197.24MB)">
<text text-anchor="middle" x="785.5" y="-628.8" font-family="Times,serif" font-size="14.00" fill="#000000"> 197.24MB</text>
</a>
</g>
</g>
<!-- N11 -->
<g id="node12" class="node">
<title>N11</title>
<g id="a_node12"><a xlink:title="net/http.(*conn).serve (197.75MB)">
<polygon fill="#f8f8f8" stroke="#000000" points="804.5,-868 687.5,-868 687.5,-832 804.5,-832 804.5,-868"/>
<text text-anchor="middle" x="746" y="-852.6" font-family="Times,serif" font-size="8.00" fill="#000000">net/http.(*conn).serve</text>
<text text-anchor="middle" x="746" y="-843.6" font-family="Times,serif" font-size="8.00" fill="#000000">0 of 197.75MB(99.50%)</text>
</a>
</g>
</g>
<!-- N13 -->
<g id="node14" class="node">
<title>N13</title>
<g id="a_node14"><a xlink:title="net/http.serverHandler.ServeHTTP (197.24MB)">
<polygon fill="#f8f8f8" stroke="#000000" points="828.5,-781 663.5,-781 663.5,-745 828.5,-745 828.5,-781"/>
<text text-anchor="middle" x="746" y="-765.6" font-family="Times,serif" font-size="8.00" fill="#000000">net/http.serverHandler.ServeHTTP</text>
<text text-anchor="middle" x="746" y="-756.6" font-family="Times,serif" font-size="8.00" fill="#000000">0 of 197.24MB(99.24%)</text>
</a>
</g>
</g>
<!-- N11&#45;&gt;N13 -->
<g id="edge3" class="edge">
<title>N11&#45;&gt;N13</title>
<g id="a_edge3"><a xlink:title="net/http.(*conn).serve &#45;&gt; net/http.serverHandler.ServeHTTP (197.24MB)">
<path fill="none" stroke="#000000" stroke-width="5" d="M746,-831.9735C746,-820.1918 746,-804.5607 746,-791.1581"/>
<polygon fill="#000000" stroke="#000000" stroke-width="5" points="750.3751,-791.0033 746,-781.0034 741.6251,-791.0034 750.3751,-791.0033"/>
</a>
</g>
<g id="a_edge3&#45;label"><a xlink:title="net/http.(*conn).serve &#45;&gt; net/http.serverHandler.ServeHTTP (197.24MB)">
<text text-anchor="middle" x="785.5" y="-802.8" font-family="Times,serif" font-size="14.00" fill="#000000"> 197.24MB</text>
</a>
</g>
</g>
<!-- N12&#45;&gt;N2 -->
<g id="edge4" class="edge">
<title>N12&#45;&gt;N2</title>
<g id="a_edge4"><a xlink:title="net/http.HandlerFunc.ServeHTTP &#45;&gt; main.main.func1 (197.24MB)">
<path fill="none" stroke="#000000" stroke-width="5" d="M746,-570.5866C746,-559.184 746,-544.1373 746,-530.3662"/>
<polygon fill="#000000" stroke="#000000" stroke-width="5" points="750.3751,-530.1655 746,-520.1655 741.6251,-530.1656 750.3751,-530.1655"/>
</a>
</g>
<g id="a_edge4&#45;label"><a xlink:title="net/http.HandlerFunc.ServeHTTP &#45;&gt; main.main.func1 (197.24MB)">
<text text-anchor="middle" x="785.5" y="-541.8" font-family="Times,serif" font-size="14.00" fill="#000000"> 197.24MB</text>
</a>
</g>
</g>
<!-- N13&#45;&gt;N10 -->
<g id="edge5" class="edge">
<title>N13&#45;&gt;N10</title>
<g id="a_edge5"><a xlink:title="net/http.serverHandler.ServeHTTP &#45;&gt; net/http.(*ServeMux).ServeHTTP (197.24MB)">
<path fill="none" stroke="#000000" stroke-width="5" d="M746,-744.9735C746,-733.1918 746,-717.5607 746,-704.1581"/>
<polygon fill="#000000" stroke="#000000" stroke-width="5" points="750.3751,-704.0033 746,-694.0034 741.6251,-704.0034 750.3751,-704.0033"/>
</a>
</g>
<g id="a_edge5&#45;label"><a xlink:title="net/http.serverHandler.ServeHTTP &#45;&gt; net/http.(*ServeMux).ServeHTTP (197.24MB)">
<text text-anchor="middle" x="785.5" y="-715.8" font-family="Times,serif" font-size="14.00" fill="#000000"> 197.24MB</text>
</a>
</g>
</g>
<!-- N15 -->
<g id="node16" class="node">
<title>N15</title>
<g id="a_node16"><a xlink:title="runtime.concatstrings (43.74MB)">
<polygon fill="#f8f8f8" stroke="#000000" points="532,-325 420,-325 420,-289 532,-289 532,-325"/>
<text text-anchor="middle" x="476" y="-309.6" font-family="Times,serif" font-size="8.00" fill="#000000">runtime.concatstrings</text>
<text text-anchor="middle" x="476" y="-300.6" font-family="Times,serif" font-size="8.00" fill="#000000">0 of 43.74MB(22.01%)</text>
</a>
</g>
</g>
<!-- N14&#45;&gt;N15 -->
<g id="edge12" class="edge">
<title>N14&#45;&gt;N15</title>
<g id="a_edge12"><a xlink:title="runtime.concatstring2 &#45;&gt; runtime.concatstrings (43.74MB)">
<path fill="none" stroke="#000000" stroke-width="2" d="M555.7635,-379.5848C540.7556,-365.9276 520.1229,-347.1518 503.6023,-332.1181"/>
<polygon fill="#000000" stroke="#000000" stroke-width="2" points="505.6169,-329.2191 495.8651,-325.0773 500.9055,-334.3963 505.6169,-329.2191"/>
</a>
</g>
<g id="a_edge12&#45;label"><a xlink:title="runtime.concatstring2 &#45;&gt; runtime.concatstrings (43.74MB)">
<text text-anchor="middle" x="570" y="-350.8" font-family="Times,serif" font-size="14.00" fill="#000000"> 43.74MB</text>
</a>
</g>
</g>
<!-- N15&#45;&gt;N1 -->
<g id="edge13" class="edge">
<title>N15&#45;&gt;N1</title>
<g id="a_edge13"><a xlink:title="runtime.concatstrings &#45;&gt; runtime.rawstringtmp (43.74MB)">
<path fill="none" stroke="#000000" stroke-width="2" d="M493.7155,-288.8253C537.256,-244.1559 650.2301,-128.2529 709.1019,-67.8548"/>
<polygon fill="#000000" stroke="#000000" stroke-width="2" points="711.8754,-70.0236 716.3491,-60.4196 706.8627,-65.1376 711.8754,-70.0236"/>
</a>
</g>
<g id="a_edge13&#45;label"><a xlink:title="runtime.concatstrings &#45;&gt; runtime.rawstringtmp (43.74MB)">
<text text-anchor="middle" x="650" y="-168.8" font-family="Times,serif" font-size="14.00" fill="#000000"> 43.74MB</text>
</a>
</g>
</g>
<!-- N16 -->
<g id="node17" class="node">
<title>N16</title>
<g id="a_node17"><a xlink:title="runtime.goexit (198.25MB)">
<polygon fill="#f8f8f8" stroke="#000000" points="804.5,-1028.5 687.5,-1028.5 687.5,-992.5 804.5,-992.5 804.5,-1028.5"/>
<text text-anchor="middle" x="746" y="-1013.1" font-family="Times,serif" font-size="8.00" fill="#000000">runtime.goexit</text>
<text text-anchor="middle" x="746" y="-1004.1" font-family="Times,serif" font-size="8.00" fill="#000000">0 of 198.25MB(99.75%)</text>
</a>
</g>
</g>
<!-- N16&#45;&gt;N11 -->
<g id="edge1" class="edge">
<title>N16&#45;&gt;N11</title>
<g id="a_edge1"><a xlink:title="runtime.goexit &#45;&gt; net/http.(*conn).serve (197.75MB)">
<path fill="none" stroke="#000000" stroke-width="5" d="M746,-992.4006C746,-964.706 746,-911.5664 746,-878.6146"/>
<polygon fill="#000000" stroke="#000000" stroke-width="5" points="750.3751,-878.2795 746,-868.2795 741.6251,-878.2796 750.3751,-878.2795"/>
</a>
</g>
<g id="a_edge1&#45;label"><a xlink:title="runtime.goexit &#45;&gt; net/http.(*conn).serve (197.75MB)">
<text text-anchor="middle" x="785.5" y="-889.8" font-family="Times,serif" font-size="14.00" fill="#000000"> 197.75MB</text>
</a>
</g>
</g>
<!-- N17&#45;&gt;N1 -->
<g id="edge6" class="edge">
<title>N17&#45;&gt;N1</title>
<g id="a_edge6"><a xlink:title="runtime.slicebytetostring &#45;&gt; runtime.rawstringtmp (117.35MB)">
<path fill="none" stroke="#000000" stroke-width="3" d="M746,-110.8419C746,-99.4325 746,-84.2494 746,-70.1236"/>
<polygon fill="#000000" stroke="#000000" stroke-width="3" points="749.5001,-70.0938 746,-60.0939 742.5001,-70.0939 749.5001,-70.0938"/>
</a>
</g>
<g id="a_edge6&#45;label"><a xlink:title="runtime.slicebytetostring &#45;&gt; runtime.rawstringtmp (117.35MB)">
<text text-anchor="middle" x="785.5" y="-81.8" font-family="Times,serif" font-size="14.00" fill="#000000"> 117.35MB</text>
</a>
</g>
</g>
</g>
</g></svg>
