<?xml version="1.0" encoding="UTF-8" standalone="no"?>
<!DOCTYPE svg PUBLIC "-//W3C//DTD SVG 1.1//EN"
 "http://www.w3.org/Graphics/SVG/1.1/DTD/svg11.dtd">
<!-- Generated by graphviz version 2.40.1 (20161225.0304)
 -->
<!-- Title: searcher Pages: 1 -->
<svg width="100%" height="100%" xmlns="http://www.w3.org/2000/svg" xmlns:xlink="http://www.w3.org/1999/xlink">
<script type="text/ecmascript"><![CDATA[
/** 
 *  SVGPan library 1.2.1
 * ======================
 *
 * Given an unique existing element with id "viewport" (or when missing, the first g 
 * element), including the the library into any SVG adds the following capabilities:
 *
 *  - Mouse panning
 *  - Mouse zooming (using the wheel)
 *  - Object dragging
 *
 * You can configure the behavior of the pan/zoom/drag with the variables
 * listed in the CONFIGURATION section of this file.
 *
 * Known issues:
 *
 *  - Zooming (while panning) on Safari has still some issues
 *
 * Releases:
 *
 * 1.2.1, Mon Jul  4 00:33:18 CEST 2011, Andrea Leofreddi
 *	- Fixed a regression with mouse wheel (now working on Firefox 5)
 *	- Working with viewBox attribute (#4)
 *	- Added "use strict;" and fixed resulting warnings (#5)
 *	- Added configuration variables, dragging is disabled by default (#3)
 *
 * 1.2, Sat Mar 20 08:42:50 GMT 2010, Zeng Xiaohui
 *	Fixed a bug with browser mouse handler interaction
 *
 * 1.1, Wed Feb  3 17:39:33 GMT 2010, Zeng Xiaohui
 *	Updated the zoom code to support the mouse wheel on Safari/Chrome
 *
 * 1.0, Andrea Leofreddi
 *	First release
 *
 * This code is licensed under the following BSD license:
 *
 * Copyright 2009-2010 Andrea Leofreddi <a.leofreddi@itcharm.com>. All rights reserved.
 * 
 * Redistribution and use in source and binary forms, with or without modification, are
 * permitted provided that the following conditions are met:
 * 
 *    1. Redistributions of source code must retain the above copyright notice, this list of
 *       conditions and the following disclaimer.
 * 
 *    2. Redistributions in binary form must reproduce the above copyright notice, this list
 *       of conditions and the following disclaimer in the documentation and/or other materials
 *       provided with the distribution.
 * 
 * THIS SOFTWARE IS PROVIDED BY Andrea Leofreddi ``AS IS'' AND ANY EXPRESS OR IMPLIED
 * WARRANTIES, INCLUDING, BUT NOT LIMITED TO, THE IMPLIED WARRANTIES OF MERCHANTABILITY AND
 * FITNESS FOR A PARTICULAR PURPOSE ARE DISCLAIMED. IN NO EVENT SHALL Andrea Leofreddi OR
 * CONTRIBUTORS BE LIABLE FOR ANY DIRECT, INDIRECT, INCIDENTAL, SPECIAL, EXEMPLARY, OR
 * CONSEQUENTIAL DAMAGES (INCLUDING, BUT NOT LIMITED TO, PROCUREMENT OF SUBSTITUTE GOODS OR
 * SERVICES; LOSS OF USE, DATA, OR PROFITS; OR BUSINESS INTERRUPTION) HOWEVER CAUSED AND ON
 * ANY THEORY OF LIABILITY, WHETHER IN CONTRACT, STRICT LIABILITY, OR TORT (INCLUDING
 * NEGLIGENCE OR OTHERWISE) ARISING IN ANY WAY OUT OF THE USE OF THIS SOFTWARE, EVEN IF
 * ADVISED OF THE POSSIBILITY OF SUCH DAMAGE.
 * 
 * The views and conclusions contained in the software and documentation are those of the
 * authors and should not be interpreted as representing official policies, either expressed
 * or implied, of Andrea Leofreddi.
 */

"use strict";

/// CONFIGURATION 
/// ====>

var enablePan = 1; // 1 or 0: enable or disable panning (default enabled)
var enableZoom = 1; // 1 or 0: enable or disable zooming (default enabled)
var enableDrag = 0; // 1 or 0: enable or disable dragging (default disabled)

/// <====
/// END OF CONFIGURATION 

var root = document.documentElement;

var state = 'none', svgRoot, stateTarget, stateOrigin, stateTf;

setupHandlers(root);

/**
 * Register handlers
 */
function setupHandlers(root){
	setAttributes(root, {
		"onmouseup" : "handleMouseUp(evt)",
		"onmousedown" : "handleMouseDown(evt)",
		"onmousemove" : "handleMouseMove(evt)",
		//"onmouseout" : "handleMouseUp(evt)", // Decomment this to stop the pan functionality when dragging out of the SVG element
	});

	if(navigator.userAgent.toLowerCase().indexOf('webkit') >= 0)
		window.addEventListener('mousewheel', handleMouseWheel, false); // Chrome/Safari
	else
		window.addEventListener('DOMMouseScroll', handleMouseWheel, false); // Others
}

/**
 * Retrieves the root element for SVG manipulation. The element is then cached into the svgRoot global variable.
 */
function getRoot(root) {
	if(typeof(svgRoot) == "undefined") {
		var g = null;

		g = root.getElementById("viewport");

		if(g == null)
			g = root.getElementsByTagName('g')[0];

		if(g == null)
			alert('Unable to obtain SVG root element');

		setCTM(g, g.getCTM());

		g.removeAttribute("viewBox");

		svgRoot = g;
	}

	return svgRoot;
}

/**
 * Instance an SVGPoint object with given event coordinates.
 */
function getEventPoint(evt) {
	var p = root.createSVGPoint();

	p.x = evt.clientX;
	p.y = evt.clientY;

	return p;
}

/**
 * Sets the current transform matrix of an element.
 */
function setCTM(element, matrix) {
	var s = "matrix(" + matrix.a + "," + matrix.b + "," + matrix.c + "," + matrix.d + "," + matrix.e + "," + matrix.f + ")";

	element.setAttribute("transform", s);
}

/**
 * Dumps a matrix to a string (useful for debug).
 */
function dumpMatrix(matrix) {
	var s = "[ " + matrix.a + ", " + matrix.c + ", " + matrix.e + "\n  " + matrix.b + ", " + matrix.d + ", " + matrix.f + "\n  0, 0, 1 ]";

	return s;
}

/**
 * Sets attributes of an element.
 */
function setAttributes(element, attributes){
	for (var i in attributes)
		element.setAttributeNS(null, i, attributes[i]);
}

/**
 * Handle mouse wheel event.
 */
function handleMouseWheel(evt) {
	if(!enableZoom)
		return;

	if(evt.preventDefault)
		evt.preventDefault();

	evt.returnValue = false;

	var svgDoc = evt.target.ownerDocument;

	var delta;

	if(evt.wheelDelta)
		delta = evt.wheelDelta / 3600; // Chrome/Safari
	else
		delta = evt.detail / -90; // Mozilla

	var z = 1 + delta; // Zoom factor: 0.9/1.1

	var g = getRoot(svgDoc);
	
	var p = getEventPoint(evt);

	p = p.matrixTransform(g.getCTM().inverse());

	// Compute new scale matrix in current mouse position
	var k = root.createSVGMatrix().translate(p.x, p.y).scale(z).translate(-p.x, -p.y);

        setCTM(g, g.getCTM().multiply(k));

	if(typeof(stateTf) == "undefined")
		stateTf = g.getCTM().inverse();

	stateTf = stateTf.multiply(k.inverse());
}

/**
 * Handle mouse move event.
 */
function handleMouseMove(evt) {
	if(evt.preventDefault)
		evt.preventDefault();

	evt.returnValue = false;

	var svgDoc = evt.target.ownerDocument;

	var g = getRoot(svgDoc);

	if(state == 'pan' && enablePan) {
		// Pan mode
		var p = getEventPoint(evt).matrixTransform(stateTf);

		setCTM(g, stateTf.inverse().translate(p.x - stateOrigin.x, p.y - stateOrigin.y));
	} else if(state == 'drag' && enableDrag) {
		// Drag mode
		var p = getEventPoint(evt).matrixTransform(g.getCTM().inverse());

		setCTM(stateTarget, root.createSVGMatrix().translate(p.x - stateOrigin.x, p.y - stateOrigin.y).multiply(g.getCTM().inverse()).multiply(stateTarget.getCTM()));

		stateOrigin = p;
	}
}

/**
 * Handle click event.
 */
function handleMouseDown(evt) {
	if(evt.preventDefault)
		evt.preventDefault();

	evt.returnValue = false;

	var svgDoc = evt.target.ownerDocument;

	var g = getRoot(svgDoc);

	if(
		evt.target.tagName == "svg" 
		|| !enableDrag // Pan anyway when drag is disabled and the user clicked on an element 
	) {
		// Pan mode
		state = 'pan';

		stateTf = g.getCTM().inverse();

		stateOrigin = getEventPoint(evt).matrixTransform(stateTf);
	} else {
		// Drag mode
		state = 'drag';

		stateTarget = evt.target;

		stateTf = g.getCTM().inverse();

		stateOrigin = getEventPoint(evt).matrixTransform(stateTf);
	}
}

/**
 * Handle mouse button release event.
 */
function handleMouseUp(evt) {
	if(evt.preventDefault)
		evt.preventDefault();

	evt.returnValue = false;

	var svgDoc = evt.target.ownerDocument;

	if(state == 'pan' || state == 'drag') {
		// Quit pan mode
		state = '';
	}
}

]]></script><g id="viewport" transform="scale(0.5,0.5) translate(0,0)"><g id="graph0" class="graph" transform="scale(1 1) rotate(0) translate(4 1097)">
<title>searcher</title>
<polygon fill="#ffffff" stroke="transparent" points="-4,4 -4,-1097 864.5,-1097 864.5,4 -4,4"/>
<g id="clust1" class="cluster">
<title>cluster_L</title>
<polygon fill="none" stroke="#000000" points="8,-886 8,-1085 656,-1085 656,-886 8,-886"/>
</g>
<!-- L -->
<g id="node1" class="node">
<title>L</title>
<polygon fill="#f8f8f8" stroke="#000000" points="648,-1077 16,-1077 16,-894 648,-894 648,-1077"/>
<text text-anchor="start" x="24" y="-1047.4" font-family="Times,serif" font-size="32.00" fill="#000000">File: searcher</text>
<text text-anchor="start" x="24" y="-1012.4" font-family="Times,serif" font-size="32.00" fill="#000000">Type: inuse_space</text>
<text text-anchor="start" x="24" y="-977.4" font-family="Times,serif" font-size="32.00" fill="#000000">Time: May 20, 2017 at 3:33am (MSK)</text>
<text text-anchor="start" x="24" y="-942.4" font-family="Times,serif" font-size="32.00" fill="#000000">13.83MB of 13.83MB total ( &#160;100%)</text>
<text text-anchor="start" x="24" y="-907.4" font-family="Times,serif" font-size="32.00" fill="#000000">Dropped 40 nodes (cum &lt;= 0.07MB)</text>
</g>
<!-- N1 -->
<g id="node2" class="node">
<title>N1</title>
<g id="a_node2"><a xlink:title="runtime.rawstringtmp (13.83MB)">
<polygon fill="#f8f8f8" stroke="#000000" points="860.5,-60 575.5,-60 575.5,0 860.5,0 860.5,-60"/>
<text text-anchor="middle" x="718" y="-36.8" font-family="Times,serif" font-size="24.00" fill="#000000">runtime.rawstringtmp</text>
<text text-anchor="middle" x="718" y="-10.8" font-family="Times,serif" font-size="24.00" fill="#000000">13.83MB(100%)</text>
</a>
</g>
</g>
<!-- N2 -->
<g id="node3" class="node">
<title>N2</title>
<g id="a_node3"><a xlink:title="github.com/mailru/easyjson/jlexer.(*Lexer).String (1.50MB)">
<polygon fill="#f8f8f8" stroke="#000000" points="675.5,-234 448.5,-234 448.5,-198 675.5,-198 675.5,-234"/>
<text text-anchor="middle" x="562" y="-218.6" font-family="Times,serif" font-size="8.00" fill="#000000">github.com/mailru/easyjson/jlexer.(*Lexer).String</text>
<text text-anchor="middle" x="562" y="-209.6" font-family="Times,serif" font-size="8.00" fill="#000000">0 of 1.50MB(10.84%)</text>
</a>
</g>
</g>
<!-- N12 -->
<g id="node13" class="node">
<title>N12</title>
<g id="a_node13"><a xlink:title="runtime.slicebytetostring (1.50MB)">
<polygon fill="#f8f8f8" stroke="#000000" points="675,-147 551,-147 551,-111 675,-111 675,-147"/>
<text text-anchor="middle" x="613" y="-131.6" font-family="Times,serif" font-size="8.00" fill="#000000">runtime.slicebytetostring</text>
<text text-anchor="middle" x="613" y="-122.6" font-family="Times,serif" font-size="8.00" fill="#000000">0 of 1.50MB(10.84%)</text>
</a>
</g>
</g>
<!-- N2&#45;&gt;N12 -->
<g id="edge8" class="edge">
<title>N2&#45;&gt;N12</title>
<g id="a_edge8"><a xlink:title="github.com/mailru/easyjson/jlexer.(*Lexer).String &#45;&gt; runtime.slicebytetostring (1.50MB)">
<path fill="none" stroke="#000000" d="M572.5672,-197.9735C579.6789,-185.8418 589.1832,-169.6287 597.1901,-155.9698"/>
<polygon fill="#000000" stroke="#000000" points="600.4085,-157.4004 602.4463,-147.0034 594.3696,-153.8603 600.4085,-157.4004"/>
</a>
</g>
<g id="a_edge8&#45;label"><a xlink:title="github.com/mailru/easyjson/jlexer.(*Lexer).String &#45;&gt; runtime.slicebytetostring (1.50MB)">
<text text-anchor="middle" x="621.5" y="-168.8" font-family="Times,serif" font-size="14.00" fill="#000000"> 1.50MB</text>
</a>
</g>
</g>
<!-- N3 -->
<g id="node4" class="node">
<title>N3</title>
<g id="a_node4"><a xlink:title="main.(*User).UnmarshalJSON (1.50MB)">
<polygon fill="#f8f8f8" stroke="#000000" points="637,-408 493,-408 493,-372 637,-372 637,-408"/>
<text text-anchor="middle" x="565" y="-392.6" font-family="Times,serif" font-size="8.00" fill="#000000">main.(*User).UnmarshalJSON</text>
<text text-anchor="middle" x="565" y="-383.6" font-family="Times,serif" font-size="8.00" fill="#000000">0 of 1.50MB(10.84%)</text>
</a>
</g>
</g>
<!-- N4 -->
<g id="node5" class="node">
<title>N4</title>
<g id="a_node5"><a xlink:title="main.easyjson6a975c40DecodeMsuGo11899HomeworkSearcher (1.50MB)">
<polygon fill="#f8f8f8" stroke="#000000" points="689.5,-321 396.5,-321 396.5,-285 689.5,-285 689.5,-321"/>
<text text-anchor="middle" x="543" y="-305.6" font-family="Times,serif" font-size="8.00" fill="#000000">main.easyjson6a975c40DecodeMsuGo11899HomeworkSearcher</text>
<text text-anchor="middle" x="543" y="-296.6" font-family="Times,serif" font-size="8.00" fill="#000000">0 of 1.50MB(10.84%)</text>
</a>
</g>
</g>
<!-- N3&#45;&gt;N4 -->
<g id="edge9" class="edge">
<title>N3&#45;&gt;N4</title>
<g id="a_edge9"><a xlink:title="main.(*User).UnmarshalJSON &#45;&gt; main.easyjson6a975c40DecodeMsuGo11899HomeworkSearcher (1.50MB)">
<path fill="none" stroke="#000000" d="M560.4416,-371.9735C557.4328,-360.0751 553.4312,-344.2508 550.0199,-330.7606"/>
<polygon fill="#000000" stroke="#000000" points="553.3974,-329.8401 547.5526,-321.0034 546.611,-331.5563 553.3974,-329.8401"/>
</a>
</g>
<g id="a_edge9&#45;label"><a xlink:title="main.(*User).UnmarshalJSON &#45;&gt; main.easyjson6a975c40DecodeMsuGo11899HomeworkSearcher (1.50MB)">
<text text-anchor="middle" x="586.5" y="-342.8" font-family="Times,serif" font-size="14.00" fill="#000000"> 1.50MB</text>
</a>
</g>
</g>
<!-- N4&#45;&gt;N2 -->
<g id="edge10" class="edge">
<title>N4&#45;&gt;N2</title>
<g id="a_edge10"><a xlink:title="main.easyjson6a975c40DecodeMsuGo11899HomeworkSearcher &#45;&gt; github.com/mailru/easyjson/jlexer.(*Lexer).String (1.50MB)">
<path fill="none" stroke="#000000" d="M546.9368,-284.9735C549.5098,-273.1918 552.9235,-257.5607 555.8505,-244.1581"/>
<polygon fill="#000000" stroke="#000000" points="559.3539,-244.5199 558.0682,-234.0034 552.5151,-243.0263 559.3539,-244.5199"/>
</a>
</g>
<g id="a_edge10&#45;label"><a xlink:title="main.easyjson6a975c40DecodeMsuGo11899HomeworkSearcher &#45;&gt; github.com/mailru/easyjson/jlexer.(*Lexer).String (1.50MB)">
<text text-anchor="middle" x="584.5" y="-255.8" font-family="Times,serif" font-size="14.00" fill="#000000"> 1.50MB</text>
</a>
</g>
</g>
<!-- N5 -->
<g id="node6" class="node">
<title>N5</title>
<g id="a_node6"><a xlink:title="main.main.func1 (13.83MB)">
<polygon fill="#f8f8f8" stroke="#000000" points="770,-495 666,-495 666,-459 770,-459 770,-495"/>
<text text-anchor="middle" x="718" y="-479.6" font-family="Times,serif" font-size="8.00" fill="#000000">main.main.func1</text>
<text text-anchor="middle" x="718" y="-470.6" font-family="Times,serif" font-size="8.00" fill="#000000">0 of 13.83MB(100%)</text>
</a>
</g>
</g>
<!-- N5&#45;&gt;N3 -->
<g id="edge11" class="edge">
<title>N5&#45;&gt;N3</title>
<g id="a_edge11"><a xlink:title="main.main.func1 &#45;&gt; main.(*User).UnmarshalJSON (1.50MB)">
<path fill="none" stroke="#000000" d="M685.1969,-458.9943C674.8701,-453.2825 663.4378,-446.9143 653,-441 637.2239,-432.0609 619.945,-422.0873 604.9072,-413.3474"/>
<polygon fill="#000000" stroke="#000000" points="606.2704,-410.0911 595.8671,-408.0852 602.7489,-416.1408 606.2704,-410.0911"/>
</a>
</g>
<g id="a_edge11&#45;label"><a xlink:title="main.main.func1 &#45;&gt; main.(*User).UnmarshalJSON (1.50MB)">
<text text-anchor="middle" x="683.5" y="-429.8" font-family="Times,serif" font-size="14.00" fill="#000000"> 1.50MB</text>
</a>
</g>
</g>
<!-- N10 -->
<g id="node11" class="node">
<title>N10</title>
<g id="a_node11"><a xlink:title="runtime.concatstrings (12.33MB)">
<polygon fill="#f8f8f8" stroke="#000000" points="774,-408 662,-408 662,-372 774,-372 774,-408"/>
<text text-anchor="middle" x="718" y="-392.6" font-family="Times,serif" font-size="8.00" fill="#000000">runtime.concatstrings</text>
<text text-anchor="middle" x="718" y="-383.6" font-family="Times,serif" font-size="8.00" fill="#000000">0 of 12.33MB(89.16%)</text>
</a>
</g>
</g>
<!-- N5&#45;&gt;N10 -->
<g id="edge6" class="edge">
<title>N5&#45;&gt;N10</title>
<g id="a_edge6"><a xlink:title="main.main.func1 &#45;&gt; runtime.concatstrings (12.33MB)">
<path fill="none" stroke="#000000" stroke-width="5" d="M718,-458.9735C718,-447.1918 718,-431.5607 718,-418.1581"/>
<polygon fill="#000000" stroke="#000000" stroke-width="5" points="722.3751,-418.0033 718,-408.0034 713.6251,-418.0034 722.3751,-418.0033"/>
</a>
</g>
<g id="a_edge6&#45;label"><a xlink:title="main.main.func1 &#45;&gt; runtime.concatstrings (12.33MB)">
<text text-anchor="middle" x="753" y="-429.8" font-family="Times,serif" font-size="14.00" fill="#000000"> 12.33MB</text>
</a>
</g>
</g>
<!-- N6 -->
<g id="node7" class="node">
<title>N6</title>
<g id="a_node7"><a xlink:title="net/http.(*ServeMux).ServeHTTP (13.83MB)">
<polygon fill="#f8f8f8" stroke="#000000" points="796.5,-669 639.5,-669 639.5,-633 796.5,-633 796.5,-669"/>
<text text-anchor="middle" x="718" y="-653.6" font-family="Times,serif" font-size="8.00" fill="#000000">net/http.(*ServeMux).ServeHTTP</text>
<text text-anchor="middle" x="718" y="-644.6" font-family="Times,serif" font-size="8.00" fill="#000000">0 of 13.83MB(100%)</text>
</a>
</g>
</g>
<!-- N8 -->
<g id="node9" class="node">
<title>N8</title>
<g id="a_node9"><a xlink:title="net/http.HandlerFunc.ServeHTTP (13.83MB)">
<polygon fill="#f8f8f8" stroke="#000000" points="798,-582 638,-582 638,-546 798,-546 798,-582"/>
<text text-anchor="middle" x="718" y="-566.6" font-family="Times,serif" font-size="8.00" fill="#000000">net/http.HandlerFunc.ServeHTTP</text>
<text text-anchor="middle" x="718" y="-557.6" font-family="Times,serif" font-size="8.00" fill="#000000">0 of 13.83MB(100%)</text>
</a>
</g>
</g>
<!-- N6&#45;&gt;N8 -->
<g id="edge1" class="edge">
<title>N6&#45;&gt;N8</title>
<g id="a_edge1"><a xlink:title="net/http.(*ServeMux).ServeHTTP &#45;&gt; net/http.HandlerFunc.ServeHTTP (13.83MB)">
<path fill="none" stroke="#000000" stroke-width="6" d="M718,-632.9735C718,-621.1918 718,-605.5607 718,-592.1581"/>
<polygon fill="#000000" stroke="#000000" stroke-width="6" points="723.2501,-592.0033 718,-582.0034 712.7501,-592.0034 723.2501,-592.0033"/>
</a>
</g>
<g id="a_edge1&#45;label"><a xlink:title="net/http.(*ServeMux).ServeHTTP &#45;&gt; net/http.HandlerFunc.ServeHTTP (13.83MB)">
<text text-anchor="middle" x="753" y="-603.8" font-family="Times,serif" font-size="14.00" fill="#000000"> 13.83MB</text>
</a>
</g>
</g>
<!-- N7 -->
<g id="node8" class="node">
<title>N7</title>
<g id="a_node8"><a xlink:title="net/http.(*conn).serve (13.83MB)">
<polygon fill="#f8f8f8" stroke="#000000" points="773,-843 663,-843 663,-807 773,-807 773,-843"/>
<text text-anchor="middle" x="718" y="-827.6" font-family="Times,serif" font-size="8.00" fill="#000000">net/http.(*conn).serve</text>
<text text-anchor="middle" x="718" y="-818.6" font-family="Times,serif" font-size="8.00" fill="#000000">0 of 13.83MB(100%)</text>
</a>
</g>
</g>
<!-- N9 -->
<g id="node10" class="node">
<title>N9</title>
<g id="a_node10"><a xlink:title="net/http.serverHandler.ServeHTTP (13.83MB)">
<polygon fill="#f8f8f8" stroke="#000000" points="800.5,-756 635.5,-756 635.5,-720 800.5,-720 800.5,-756"/>
<text text-anchor="middle" x="718" y="-740.6" font-family="Times,serif" font-size="8.00" fill="#000000">net/http.serverHandler.ServeHTTP</text>
<text text-anchor="middle" x="718" y="-731.6" font-family="Times,serif" font-size="8.00" fill="#000000">0 of 13.83MB(100%)</text>
</a>
</g>
</g>
<!-- N7&#45;&gt;N9 -->
<g id="edge2" class="edge">
<title>N7&#45;&gt;N9</title>
<g id="a_edge2"><a xlink:title="net/http.(*conn).serve &#45;&gt; net/http.serverHandler.ServeHTTP (13.83MB)">
<path fill="none" stroke="#000000" stroke-width="6" d="M718,-806.9735C718,-795.1918 718,-779.5607 718,-766.1581"/>
<polygon fill="#000000" stroke="#000000" stroke-width="6" points="723.2501,-766.0033 718,-756.0034 712.7501,-766.0034 723.2501,-766.0033"/>
</a>
</g>
<g id="a_edge2&#45;label"><a xlink:title="net/http.(*conn).serve &#45;&gt; net/http.serverHandler.ServeHTTP (13.83MB)">
<text text-anchor="middle" x="753" y="-777.8" font-family="Times,serif" font-size="14.00" fill="#000000"> 13.83MB</text>
</a>
</g>
</g>
<!-- N8&#45;&gt;N5 -->
<g id="edge3" class="edge">
<title>N8&#45;&gt;N5</title>
<g id="a_edge3"><a xlink:title="net/http.HandlerFunc.ServeHTTP &#45;&gt; main.main.func1 (13.83MB)">
<path fill="none" stroke="#000000" stroke-width="6" d="M718,-545.9735C718,-534.1918 718,-518.5607 718,-505.1581"/>
<polygon fill="#000000" stroke="#000000" stroke-width="6" points="723.2501,-505.0033 718,-495.0034 712.7501,-505.0034 723.2501,-505.0033"/>
</a>
</g>
<g id="a_edge3&#45;label"><a xlink:title="net/http.HandlerFunc.ServeHTTP &#45;&gt; main.main.func1 (13.83MB)">
<text text-anchor="middle" x="753" y="-516.8" font-family="Times,serif" font-size="14.00" fill="#000000"> 13.83MB</text>
</a>
</g>
</g>
<!-- N9&#45;&gt;N6 -->
<g id="edge4" class="edge">
<title>N9&#45;&gt;N6</title>
<g id="a_edge4"><a xlink:title="net/http.serverHandler.ServeHTTP &#45;&gt; net/http.(*ServeMux).ServeHTTP (13.83MB)">
<path fill="none" stroke="#000000" stroke-width="6" d="M718,-719.9735C718,-708.1918 718,-692.5607 718,-679.1581"/>
<polygon fill="#000000" stroke="#000000" stroke-width="6" points="723.2501,-679.0033 718,-669.0034 712.7501,-679.0034 723.2501,-679.0033"/>
</a>
</g>
<g id="a_edge4&#45;label"><a xlink:title="net/http.serverHandler.ServeHTTP &#45;&gt; net/http.(*ServeMux).ServeHTTP (13.83MB)">
<text text-anchor="middle" x="753" y="-690.8" font-family="Times,serif" font-size="14.00" fill="#000000"> 13.83MB</text>
</a>
</g>
</g>
<!-- N10&#45;&gt;N1 -->
<g id="edge7" class="edge">
<title>N10&#45;&gt;N1</title>
<g id="a_edge7"><a xlink:title="runtime.concatstrings &#45;&gt; runtime.rawstringtmp (12.33MB)">
<path fill="none" stroke="#000000" stroke-width="5" d="M718,-371.6694C718,-354.0629 718,-326.7135 718,-303 718,-303 718,-303 718,-129 718,-109.7473 718,-88.3886 718,-70.4529"/>
<polygon fill="#000000" stroke="#000000" stroke-width="5" points="722.3751,-70.33 718,-60.3301 713.6251,-70.3301 722.3751,-70.33"/>
</a>
</g>
<g id="a_edge7&#45;label"><a xlink:title="runtime.concatstrings &#45;&gt; runtime.rawstringtmp (12.33MB)">
<text text-anchor="middle" x="753" y="-212.3" font-family="Times,serif" font-size="14.00" fill="#000000"> 12.33MB</text>
</a>
</g>
</g>
<!-- N11 -->
<g id="node12" class="node">
<title>N11</title>
<g id="a_node12"><a xlink:title="runtime.goexit (13.83MB)">
<polygon fill="#f8f8f8" stroke="#000000" points="770,-1003.5 666,-1003.5 666,-967.5 770,-967.5 770,-1003.5"/>
<text text-anchor="middle" x="718" y="-988.1" font-family="Times,serif" font-size="8.00" fill="#000000">runtime.goexit</text>
<text text-anchor="middle" x="718" y="-979.1" font-family="Times,serif" font-size="8.00" fill="#000000">0 of 13.83MB(100%)</text>
</a>
</g>
</g>
<!-- N11&#45;&gt;N7 -->
<g id="edge5" class="edge">
<title>N11&#45;&gt;N7</title>
<g id="a_edge5"><a xlink:title="runtime.goexit &#45;&gt; net/http.(*conn).serve (13.83MB)">
<path fill="none" stroke="#000000" stroke-width="6" d="M718,-967.4006C718,-939.706 718,-886.5664 718,-853.6146"/>
<polygon fill="#000000" stroke="#000000" stroke-width="6" points="723.2501,-853.2795 718,-843.2795 712.7501,-853.2796 723.2501,-853.2795"/>
</a>
</g>
<g id="a_edge5&#45;label"><a xlink:title="runtime.goexit &#45;&gt; net/http.(*conn).serve (13.83MB)">
<text text-anchor="middle" x="753" y="-864.8" font-family="Times,serif" font-size="14.00" fill="#000000"> 13.83MB</text>
</a>
</g>
</g>
<!-- N12&#45;&gt;N1 -->
<g id="edge12" class="edge">
<title>N12&#45;&gt;N1</title>
<g id="a_edge12"><a xlink:title="runtime.slicebytetostring &#45;&gt; runtime.rawstringtmp (1.50MB)">
<path fill="none" stroke="#000000" d="M621.1591,-110.603C626.3788,-100.2206 633.8788,-87.4706 643,-78 646.8874,-73.9636 651.1777,-70.1079 655.6789,-66.4627"/>
<polygon fill="#000000" stroke="#000000" points="658.1428,-68.9851 663.9672,-60.1349 653.895,-63.4212 658.1428,-68.9851"/>
</a>
</g>
<g id="a_edge12&#45;label"><a xlink:title="runtime.slicebytetostring &#45;&gt; runtime.rawstringtmp (1.50MB)">
<text text-anchor="middle" x="673.5" y="-81.8" font-family="Times,serif" font-size="14.00" fill="#000000"> 1.50MB</text>
</a>
</g>
</g>
</g>
</g></svg>
