<?xml version="1.0" encoding="UTF-8" standalone="no"?>
<!DOCTYPE svg PUBLIC "-//W3C//DTD SVG 1.1//EN"
 "http://www.w3.org/Graphics/SVG/1.1/DTD/svg11.dtd">
<!-- Generated by graphviz version 2.40.1 (20161225.0304)
 -->
<!-- Title: searcher Pages: 1 -->
<svg width="100%" height="100%" xmlns="http://www.w3.org/2000/svg" xmlns:xlink="http://www.w3.org/1999/xlink">
<script type="text/ecmascript"><![CDATA[
/** 
 *  SVGPan library 1.2.1
 * ======================
 *
 * Given an unique existing element with id "viewport" (or when missing, the first g 
 * element), including the the library into any SVG adds the following capabilities:
 *
 *  - Mouse panning
 *  - Mouse zooming (using the wheel)
 *  - Object dragging
 *
 * You can configure the behavior of the pan/zoom/drag with the variables
 * listed in the CONFIGURATION section of this file.
 *
 * Known issues:
 *
 *  - Zooming (while panning) on Safari has still some issues
 *
 * Releases:
 *
 * 1.2.1, Mon Jul  4 00:33:18 CEST 2011, Andrea Leofreddi
 *	- Fixed a regression with mouse wheel (now working on Firefox 5)
 *	- Working with viewBox attribute (#4)
 *	- Added "use strict;" and fixed resulting warnings (#5)
 *	- Added configuration variables, dragging is disabled by default (#3)
 *
 * 1.2, Sat Mar 20 08:42:50 GMT 2010, Zeng Xiaohui
 *	Fixed a bug with browser mouse handler interaction
 *
 * 1.1, Wed Feb  3 17:39:33 GMT 2010, Zeng Xiaohui
 *	Updated the zoom code to support the mouse wheel on Safari/Chrome
 *
 * 1.0, Andrea Leofreddi
 *	First release
 *
 * This code is licensed under the following BSD license:
 *
 * Copyright 2009-2010 Andrea Leofreddi <a.leofreddi@itcharm.com>. All rights reserved.
 * 
 * Redistribution and use in source and binary forms, with or without modification, are
 * permitted provided that the following conditions are met:
 * 
 *    1. Redistributions of source code must retain the above copyright notice, this list of
 *       conditions and the following disclaimer.
 * 
 *    2. Redistributions in binary form must reproduce the above copyright notice, this list
 *       of conditions and the following disclaimer in the documentation and/or other materials
 *       provided with the distribution.
 * 
 * THIS SOFTWARE IS PROVIDED BY Andrea Leofreddi ``AS IS'' AND ANY EXPRESS OR IMPLIED
 * WARRANTIES, INCLUDING, BUT NOT LIMITED TO, THE IMPLIED WARRANTIES OF MERCHANTABILITY AND
 * FITNESS FOR A PARTICULAR PURPOSE ARE DISCLAIMED. IN NO EVENT SHALL Andrea Leofreddi OR
 * CONTRIBUTORS BE LIABLE FOR ANY DIRECT, INDIRECT, INCIDENTAL, SPECIAL, EXEMPLARY, OR
 * CONSEQUENTIAL DAMAGES (INCLUDING, BUT NOT LIMITED TO, PROCUREMENT OF SUBSTITUTE GOODS OR
 * SERVICES; LOSS OF USE, DATA, OR PROFITS; OR BUSINESS INTERRUPTION) HOWEVER CAUSED AND ON
 * ANY THEORY OF LIABILITY, WHETHER IN CONTRACT, STRICT LIABILITY, OR TORT (INCLUDING
 * NEGLIGENCE OR OTHERWISE) ARISING IN ANY WAY OUT OF THE USE OF THIS SOFTWARE, EVEN IF
 * ADVISED OF THE POSSIBILITY OF SUCH DAMAGE.
 * 
 * The views and conclusions contained in the software and documentation are those of the
 * authors and should not be interpreted as representing official policies, either expressed
 * or implied, of Andrea Leofreddi.
 */

"use strict";

/// CONFIGURATION 
/// ====>

var enablePan = 1; // 1 or 0: enable or disable panning (default enabled)
var enableZoom = 1; // 1 or 0: enable or disable zooming (default enabled)
var enableDrag = 0; // 1 or 0: enable or disable dragging (default disabled)

/// <====
/// END OF CONFIGURATION 

var root = document.documentElement;

var state = 'none', svgRoot, stateTarget, stateOrigin, stateTf;

setupHandlers(root);

/**
 * Register handlers
 */
function setupHandlers(root){
	setAttributes(root, {
		"onmouseup" : "handleMouseUp(evt)",
		"onmousedown" : "handleMouseDown(evt)",
		"onmousemove" : "handleMouseMove(evt)",
		//"onmouseout" : "handleMouseUp(evt)", // Decomment this to stop the pan functionality when dragging out of the SVG element
	});

	if(navigator.userAgent.toLowerCase().indexOf('webkit') >= 0)
		window.addEventListener('mousewheel', handleMouseWheel, false); // Chrome/Safari
	else
		window.addEventListener('DOMMouseScroll', handleMouseWheel, false); // Others
}

/**
 * Retrieves the root element for SVG manipulation. The element is then cached into the svgRoot global variable.
 */
function getRoot(root) {
	if(typeof(svgRoot) == "undefined") {
		var g = null;

		g = root.getElementById("viewport");

		if(g == null)
			g = root.getElementsByTagName('g')[0];

		if(g == null)
			alert('Unable to obtain SVG root element');

		setCTM(g, g.getCTM());

		g.removeAttribute("viewBox");

		svgRoot = g;
	}

	return svgRoot;
}

/**
 * Instance an SVGPoint object with given event coordinates.
 */
function getEventPoint(evt) {
	var p = root.createSVGPoint();

	p.x = evt.clientX;
	p.y = evt.clientY;

	return p;
}

/**
 * Sets the current transform matrix of an element.
 */
function setCTM(element, matrix) {
	var s = "matrix(" + matrix.a + "," + matrix.b + "," + matrix.c + "," + matrix.d + "," + matrix.e + "," + matrix.f + ")";

	element.setAttribute("transform", s);
}

/**
 * Dumps a matrix to a string (useful for debug).
 */
function dumpMatrix(matrix) {
	var s = "[ " + matrix.a + ", " + matrix.c + ", " + matrix.e + "\n  " + matrix.b + ", " + matrix.d + ", " + matrix.f + "\n  0, 0, 1 ]";

	return s;
}

/**
 * Sets attributes of an element.
 */
function setAttributes(element, attributes){
	for (var i in attributes)
		element.setAttributeNS(null, i, attributes[i]);
}

/**
 * Handle mouse wheel event.
 */
function handleMouseWheel(evt) {
	if(!enableZoom)
		return;

	if(evt.preventDefault)
		evt.preventDefault();

	evt.returnValue = false;

	var svgDoc = evt.target.ownerDocument;

	var delta;

	if(evt.wheelDelta)
		delta = evt.wheelDelta / 3600; // Chrome/Safari
	else
		delta = evt.detail / -90; // Mozilla

	var z = 1 + delta; // Zoom factor: 0.9/1.1

	var g = getRoot(svgDoc);
	
	var p = getEventPoint(evt);

	p = p.matrixTransform(g.getCTM().inverse());

	// Compute new scale matrix in current mouse position
	var k = root.createSVGMatrix().translate(p.x, p.y).scale(z).translate(-p.x, -p.y);

        setCTM(g, g.getCTM().multiply(k));

	if(typeof(stateTf) == "undefined")
		stateTf = g.getCTM().inverse();

	stateTf = stateTf.multiply(k.inverse());
}

/**
 * Handle mouse move event.
 */
function handleMouseMove(evt) {
	if(evt.preventDefault)
		evt.preventDefault();

	evt.returnValue = false;

	var svgDoc = evt.target.ownerDocument;

	var g = getRoot(svgDoc);

	if(state == 'pan' && enablePan) {
		// Pan mode
		var p = getEventPoint(evt).matrixTransform(stateTf);

		setCTM(g, stateTf.inverse().translate(p.x - stateOrigin.x, p.y - stateOrigin.y));
	} else if(state == 'drag' && enableDrag) {
		// Drag mode
		var p = getEventPoint(evt).matrixTransform(g.getCTM().inverse());

		setCTM(stateTarget, root.createSVGMatrix().translate(p.x - stateOrigin.x, p.y - stateOrigin.y).multiply(g.getCTM().inverse()).multiply(stateTarget.getCTM()));

		stateOrigin = p;
	}
}

/**
 * Handle click event.
 */
function handleMouseDown(evt) {
	if(evt.preventDefault)
		evt.preventDefault();

	evt.returnValue = false;

	var svgDoc = evt.target.ownerDocument;

	var g = getRoot(svgDoc);

	if(
		evt.target.tagName == "svg" 
		|| !enableDrag // Pan anyway when drag is disabled and the user clicked on an element 
	) {
		// Pan mode
		state = 'pan';

		stateTf = g.getCTM().inverse();

		stateOrigin = getEventPoint(evt).matrixTransform(stateTf);
	} else {
		// Drag mode
		state = 'drag';

		stateTarget = evt.target;

		stateTf = g.getCTM().inverse();

		stateOrigin = getEventPoint(evt).matrixTransform(stateTf);
	}
}

/**
 * Handle mouse button release event.
 */
function handleMouseUp(evt) {
	if(evt.preventDefault)
		evt.preventDefault();

	evt.returnValue = false;

	var svgDoc = evt.target.ownerDocument;

	if(state == 'pan' || state == 'drag') {
		// Quit pan mode
		state = '';
	}
}

]]></script><g id="viewport" transform="scale(0.5,0.5) translate(0,0)"><g id="graph0" class="graph" transform="scale(1 1) rotate(0) translate(4 1097)">
<title>searcher</title>
<polygon fill="#ffffff" stroke="transparent" points="-4,4 -4,-1097 885.5,-1097 885.5,4 -4,4"/>
<g id="clust1" class="cluster">
<title>cluster_L</title>
<polygon fill="none" stroke="#000000" points="8,-886 8,-1085 678,-1085 678,-886 8,-886"/>
</g>
<!-- L -->
<g id="node1" class="node">
<title>L</title>
<polygon fill="#f8f8f8" stroke="#000000" points="669.5,-1077 16.5,-1077 16.5,-894 669.5,-894 669.5,-1077"/>
<text text-anchor="start" x="24.5" y="-1047.4" font-family="Times,serif" font-size="32.00" fill="#000000">File: searcher</text>
<text text-anchor="start" x="24.5" y="-1012.4" font-family="Times,serif" font-size="32.00" fill="#000000">Type: alloc_space</text>
<text text-anchor="start" x="24.5" y="-977.4" font-family="Times,serif" font-size="32.00" fill="#000000">Time: May 20, 2017 at 12:47am (MSK)</text>
<text text-anchor="start" x="24.5" y="-942.4" font-family="Times,serif" font-size="32.00" fill="#000000">65.27GB of 65.38GB total (99.83%)</text>
<text text-anchor="start" x="24.5" y="-907.4" font-family="Times,serif" font-size="32.00" fill="#000000">Dropped 56 nodes (cum &lt;= 0.33GB)</text>
</g>
<!-- N1 -->
<g id="node2" class="node">
<title>N1</title>
<g id="a_node2"><a xlink:title="runtime.rawstringtmp (65.27GB)">
<polygon fill="#f8f8f8" stroke="#000000" points="881.5,-60 596.5,-60 596.5,0 881.5,0 881.5,-60"/>
<text text-anchor="middle" x="739" y="-36.8" font-family="Times,serif" font-size="24.00" fill="#000000">runtime.rawstringtmp</text>
<text text-anchor="middle" x="739" y="-10.8" font-family="Times,serif" font-size="24.00" fill="#000000">65.27GB(99.83%)</text>
</a>
</g>
</g>
<!-- N2 -->
<g id="node3" class="node">
<title>N2</title>
<g id="a_node3"><a xlink:title="github.com/mailru/easyjson/jlexer.(*Lexer).String (6.15GB)">
<polygon fill="#f8f8f8" stroke="#000000" points="696.5,-234 469.5,-234 469.5,-198 696.5,-198 696.5,-234"/>
<text text-anchor="middle" x="583" y="-218.6" font-family="Times,serif" font-size="8.00" fill="#000000">github.com/mailru/easyjson/jlexer.(*Lexer).String</text>
<text text-anchor="middle" x="583" y="-209.6" font-family="Times,serif" font-size="8.00" fill="#000000">0 of 6.15GB(9.40%)</text>
</a>
</g>
</g>
<!-- N12 -->
<g id="node13" class="node">
<title>N12</title>
<g id="a_node13"><a xlink:title="runtime.slicebytetostring (6.20GB)">
<polygon fill="#f8f8f8" stroke="#000000" points="696,-147 572,-147 572,-111 696,-111 696,-147"/>
<text text-anchor="middle" x="634" y="-131.6" font-family="Times,serif" font-size="8.00" fill="#000000">runtime.slicebytetostring</text>
<text text-anchor="middle" x="634" y="-122.6" font-family="Times,serif" font-size="8.00" fill="#000000">0 of 6.20GB(9.48%)</text>
</a>
</g>
</g>
<!-- N2&#45;&gt;N12 -->
<g id="edge9" class="edge">
<title>N2&#45;&gt;N12</title>
<g id="a_edge9"><a xlink:title="github.com/mailru/easyjson/jlexer.(*Lexer).String &#45;&gt; runtime.slicebytetostring (6.15GB)">
<path fill="none" stroke="#000000" d="M593.5672,-197.9735C600.6789,-185.8418 610.1832,-169.6287 618.1901,-155.9698"/>
<polygon fill="#000000" stroke="#000000" points="621.4085,-157.4004 623.4463,-147.0034 615.3696,-153.8603 621.4085,-157.4004"/>
</a>
</g>
<g id="a_edge9&#45;label"><a xlink:title="github.com/mailru/easyjson/jlexer.(*Lexer).String &#45;&gt; runtime.slicebytetostring (6.15GB)">
<text text-anchor="middle" x="641" y="-168.8" font-family="Times,serif" font-size="14.00" fill="#000000"> 6.15GB</text>
</a>
</g>
</g>
<!-- N3 -->
<g id="node4" class="node">
<title>N3</title>
<g id="a_node4"><a xlink:title="main.(*User).UnmarshalJSON (6.15GB)">
<polygon fill="#f8f8f8" stroke="#000000" points="659,-408 515,-408 515,-372 659,-372 659,-408"/>
<text text-anchor="middle" x="587" y="-392.6" font-family="Times,serif" font-size="8.00" fill="#000000">main.(*User).UnmarshalJSON</text>
<text text-anchor="middle" x="587" y="-383.6" font-family="Times,serif" font-size="8.00" fill="#000000">0 of 6.15GB(9.40%)</text>
</a>
</g>
</g>
<!-- N4 -->
<g id="node5" class="node">
<title>N4</title>
<g id="a_node5"><a xlink:title="main.easyjson6a975c40DecodeMsuGo11899HomeworkSearcher (6.15GB)">
<polygon fill="#f8f8f8" stroke="#000000" points="710.5,-321 417.5,-321 417.5,-285 710.5,-285 710.5,-321"/>
<text text-anchor="middle" x="564" y="-305.6" font-family="Times,serif" font-size="8.00" fill="#000000">main.easyjson6a975c40DecodeMsuGo11899HomeworkSearcher</text>
<text text-anchor="middle" x="564" y="-296.6" font-family="Times,serif" font-size="8.00" fill="#000000">0 of 6.15GB(9.40%)</text>
</a>
</g>
</g>
<!-- N3&#45;&gt;N4 -->
<g id="edge10" class="edge">
<title>N3&#45;&gt;N4</title>
<g id="a_edge10"><a xlink:title="main.(*User).UnmarshalJSON &#45;&gt; main.easyjson6a975c40DecodeMsuGo11899HomeworkSearcher (6.15GB)">
<path fill="none" stroke="#000000" d="M582.2344,-371.9735C579.0888,-360.0751 574.9054,-344.2508 571.339,-330.7606"/>
<polygon fill="#000000" stroke="#000000" points="574.6992,-329.7766 568.7595,-321.0034 567.9317,-331.5658 574.6992,-329.7766"/>
</a>
</g>
<g id="a_edge10&#45;label"><a xlink:title="main.(*User).UnmarshalJSON &#45;&gt; main.easyjson6a975c40DecodeMsuGo11899HomeworkSearcher (6.15GB)">
<text text-anchor="middle" x="606" y="-342.8" font-family="Times,serif" font-size="14.00" fill="#000000"> 6.15GB</text>
</a>
</g>
</g>
<!-- N4&#45;&gt;N2 -->
<g id="edge11" class="edge">
<title>N4&#45;&gt;N2</title>
<g id="a_edge11"><a xlink:title="main.easyjson6a975c40DecodeMsuGo11899HomeworkSearcher &#45;&gt; github.com/mailru/easyjson/jlexer.(*Lexer).String (6.15GB)">
<path fill="none" stroke="#000000" d="M567.9368,-284.9735C570.5098,-273.1918 573.9235,-257.5607 576.8505,-244.1581"/>
<polygon fill="#000000" stroke="#000000" points="580.3539,-244.5199 579.0682,-234.0034 573.5151,-243.0263 580.3539,-244.5199"/>
</a>
</g>
<g id="a_edge11&#45;label"><a xlink:title="main.easyjson6a975c40DecodeMsuGo11899HomeworkSearcher &#45;&gt; github.com/mailru/easyjson/jlexer.(*Lexer).String (6.15GB)">
<text text-anchor="middle" x="604" y="-255.8" font-family="Times,serif" font-size="14.00" fill="#000000"> 6.15GB</text>
</a>
</g>
</g>
<!-- N5 -->
<g id="node6" class="node">
<title>N5</title>
<g id="a_node6"><a xlink:title="main.main.func1 (65.38GB)">
<polygon fill="#f8f8f8" stroke="#000000" points="790,-495 688,-495 688,-459 790,-459 790,-495"/>
<text text-anchor="middle" x="739" y="-479.6" font-family="Times,serif" font-size="8.00" fill="#000000">main.main.func1</text>
<text text-anchor="middle" x="739" y="-470.6" font-family="Times,serif" font-size="8.00" fill="#000000">0 of 65.38GB(100%)</text>
</a>
</g>
</g>
<!-- N5&#45;&gt;N3 -->
<g id="edge12" class="edge">
<title>N5&#45;&gt;N3</title>
<g id="a_edge12"><a xlink:title="main.main.func1 &#45;&gt; main.(*User).UnmarshalJSON (6.15GB)">
<path fill="none" stroke="#000000" d="M707.5055,-458.9735C684.2718,-445.6753 652.4701,-427.473 627.3701,-413.1065"/>
<polygon fill="#000000" stroke="#000000" points="628.8717,-409.9333 618.4542,-408.0034 625.3944,-416.0086 628.8717,-409.9333"/>
</a>
</g>
<g id="a_edge12&#45;label"><a xlink:title="main.main.func1 &#45;&gt; main.(*User).UnmarshalJSON (6.15GB)">
<text text-anchor="middle" x="702" y="-429.8" font-family="Times,serif" font-size="14.00" fill="#000000"> 6.15GB</text>
</a>
</g>
</g>
<!-- N10 -->
<g id="node11" class="node">
<title>N10</title>
<g id="a_node11"><a xlink:title="runtime.concatstrings (59.07GB)">
<polygon fill="#f8f8f8" stroke="#000000" points="794,-408 684,-408 684,-372 794,-372 794,-408"/>
<text text-anchor="middle" x="739" y="-392.6" font-family="Times,serif" font-size="8.00" fill="#000000">runtime.concatstrings</text>
<text text-anchor="middle" x="739" y="-383.6" font-family="Times,serif" font-size="8.00" fill="#000000">0 of 59.07GB(90.35%)</text>
</a>
</g>
</g>
<!-- N5&#45;&gt;N10 -->
<g id="edge7" class="edge">
<title>N5&#45;&gt;N10</title>
<g id="a_edge7"><a xlink:title="main.main.func1 &#45;&gt; runtime.concatstrings (59.01GB)">
<path fill="none" stroke="#000000" stroke-width="5" d="M739,-458.9735C739,-447.1918 739,-431.5607 739,-418.1581"/>
<polygon fill="#000000" stroke="#000000" stroke-width="5" points="743.3751,-418.0033 739,-408.0034 734.6251,-418.0034 743.3751,-418.0033"/>
</a>
</g>
<g id="a_edge7&#45;label"><a xlink:title="main.main.func1 &#45;&gt; runtime.concatstrings (59.01GB)">
<text text-anchor="middle" x="772.5" y="-429.8" font-family="Times,serif" font-size="14.00" fill="#000000"> 59.01GB</text>
</a>
</g>
</g>
<!-- N6 -->
<g id="node7" class="node">
<title>N6</title>
<g id="a_node7"><a xlink:title="net/http.(*ServeMux).ServeHTTP (65.38GB)">
<polygon fill="#f8f8f8" stroke="#000000" points="817.5,-669 660.5,-669 660.5,-633 817.5,-633 817.5,-669"/>
<text text-anchor="middle" x="739" y="-653.6" font-family="Times,serif" font-size="8.00" fill="#000000">net/http.(*ServeMux).ServeHTTP</text>
<text text-anchor="middle" x="739" y="-644.6" font-family="Times,serif" font-size="8.00" fill="#000000">0 of 65.38GB(100%)</text>
</a>
</g>
</g>
<!-- N8 -->
<g id="node9" class="node">
<title>N8</title>
<g id="a_node9"><a xlink:title="net/http.HandlerFunc.ServeHTTP (65.38GB)">
<polygon fill="#f8f8f8" stroke="#000000" points="819,-582 659,-582 659,-546 819,-546 819,-582"/>
<text text-anchor="middle" x="739" y="-566.6" font-family="Times,serif" font-size="8.00" fill="#000000">net/http.HandlerFunc.ServeHTTP</text>
<text text-anchor="middle" x="739" y="-557.6" font-family="Times,serif" font-size="8.00" fill="#000000">0 of 65.38GB(100%)</text>
</a>
</g>
</g>
<!-- N6&#45;&gt;N8 -->
<g id="edge1" class="edge">
<title>N6&#45;&gt;N8</title>
<g id="a_edge1"><a xlink:title="net/http.(*ServeMux).ServeHTTP &#45;&gt; net/http.HandlerFunc.ServeHTTP (65.38GB)">
<path fill="none" stroke="#000000" stroke-width="5" d="M739,-632.9735C739,-621.1918 739,-605.5607 739,-592.1581"/>
<polygon fill="#000000" stroke="#000000" stroke-width="5" points="743.3751,-592.0033 739,-582.0034 734.6251,-592.0034 743.3751,-592.0033"/>
</a>
</g>
<g id="a_edge1&#45;label"><a xlink:title="net/http.(*ServeMux).ServeHTTP &#45;&gt; net/http.HandlerFunc.ServeHTTP (65.38GB)">
<text text-anchor="middle" x="772.5" y="-603.8" font-family="Times,serif" font-size="14.00" fill="#000000"> 65.38GB</text>
</a>
</g>
</g>
<!-- N7 -->
<g id="node8" class="node">
<title>N7</title>
<g id="a_node8"><a xlink:title="net/http.(*conn).serve (65.38GB)">
<polygon fill="#f8f8f8" stroke="#000000" points="794,-843 684,-843 684,-807 794,-807 794,-843"/>
<text text-anchor="middle" x="739" y="-827.6" font-family="Times,serif" font-size="8.00" fill="#000000">net/http.(*conn).serve</text>
<text text-anchor="middle" x="739" y="-818.6" font-family="Times,serif" font-size="8.00" fill="#000000">0 of 65.38GB(100%)</text>
</a>
</g>
</g>
<!-- N9 -->
<g id="node10" class="node">
<title>N9</title>
<g id="a_node10"><a xlink:title="net/http.serverHandler.ServeHTTP (65.38GB)">
<polygon fill="#f8f8f8" stroke="#000000" points="821.5,-756 656.5,-756 656.5,-720 821.5,-720 821.5,-756"/>
<text text-anchor="middle" x="739" y="-740.6" font-family="Times,serif" font-size="8.00" fill="#000000">net/http.serverHandler.ServeHTTP</text>
<text text-anchor="middle" x="739" y="-731.6" font-family="Times,serif" font-size="8.00" fill="#000000">0 of 65.38GB(100%)</text>
</a>
</g>
</g>
<!-- N7&#45;&gt;N9 -->
<g id="edge2" class="edge">
<title>N7&#45;&gt;N9</title>
<g id="a_edge2"><a xlink:title="net/http.(*conn).serve &#45;&gt; net/http.serverHandler.ServeHTTP (65.38GB)">
<path fill="none" stroke="#000000" stroke-width="5" d="M739,-806.9735C739,-795.1918 739,-779.5607 739,-766.1581"/>
<polygon fill="#000000" stroke="#000000" stroke-width="5" points="743.3751,-766.0033 739,-756.0034 734.6251,-766.0034 743.3751,-766.0033"/>
</a>
</g>
<g id="a_edge2&#45;label"><a xlink:title="net/http.(*conn).serve &#45;&gt; net/http.serverHandler.ServeHTTP (65.38GB)">
<text text-anchor="middle" x="772.5" y="-777.8" font-family="Times,serif" font-size="14.00" fill="#000000"> 65.38GB</text>
</a>
</g>
</g>
<!-- N8&#45;&gt;N5 -->
<g id="edge3" class="edge">
<title>N8&#45;&gt;N5</title>
<g id="a_edge3"><a xlink:title="net/http.HandlerFunc.ServeHTTP &#45;&gt; main.main.func1 (65.38GB)">
<path fill="none" stroke="#000000" stroke-width="5" d="M739,-545.9735C739,-534.1918 739,-518.5607 739,-505.1581"/>
<polygon fill="#000000" stroke="#000000" stroke-width="5" points="743.3751,-505.0033 739,-495.0034 734.6251,-505.0034 743.3751,-505.0033"/>
</a>
</g>
<g id="a_edge3&#45;label"><a xlink:title="net/http.HandlerFunc.ServeHTTP &#45;&gt; main.main.func1 (65.38GB)">
<text text-anchor="middle" x="772.5" y="-516.8" font-family="Times,serif" font-size="14.00" fill="#000000"> 65.38GB</text>
</a>
</g>
</g>
<!-- N9&#45;&gt;N6 -->
<g id="edge4" class="edge">
<title>N9&#45;&gt;N6</title>
<g id="a_edge4"><a xlink:title="net/http.serverHandler.ServeHTTP &#45;&gt; net/http.(*ServeMux).ServeHTTP (65.38GB)">
<path fill="none" stroke="#000000" stroke-width="5" d="M739,-719.9735C739,-708.1918 739,-692.5607 739,-679.1581"/>
<polygon fill="#000000" stroke="#000000" stroke-width="5" points="743.3751,-679.0033 739,-669.0034 734.6251,-679.0034 743.3751,-679.0033"/>
</a>
</g>
<g id="a_edge4&#45;label"><a xlink:title="net/http.serverHandler.ServeHTTP &#45;&gt; net/http.(*ServeMux).ServeHTTP (65.38GB)">
<text text-anchor="middle" x="772.5" y="-690.8" font-family="Times,serif" font-size="14.00" fill="#000000"> 65.38GB</text>
</a>
</g>
</g>
<!-- N10&#45;&gt;N1 -->
<g id="edge6" class="edge">
<title>N10&#45;&gt;N1</title>
<g id="a_edge6"><a xlink:title="runtime.concatstrings &#45;&gt; runtime.rawstringtmp (59.07GB)">
<path fill="none" stroke="#000000" stroke-width="5" d="M739,-371.6694C739,-354.0629 739,-326.7135 739,-303 739,-303 739,-303 739,-129 739,-109.7473 739,-88.3886 739,-70.4529"/>
<polygon fill="#000000" stroke="#000000" stroke-width="5" points="743.3751,-70.33 739,-60.3301 734.6251,-70.3301 743.3751,-70.33"/>
</a>
</g>
<g id="a_edge6&#45;label"><a xlink:title="runtime.concatstrings &#45;&gt; runtime.rawstringtmp (59.07GB)">
<text text-anchor="middle" x="772.5" y="-212.3" font-family="Times,serif" font-size="14.00" fill="#000000"> 59.07GB</text>
</a>
</g>
</g>
<!-- N11 -->
<g id="node12" class="node">
<title>N11</title>
<g id="a_node12"><a xlink:title="runtime.goexit (65.38GB)">
<polygon fill="#f8f8f8" stroke="#000000" points="790,-1003.5 688,-1003.5 688,-967.5 790,-967.5 790,-1003.5"/>
<text text-anchor="middle" x="739" y="-988.1" font-family="Times,serif" font-size="8.00" fill="#000000">runtime.goexit</text>
<text text-anchor="middle" x="739" y="-979.1" font-family="Times,serif" font-size="8.00" fill="#000000">0 of 65.38GB(100%)</text>
</a>
</g>
</g>
<!-- N11&#45;&gt;N7 -->
<g id="edge5" class="edge">
<title>N11&#45;&gt;N7</title>
<g id="a_edge5"><a xlink:title="runtime.goexit &#45;&gt; net/http.(*conn).serve (65.38GB)">
<path fill="none" stroke="#000000" stroke-width="5" d="M739,-967.4006C739,-939.706 739,-886.5664 739,-853.6146"/>
<polygon fill="#000000" stroke="#000000" stroke-width="5" points="743.3751,-853.2795 739,-843.2795 734.6251,-853.2796 743.3751,-853.2795"/>
</a>
</g>
<g id="a_edge5&#45;label"><a xlink:title="runtime.goexit &#45;&gt; net/http.(*conn).serve (65.38GB)">
<text text-anchor="middle" x="772.5" y="-864.8" font-family="Times,serif" font-size="14.00" fill="#000000"> 65.38GB</text>
</a>
</g>
</g>
<!-- N12&#45;&gt;N1 -->
<g id="edge8" class="edge">
<title>N12&#45;&gt;N1</title>
<g id="a_edge8"><a xlink:title="runtime.slicebytetostring &#45;&gt; runtime.rawstringtmp (6.20GB)">
<path fill="none" stroke="#000000" d="M643.3903,-110.7078C649.2704,-100.3604 657.5204,-87.6104 667,-78 671.0551,-73.8889 675.5157,-69.9303 680.1686,-66.1709"/>
<polygon fill="#000000" stroke="#000000" points="682.3479,-68.9103 688.1428,-60.0407 678.0816,-63.3606 682.3479,-68.9103"/>
</a>
</g>
<g id="a_edge8&#45;label"><a xlink:title="runtime.slicebytetostring &#45;&gt; runtime.rawstringtmp (6.20GB)">
<text text-anchor="middle" x="696" y="-81.8" font-family="Times,serif" font-size="14.00" fill="#000000"> 6.20GB</text>
</a>
</g>
</g>
</g>
</g></svg>
