<?xml version="1.0" encoding="UTF-8" standalone="no"?>
<!DOCTYPE svg PUBLIC "-//W3C//DTD SVG 1.1//EN"
 "http://www.w3.org/Graphics/SVG/1.1/DTD/svg11.dtd">
<!-- Generated by graphviz version 2.40.1 (20161225.0304)
 -->
<!-- Title: searcher Pages: 1 -->
<svg width="100%" height="100%" xmlns="http://www.w3.org/2000/svg" xmlns:xlink="http://www.w3.org/1999/xlink">
<script type="text/ecmascript"><![CDATA[
/** 
 *  SVGPan library 1.2.1
 * ======================
 *
 * Given an unique existing element with id "viewport" (or when missing, the first g 
 * element), including the the library into any SVG adds the following capabilities:
 *
 *  - Mouse panning
 *  - Mouse zooming (using the wheel)
 *  - Object dragging
 *
 * You can configure the behavior of the pan/zoom/drag with the variables
 * listed in the CONFIGURATION section of this file.
 *
 * Known issues:
 *
 *  - Zooming (while panning) on Safari has still some issues
 *
 * Releases:
 *
 * 1.2.1, Mon Jul  4 00:33:18 CEST 2011, Andrea Leofreddi
 *	- Fixed a regression with mouse wheel (now working on Firefox 5)
 *	- Working with viewBox attribute (#4)
 *	- Added "use strict;" and fixed resulting warnings (#5)
 *	- Added configuration variables, dragging is disabled by default (#3)
 *
 * 1.2, Sat Mar 20 08:42:50 GMT 2010, Zeng Xiaohui
 *	Fixed a bug with browser mouse handler interaction
 *
 * 1.1, Wed Feb  3 17:39:33 GMT 2010, Zeng Xiaohui
 *	Updated the zoom code to support the mouse wheel on Safari/Chrome
 *
 * 1.0, Andrea Leofreddi
 *	First release
 *
 * This code is licensed under the following BSD license:
 *
 * Copyright 2009-2010 Andrea Leofreddi <a.leofreddi@itcharm.com>. All rights reserved.
 * 
 * Redistribution and use in source and binary forms, with or without modification, are
 * permitted provided that the following conditions are met:
 * 
 *    1. Redistributions of source code must retain the above copyright notice, this list of
 *       conditions and the following disclaimer.
 * 
 *    2. Redistributions in binary form must reproduce the above copyright notice, this list
 *       of conditions and the following disclaimer in the documentation and/or other materials
 *       provided with the distribution.
 * 
 * THIS SOFTWARE IS PROVIDED BY Andrea Leofreddi ``AS IS'' AND ANY EXPRESS OR IMPLIED
 * WARRANTIES, INCLUDING, BUT NOT LIMITED TO, THE IMPLIED WARRANTIES OF MERCHANTABILITY AND
 * FITNESS FOR A PARTICULAR PURPOSE ARE DISCLAIMED. IN NO EVENT SHALL Andrea Leofreddi OR
 * CONTRIBUTORS BE LIABLE FOR ANY DIRECT, INDIRECT, INCIDENTAL, SPECIAL, EXEMPLARY, OR
 * CONSEQUENTIAL DAMAGES (INCLUDING, BUT NOT LIMITED TO, PROCUREMENT OF SUBSTITUTE GOODS OR
 * SERVICES; LOSS OF USE, DATA, OR PROFITS; OR BUSINESS INTERRUPTION) HOWEVER CAUSED AND ON
 * ANY THEORY OF LIABILITY, WHETHER IN CONTRACT, STRICT LIABILITY, OR TORT (INCLUDING
 * NEGLIGENCE OR OTHERWISE) ARISING IN ANY WAY OUT OF THE USE OF THIS SOFTWARE, EVEN IF
 * ADVISED OF THE POSSIBILITY OF SUCH DAMAGE.
 * 
 * The views and conclusions contained in the software and documentation are those of the
 * authors and should not be interpreted as representing official policies, either expressed
 * or implied, of Andrea Leofreddi.
 */

"use strict";

/// CONFIGURATION 
/// ====>

var enablePan = 1; // 1 or 0: enable or disable panning (default enabled)
var enableZoom = 1; // 1 or 0: enable or disable zooming (default enabled)
var enableDrag = 0; // 1 or 0: enable or disable dragging (default disabled)

/// <====
/// END OF CONFIGURATION 

var root = document.documentElement;

var state = 'none', svgRoot, stateTarget, stateOrigin, stateTf;

setupHandlers(root);

/**
 * Register handlers
 */
function setupHandlers(root){
	setAttributes(root, {
		"onmouseup" : "handleMouseUp(evt)",
		"onmousedown" : "handleMouseDown(evt)",
		"onmousemove" : "handleMouseMove(evt)",
		//"onmouseout" : "handleMouseUp(evt)", // Decomment this to stop the pan functionality when dragging out of the SVG element
	});

	if(navigator.userAgent.toLowerCase().indexOf('webkit') >= 0)
		window.addEventListener('mousewheel', handleMouseWheel, false); // Chrome/Safari
	else
		window.addEventListener('DOMMouseScroll', handleMouseWheel, false); // Others
}

/**
 * Retrieves the root element for SVG manipulation. The element is then cached into the svgRoot global variable.
 */
function getRoot(root) {
	if(typeof(svgRoot) == "undefined") {
		var g = null;

		g = root.getElementById("viewport");

		if(g == null)
			g = root.getElementsByTagName('g')[0];

		if(g == null)
			alert('Unable to obtain SVG root element');

		setCTM(g, g.getCTM());

		g.removeAttribute("viewBox");

		svgRoot = g;
	}

	return svgRoot;
}

/**
 * Instance an SVGPoint object with given event coordinates.
 */
function getEventPoint(evt) {
	var p = root.createSVGPoint();

	p.x = evt.clientX;
	p.y = evt.clientY;

	return p;
}

/**
 * Sets the current transform matrix of an element.
 */
function setCTM(element, matrix) {
	var s = "matrix(" + matrix.a + "," + matrix.b + "," + matrix.c + "," + matrix.d + "," + matrix.e + "," + matrix.f + ")";

	element.setAttribute("transform", s);
}

/**
 * Dumps a matrix to a string (useful for debug).
 */
function dumpMatrix(matrix) {
	var s = "[ " + matrix.a + ", " + matrix.c + ", " + matrix.e + "\n  " + matrix.b + ", " + matrix.d + ", " + matrix.f + "\n  0, 0, 1 ]";

	return s;
}

/**
 * Sets attributes of an element.
 */
function setAttributes(element, attributes){
	for (var i in attributes)
		element.setAttributeNS(null, i, attributes[i]);
}

/**
 * Handle mouse wheel event.
 */
function handleMouseWheel(evt) {
	if(!enableZoom)
		return;

	if(evt.preventDefault)
		evt.preventDefault();

	evt.returnValue = false;

	var svgDoc = evt.target.ownerDocument;

	var delta;

	if(evt.wheelDelta)
		delta = evt.wheelDelta / 3600; // Chrome/Safari
	else
		delta = evt.detail / -90; // Mozilla

	var z = 1 + delta; // Zoom factor: 0.9/1.1

	var g = getRoot(svgDoc);
	
	var p = getEventPoint(evt);

	p = p.matrixTransform(g.getCTM().inverse());

	// Compute new scale matrix in current mouse position
	var k = root.createSVGMatrix().translate(p.x, p.y).scale(z).translate(-p.x, -p.y);

        setCTM(g, g.getCTM().multiply(k));

	if(typeof(stateTf) == "undefined")
		stateTf = g.getCTM().inverse();

	stateTf = stateTf.multiply(k.inverse());
}

/**
 * Handle mouse move event.
 */
function handleMouseMove(evt) {
	if(evt.preventDefault)
		evt.preventDefault();

	evt.returnValue = false;

	var svgDoc = evt.target.ownerDocument;

	var g = getRoot(svgDoc);

	if(state == 'pan' && enablePan) {
		// Pan mode
		var p = getEventPoint(evt).matrixTransform(stateTf);

		setCTM(g, stateTf.inverse().translate(p.x - stateOrigin.x, p.y - stateOrigin.y));
	} else if(state == 'drag' && enableDrag) {
		// Drag mode
		var p = getEventPoint(evt).matrixTransform(g.getCTM().inverse());

		setCTM(stateTarget, root.createSVGMatrix().translate(p.x - stateOrigin.x, p.y - stateOrigin.y).multiply(g.getCTM().inverse()).multiply(stateTarget.getCTM()));

		stateOrigin = p;
	}
}

/**
 * Handle click event.
 */
function handleMouseDown(evt) {
	if(evt.preventDefault)
		evt.preventDefault();

	evt.returnValue = false;

	var svgDoc = evt.target.ownerDocument;

	var g = getRoot(svgDoc);

	if(
		evt.target.tagName == "svg" 
		|| !enableDrag // Pan anyway when drag is disabled and the user clicked on an element 
	) {
		// Pan mode
		state = 'pan';

		stateTf = g.getCTM().inverse();

		stateOrigin = getEventPoint(evt).matrixTransform(stateTf);
	} else {
		// Drag mode
		state = 'drag';

		stateTarget = evt.target;

		stateTf = g.getCTM().inverse();

		stateOrigin = getEventPoint(evt).matrixTransform(stateTf);
	}
}

/**
 * Handle mouse button release event.
 */
function handleMouseUp(evt) {
	if(evt.preventDefault)
		evt.preventDefault();

	evt.returnValue = false;

	var svgDoc = evt.target.ownerDocument;

	if(state == 'pan' || state == 'drag') {
		// Quit pan mode
		state = '';
	}
}

]]></script><g id="viewport" transform="scale(0.5,0.5) translate(0,0)"><g id="graph0" class="graph" transform="scale(1 1) rotate(0) translate(4 1099)">
<title>searcher</title>
<polygon fill="#ffffff" stroke="transparent" points="-4,4 -4,-1099 970.5,-1099 970.5,4 -4,4"/>
<g id="clust1" class="cluster">
<title>cluster_L</title>
<polygon fill="none" stroke="#000000" points="8,-888 8,-1087 754,-1087 754,-888 8,-888"/>
</g>
<!-- L -->
<g id="node1" class="node">
<title>L</title>
<polygon fill="#f8f8f8" stroke="#000000" points="746.5,-1079 15.5,-1079 15.5,-896 746.5,-896 746.5,-1079"/>
<text text-anchor="start" x="23.5" y="-1049.4" font-family="Times,serif" font-size="32.00" fill="#000000">File: searcher</text>
<text text-anchor="start" x="23.5" y="-1014.4" font-family="Times,serif" font-size="32.00" fill="#000000">Type: alloc_space</text>
<text text-anchor="start" x="23.5" y="-979.4" font-family="Times,serif" font-size="32.00" fill="#000000">Time: May 20, 2017 at 12:39am (MSK)</text>
<text text-anchor="start" x="23.5" y="-944.4" font-family="Times,serif" font-size="32.00" fill="#000000">61902.01MB of 62057.83MB total (99.75%)</text>
<text text-anchor="start" x="23.5" y="-909.4" font-family="Times,serif" font-size="32.00" fill="#000000">Dropped 61 nodes (cum &lt;= 310.29MB)</text>
</g>
<!-- N1 -->
<g id="node2" class="node">
<title>N1</title>
<g id="a_node2"><a xlink:title="runtime.rawstringtmp (61901.51MB)">
<polygon fill="#f8f8f8" stroke="#000000" points="966.5,-60 681.5,-60 681.5,0 966.5,0 966.5,-60"/>
<text text-anchor="middle" x="824" y="-36.8" font-family="Times,serif" font-size="24.00" fill="#000000">runtime.rawstringtmp</text>
<text text-anchor="middle" x="824" y="-10.8" font-family="Times,serif" font-size="24.00" fill="#000000">61901.51MB(99.75%)</text>
</a>
</g>
</g>
<!-- N2 -->
<g id="node3" class="node">
<title>N2</title>
<g id="a_node3"><a xlink:title="main.main.func1 (62049.85MB)">
<polygon fill="#f8f8f8" stroke="#000000" points="885,-497 763,-497 763,-459 885,-459 885,-497"/>
<text text-anchor="middle" x="824" y="-485.8" font-family="Times,serif" font-size="9.00" fill="#000000">main.main.func1</text>
<text text-anchor="middle" x="824" y="-475.8" font-family="Times,serif" font-size="9.00" fill="#000000">0.50MB(0.00081%)</text>
<text text-anchor="middle" x="824" y="-465.8" font-family="Times,serif" font-size="9.00" fill="#000000">of 62049.85MB(100%)</text>
</a>
</g>
</g>
<!-- N4 -->
<g id="node5" class="node">
<title>N4</title>
<g id="a_node5"><a xlink:title="main.(*User).UnmarshalJSON (5865.55MB)">
<polygon fill="#f8f8f8" stroke="#000000" points="737,-408 593,-408 593,-372 737,-372 737,-408"/>
<text text-anchor="middle" x="665" y="-392.6" font-family="Times,serif" font-size="8.00" fill="#000000">main.(*User).UnmarshalJSON</text>
<text text-anchor="middle" x="665" y="-383.6" font-family="Times,serif" font-size="8.00" fill="#000000">0 of 5865.55MB(9.45%)</text>
</a>
</g>
</g>
<!-- N2&#45;&gt;N4 -->
<g id="edge12" class="edge">
<title>N2&#45;&gt;N4</title>
<g id="a_edge12"><a xlink:title="main.main.func1 &#45;&gt; main.(*User).UnmarshalJSON (5865.55MB)">
<path fill="none" stroke="#000000" d="M769.353,-458.8295C756.7783,-453.6566 743.6764,-447.6314 732,-441 718.7026,-433.448 705.0851,-423.5521 693.6294,-414.4888"/>
<polygon fill="#000000" stroke="#000000" points="695.6823,-411.6477 685.7055,-408.0819 691.2811,-417.091 695.6823,-411.6477"/>
</a>
</g>
<g id="a_edge12&#45;label"><a xlink:title="main.main.func1 &#45;&gt; main.(*User).UnmarshalJSON (5865.55MB)">
<text text-anchor="middle" x="776" y="-429.8" font-family="Times,serif" font-size="14.00" fill="#000000"> 5865.55MB</text>
</a>
</g>
</g>
<!-- N10 -->
<g id="node11" class="node">
<title>N10</title>
<g id="a_node11"><a xlink:title="runtime.concatstrings (55991.95MB)">
<polygon fill="#f8f8f8" stroke="#000000" points="888,-408 760,-408 760,-372 888,-372 888,-408"/>
<text text-anchor="middle" x="824" y="-392.6" font-family="Times,serif" font-size="8.00" fill="#000000">runtime.concatstrings</text>
<text text-anchor="middle" x="824" y="-383.6" font-family="Times,serif" font-size="8.00" fill="#000000">0 of 55991.95MB(90.23%)</text>
</a>
</g>
</g>
<!-- N2&#45;&gt;N10 -->
<g id="edge7" class="edge">
<title>N2&#45;&gt;N10</title>
<g id="a_edge7"><a xlink:title="main.main.func1 &#45;&gt; runtime.concatstrings (55944.53MB)">
<path fill="none" stroke="#000000" stroke-width="5" d="M824,-458.9053C824,-447.019 824,-431.517 824,-418.2275"/>
<polygon fill="#000000" stroke="#000000" stroke-width="5" points="828.3751,-418.1552 824,-408.1553 819.6251,-418.1553 828.3751,-418.1552"/>
</a>
</g>
<g id="a_edge7&#45;label"><a xlink:title="main.main.func1 &#45;&gt; runtime.concatstrings (55944.53MB)">
<text text-anchor="middle" x="872.5" y="-429.8" font-family="Times,serif" font-size="14.00" fill="#000000"> 55944.53MB</text>
</a>
</g>
</g>
<!-- N3 -->
<g id="node4" class="node">
<title>N3</title>
<g id="a_node4"><a xlink:title="github.com/mailru/easyjson/jlexer.(*Lexer).String (5865.55MB)">
<polygon fill="#f8f8f8" stroke="#000000" points="781.5,-234 554.5,-234 554.5,-198 781.5,-198 781.5,-234"/>
<text text-anchor="middle" x="668" y="-218.6" font-family="Times,serif" font-size="8.00" fill="#000000">github.com/mailru/easyjson/jlexer.(*Lexer).String</text>
<text text-anchor="middle" x="668" y="-209.6" font-family="Times,serif" font-size="8.00" fill="#000000">0 of 5865.55MB(9.45%)</text>
</a>
</g>
</g>
<!-- N12 -->
<g id="node13" class="node">
<title>N12</title>
<g id="a_node13"><a xlink:title="runtime.slicebytetostring (5909.55MB)">
<polygon fill="#f8f8f8" stroke="#000000" points="783,-147 659,-147 659,-111 783,-111 783,-147"/>
<text text-anchor="middle" x="721" y="-131.6" font-family="Times,serif" font-size="8.00" fill="#000000">runtime.slicebytetostring</text>
<text text-anchor="middle" x="721" y="-122.6" font-family="Times,serif" font-size="8.00" fill="#000000">0 of 5909.55MB(9.52%)</text>
</a>
</g>
</g>
<!-- N3&#45;&gt;N12 -->
<g id="edge9" class="edge">
<title>N3&#45;&gt;N12</title>
<g id="a_edge9"><a xlink:title="github.com/mailru/easyjson/jlexer.(*Lexer).String &#45;&gt; runtime.slicebytetostring (5865.55MB)">
<path fill="none" stroke="#000000" d="M678.9816,-197.9735C686.4433,-185.7252 696.4394,-169.3165 704.8097,-155.5766"/>
<polygon fill="#000000" stroke="#000000" points="707.8188,-157.3644 710.0324,-147.0034 701.8408,-153.7225 707.8188,-157.3644"/>
</a>
</g>
<g id="a_edge9&#45;label"><a xlink:title="github.com/mailru/easyjson/jlexer.(*Lexer).String &#45;&gt; runtime.slicebytetostring (5865.55MB)">
<text text-anchor="middle" x="742" y="-168.8" font-family="Times,serif" font-size="14.00" fill="#000000"> 5865.55MB</text>
</a>
</g>
</g>
<!-- N5 -->
<g id="node6" class="node">
<title>N5</title>
<g id="a_node6"><a xlink:title="main.easyjson6a975c40DecodeMsuGo11899HomeworkSearcher (5865.55MB)">
<polygon fill="#f8f8f8" stroke="#000000" points="795.5,-321 502.5,-321 502.5,-285 795.5,-285 795.5,-321"/>
<text text-anchor="middle" x="649" y="-305.6" font-family="Times,serif" font-size="8.00" fill="#000000">main.easyjson6a975c40DecodeMsuGo11899HomeworkSearcher</text>
<text text-anchor="middle" x="649" y="-296.6" font-family="Times,serif" font-size="8.00" fill="#000000">0 of 5865.55MB(9.45%)</text>
</a>
</g>
</g>
<!-- N4&#45;&gt;N5 -->
<g id="edge10" class="edge">
<title>N4&#45;&gt;N5</title>
<g id="a_edge10"><a xlink:title="main.(*User).UnmarshalJSON &#45;&gt; main.easyjson6a975c40DecodeMsuGo11899HomeworkSearcher (5865.55MB)">
<path fill="none" stroke="#000000" d="M661.6848,-371.9735C659.518,-360.1918 656.6433,-344.5607 654.1785,-331.1581"/>
<polygon fill="#000000" stroke="#000000" points="657.5621,-330.2053 652.311,-321.0034 650.6775,-331.4715 657.5621,-330.2053"/>
</a>
</g>
<g id="a_edge10&#45;label"><a xlink:title="main.(*User).UnmarshalJSON &#45;&gt; main.easyjson6a975c40DecodeMsuGo11899HomeworkSearcher (5865.55MB)">
<text text-anchor="middle" x="702" y="-342.8" font-family="Times,serif" font-size="14.00" fill="#000000"> 5865.55MB</text>
</a>
</g>
</g>
<!-- N5&#45;&gt;N3 -->
<g id="edge11" class="edge">
<title>N5&#45;&gt;N3</title>
<g id="a_edge11"><a xlink:title="main.easyjson6a975c40DecodeMsuGo11899HomeworkSearcher &#45;&gt; github.com/mailru/easyjson/jlexer.(*Lexer).String (5865.55MB)">
<path fill="none" stroke="#000000" d="M652.9368,-284.9735C655.5098,-273.1918 658.9235,-257.5607 661.8505,-244.1581"/>
<polygon fill="#000000" stroke="#000000" points="665.3539,-244.5199 664.0682,-234.0034 658.5151,-243.0263 665.3539,-244.5199"/>
</a>
</g>
<g id="a_edge11&#45;label"><a xlink:title="main.easyjson6a975c40DecodeMsuGo11899HomeworkSearcher &#45;&gt; github.com/mailru/easyjson/jlexer.(*Lexer).String (5865.55MB)">
<text text-anchor="middle" x="704" y="-255.8" font-family="Times,serif" font-size="14.00" fill="#000000"> 5865.55MB</text>
</a>
</g>
</g>
<!-- N6 -->
<g id="node7" class="node">
<title>N6</title>
<g id="a_node7"><a xlink:title="net/http.(*ServeMux).ServeHTTP (62049.85MB)">
<polygon fill="#f8f8f8" stroke="#000000" points="902.5,-671 745.5,-671 745.5,-635 902.5,-635 902.5,-671"/>
<text text-anchor="middle" x="824" y="-655.6" font-family="Times,serif" font-size="8.00" fill="#000000">net/http.(*ServeMux).ServeHTTP</text>
<text text-anchor="middle" x="824" y="-646.6" font-family="Times,serif" font-size="8.00" fill="#000000">0 of 62049.85MB(100%)</text>
</a>
</g>
</g>
<!-- N8 -->
<g id="node9" class="node">
<title>N8</title>
<g id="a_node9"><a xlink:title="net/http.HandlerFunc.ServeHTTP (62049.85MB)">
<polygon fill="#f8f8f8" stroke="#000000" points="904,-584 744,-584 744,-548 904,-548 904,-584"/>
<text text-anchor="middle" x="824" y="-568.6" font-family="Times,serif" font-size="8.00" fill="#000000">net/http.HandlerFunc.ServeHTTP</text>
<text text-anchor="middle" x="824" y="-559.6" font-family="Times,serif" font-size="8.00" fill="#000000">0 of 62049.85MB(100%)</text>
</a>
</g>
</g>
<!-- N6&#45;&gt;N8 -->
<g id="edge2" class="edge">
<title>N6&#45;&gt;N8</title>
<g id="a_edge2"><a xlink:title="net/http.(*ServeMux).ServeHTTP &#45;&gt; net/http.HandlerFunc.ServeHTTP (62049.85MB)">
<path fill="none" stroke="#000000" stroke-width="5" d="M824,-634.9735C824,-623.1918 824,-607.5607 824,-594.1581"/>
<polygon fill="#000000" stroke="#000000" stroke-width="5" points="828.3751,-594.0033 824,-584.0034 819.6251,-594.0034 828.3751,-594.0033"/>
</a>
</g>
<g id="a_edge2&#45;label"><a xlink:title="net/http.(*ServeMux).ServeHTTP &#45;&gt; net/http.HandlerFunc.ServeHTTP (62049.85MB)">
<text text-anchor="middle" x="872.5" y="-605.8" font-family="Times,serif" font-size="14.00" fill="#000000"> 62049.85MB</text>
</a>
</g>
</g>
<!-- N7 -->
<g id="node8" class="node">
<title>N7</title>
<g id="a_node8"><a xlink:title="net/http.(*conn).serve (62050.35MB)">
<polygon fill="#f8f8f8" stroke="#000000" points="883.5,-845 764.5,-845 764.5,-809 883.5,-809 883.5,-845"/>
<text text-anchor="middle" x="824" y="-829.6" font-family="Times,serif" font-size="8.00" fill="#000000">net/http.(*conn).serve</text>
<text text-anchor="middle" x="824" y="-820.6" font-family="Times,serif" font-size="8.00" fill="#000000">0 of 62050.35MB(100%)</text>
</a>
</g>
</g>
<!-- N9 -->
<g id="node10" class="node">
<title>N9</title>
<g id="a_node10"><a xlink:title="net/http.serverHandler.ServeHTTP (62049.85MB)">
<polygon fill="#f8f8f8" stroke="#000000" points="906.5,-758 741.5,-758 741.5,-722 906.5,-722 906.5,-758"/>
<text text-anchor="middle" x="824" y="-742.6" font-family="Times,serif" font-size="8.00" fill="#000000">net/http.serverHandler.ServeHTTP</text>
<text text-anchor="middle" x="824" y="-733.6" font-family="Times,serif" font-size="8.00" fill="#000000">0 of 62049.85MB(100%)</text>
</a>
</g>
</g>
<!-- N7&#45;&gt;N9 -->
<g id="edge3" class="edge">
<title>N7&#45;&gt;N9</title>
<g id="a_edge3"><a xlink:title="net/http.(*conn).serve &#45;&gt; net/http.serverHandler.ServeHTTP (62049.85MB)">
<path fill="none" stroke="#000000" stroke-width="5" d="M824,-808.9735C824,-797.1918 824,-781.5607 824,-768.1581"/>
<polygon fill="#000000" stroke="#000000" stroke-width="5" points="828.3751,-768.0033 824,-758.0034 819.6251,-768.0034 828.3751,-768.0033"/>
</a>
</g>
<g id="a_edge3&#45;label"><a xlink:title="net/http.(*conn).serve &#45;&gt; net/http.serverHandler.ServeHTTP (62049.85MB)">
<text text-anchor="middle" x="872.5" y="-779.8" font-family="Times,serif" font-size="14.00" fill="#000000"> 62049.85MB</text>
</a>
</g>
</g>
<!-- N8&#45;&gt;N2 -->
<g id="edge4" class="edge">
<title>N8&#45;&gt;N2</title>
<g id="a_edge4"><a xlink:title="net/http.HandlerFunc.ServeHTTP &#45;&gt; main.main.func1 (62049.85MB)">
<path fill="none" stroke="#000000" stroke-width="5" d="M824,-547.7663C824,-536.0875 824,-520.6692 824,-507.2978"/>
<polygon fill="#000000" stroke="#000000" stroke-width="5" points="828.3751,-507.1235 824,-497.1235 819.6251,-507.1235 828.3751,-507.1235"/>
</a>
</g>
<g id="a_edge4&#45;label"><a xlink:title="net/http.HandlerFunc.ServeHTTP &#45;&gt; main.main.func1 (62049.85MB)">
<text text-anchor="middle" x="872.5" y="-518.8" font-family="Times,serif" font-size="14.00" fill="#000000"> 62049.85MB</text>
</a>
</g>
</g>
<!-- N9&#45;&gt;N6 -->
<g id="edge5" class="edge">
<title>N9&#45;&gt;N6</title>
<g id="a_edge5"><a xlink:title="net/http.serverHandler.ServeHTTP &#45;&gt; net/http.(*ServeMux).ServeHTTP (62049.85MB)">
<path fill="none" stroke="#000000" stroke-width="5" d="M824,-721.9735C824,-710.1918 824,-694.5607 824,-681.1581"/>
<polygon fill="#000000" stroke="#000000" stroke-width="5" points="828.3751,-681.0033 824,-671.0034 819.6251,-681.0034 828.3751,-681.0033"/>
</a>
</g>
<g id="a_edge5&#45;label"><a xlink:title="net/http.serverHandler.ServeHTTP &#45;&gt; net/http.(*ServeMux).ServeHTTP (62049.85MB)">
<text text-anchor="middle" x="872.5" y="-692.8" font-family="Times,serif" font-size="14.00" fill="#000000"> 62049.85MB</text>
</a>
</g>
</g>
<!-- N10&#45;&gt;N1 -->
<g id="edge6" class="edge">
<title>N10&#45;&gt;N1</title>
<g id="a_edge6"><a xlink:title="runtime.concatstrings &#45;&gt; runtime.rawstringtmp (55991.95MB)">
<path fill="none" stroke="#000000" stroke-width="5" d="M824,-371.6694C824,-354.0629 824,-326.7135 824,-303 824,-303 824,-303 824,-129 824,-109.7473 824,-88.3886 824,-70.4529"/>
<polygon fill="#000000" stroke="#000000" stroke-width="5" points="828.3751,-70.33 824,-60.3301 819.6251,-70.3301 828.3751,-70.33"/>
</a>
</g>
<g id="a_edge6&#45;label"><a xlink:title="runtime.concatstrings &#45;&gt; runtime.rawstringtmp (55991.95MB)">
<text text-anchor="middle" x="872.5" y="-212.3" font-family="Times,serif" font-size="14.00" fill="#000000"> 55991.95MB</text>
</a>
</g>
</g>
<!-- N11 -->
<g id="node12" class="node">
<title>N11</title>
<g id="a_node12"><a xlink:title="runtime.goexit (62057.83MB)">
<polygon fill="#f8f8f8" stroke="#000000" points="883.5,-1005.5 764.5,-1005.5 764.5,-969.5 883.5,-969.5 883.5,-1005.5"/>
<text text-anchor="middle" x="824" y="-990.1" font-family="Times,serif" font-size="8.00" fill="#000000">runtime.goexit</text>
<text text-anchor="middle" x="824" y="-981.1" font-family="Times,serif" font-size="8.00" fill="#000000">0 of 62057.83MB(100%)</text>
</a>
</g>
</g>
<!-- N11&#45;&gt;N7 -->
<g id="edge1" class="edge">
<title>N11&#45;&gt;N7</title>
<g id="a_edge1"><a xlink:title="runtime.goexit &#45;&gt; net/http.(*conn).serve (62050.35MB)">
<path fill="none" stroke="#000000" stroke-width="5" d="M824,-969.4006C824,-941.706 824,-888.5664 824,-855.6146"/>
<polygon fill="#000000" stroke="#000000" stroke-width="5" points="828.3751,-855.2795 824,-845.2795 819.6251,-855.2796 828.3751,-855.2795"/>
</a>
</g>
<g id="a_edge1&#45;label"><a xlink:title="runtime.goexit &#45;&gt; net/http.(*conn).serve (62050.35MB)">
<text text-anchor="middle" x="872.5" y="-866.8" font-family="Times,serif" font-size="14.00" fill="#000000"> 62050.35MB</text>
</a>
</g>
</g>
<!-- N12&#45;&gt;N1 -->
<g id="edge8" class="edge">
<title>N12&#45;&gt;N1</title>
<g id="a_edge8"><a xlink:title="runtime.slicebytetostring &#45;&gt; runtime.rawstringtmp (5909.55MB)">
<path fill="none" stroke="#000000" d="M716.8745,-110.6332C715.5827,-100.261 715.8327,-87.511 722,-78 724.6554,-73.905 727.7613,-70.1524 731.2048,-66.7142"/>
<polygon fill="#000000" stroke="#000000" points="733.5292,-69.3309 738.711,-60.0897 728.8973,-64.0825 733.5292,-69.3309"/>
</a>
</g>
<g id="a_edge8&#45;label"><a xlink:title="runtime.slicebytetostring &#45;&gt; runtime.rawstringtmp (5909.55MB)">
<text text-anchor="middle" x="766" y="-81.8" font-family="Times,serif" font-size="14.00" fill="#000000"> 5909.55MB</text>
</a>
</g>
</g>
</g>
</g></svg>
